{
    "browser_testing":{
        "test_api":"https://jsonplaceholder.typicode.com/todos/1",
        "keyword_contain":"userId"
    },
    "random_range":"9:14",
    "work_urls":[
    "https://m.facebook.com/l.php?u=https%3A%2F%2Fone.scholarshippro.site%2Fgreedy-heirs-tried-to-earn-favor-with-grandpa-to-inherit-more-their-jaws-dropped-when-the-lawyer-read-the-will%2F%3Ffbclid%3DIwZXh0bgNhZW0CMTAAAR3siP2ipLi8kv1IrXl0yT32u2jf91KgEnbXd_wjJBs-6UvCzcFsMtQLOwU_aem_ko__jAODqZy9u3zPdbjenA&h=AT1l0XdqkoES-5FIcYWfgXJC30WLT-dBdNRaNAu1R7w6GXsfnLsp_zGBlIJHpQCmVRdCUyPGEMrSL-vmEaid3nJd5fkKvTJiddwJAFAO47yIYIPGjOUwOI_u5459Zvz8mlreAZHsS-JPwZdc0T-A&__tn__=-UK-R&c[0]=AT3X92sOOcKKjKmZL8gNDTIfhbaJRe_YwcaXtp0AkWRNL_Ye-HIl5yLeXc5V5JCv2L5Ti4FwVeow4jFBxapDtVj_7ZCvpRtTN54SJRWo4WdfTzJZrWQAeFhrOe4vYNaBkYnoQqEkuY-HzBL_s7PpdBO7hzpaYO5D5x2gHEG96Q0F6NJlINn9a32Qwe8O-6u_qS_JXg",
"https://m.facebook.com/l.php?u=https%3A%2F%2Fone.scholarshippro.site%2Fmy-wife-gave-birth-to-a-baby-with-black-skin-when-i-found-out-why-i-stayed-with-her-forever-viral-in-zoom%2F%3Ffbclid%3DIwZXh0bgNhZW0CMTAAAR1ziex1RR6fEyzLpnYoeciiSXDMJ2kSg4V4NoTXo6S9Z7a7ME3wYpiBhbQ_aem_qM_D_K0prTLYAI5qlGvYjQ&h=AT3mfLaCzbloBehbsOzwiAIdQuYodAFLog_ozQ8xHveMLhmabFRba6vK-oiWSinGrCAHFJN_1dY3eUArDpHPJ0E0v1dgo0EKzLHZ1meairAdGfvMzbSfW0Uh4TcIWbyWsjPZaDbmo3lvTqYN8Sbb&__tn__=-UK-R&c[0]=AT3X92sOOcKKjKmZL8gNDTIfhbaJRe_YwcaXtp0AkWRNL_Ye-HIl5yLeXc5V5JCv2L5Ti4FwVeow4jFBxapDtVj_7ZCvpRtTN54SJRWo4WdfTzJZrWQAeFhrOe4vYNaBkYnoQqEkuY-HzBL_s7PpdBO7hzpaYO5D5x2gHEG96Q0F6NJlINn9a32Qwe8O-6u_qS_JXg",
"https://m.facebook.com/l.php?u=https%3A%2F%2Fone.scholarshippro.site%2Fmy-sister-threw-our-grandpa-a-birthday-party-but-demanded-that-he-pay-for-it-when-the-bill-came-karma-retaliated-viral-in-zoom%2F%3Ffbclid%3DIwZXh0bgNhZW0CMTAAAR0vFsuo8yuGzGBlrkoG_vgt7y7Yv1DGAbrVVYtr8LJM9ezhSGAKzpLI9gc_aem_qRB1jki9pTn8AUXopL9nWg&h=AT2qT-LzwUgFKi-y352FvlUJywfpflBfBx-APpBO8-jMgoiZPMpEpEk3a0KREsxwZZEcLMlHtlhsmKwqxGJcwC_OK42RWsqjnWz0GaJzGKP-0mAWkuNtEt7EIjrYfOaexNggM3KE0NAWWKk4YL4E&__tn__=-UK-R&c[0]=AT3X92sOOcKKjKmZL8gNDTIfhbaJRe_YwcaXtp0AkWRNL_Ye-HIl5yLeXc5V5JCv2L5Ti4FwVeow4jFBxapDtVj_7ZCvpRtTN54SJRWo4WdfTzJZrWQAeFhrOe4vYNaBkYnoQqEkuY-HzBL_s7PpdBO7hzpaYO5D5x2gHEG96Q0F6NJlINn9a32Qwe8O-6u_qS_JXg",
"https://m.facebook.com/l.php?u=https%3A%2F%2Fone.scholarshippro.site%2Flittle-son-goes-to-widowed-moms-boss-to-ask-for-a-day-off-next-day-boss-meets-her-with-bouquet-story-of-the-day-viral-in-zoom%2F%3Ffbclid%3DIwZXh0bgNhZW0CMTAAAR0u6U2MQ8CFd68HLhSYDkxjiw3lrl4FGgic3qDKy-z1h7WAKf3mcwOUWlA_aem_NRCcthzwnaVIlZ0eNkEMjQ&h=AT2sMgXj_MPbdQ0nH6M9GVW7gz0VgxPhv4dUljwozTEUOOJEwn_jB2s1ECQwahZGnIBrfCcJMsuDyru0QSRud0l3nL6_FEMm1hB6DyBtn1vgY8C2FLjPEkmr-wadJBeDsfdiwaMgMUg9kOyNScz0&__tn__=-UK-R&c[0]=AT3X92sOOcKKjKmZL8gNDTIfhbaJRe_YwcaXtp0AkWRNL_Ye-HIl5yLeXc5V5JCv2L5Ti4FwVeow4jFBxapDtVj_7ZCvpRtTN54SJRWo4WdfTzJZrWQAeFhrOe4vYNaBkYnoQqEkuY-HzBL_s7PpdBO7hzpaYO5D5x2gHEG96Q0F6NJlINn9a32Qwe8O-6u_qS_JXg",
"https://m.facebook.com/l.php?u=https%3A%2F%2Fone.scholarshippro.site%2Farrogant-passenger-ate-my-plane-meal-karma-didnt-let-it-slide-viral-in-zoom%2F%3Ffbclid%3DIwZXh0bgNhZW0CMTAAAR0u6U2MQ8CFd68HLhSYDkxjiw3lrl4FGgic3qDKy-z1h7WAKf3mcwOUWlA_aem_NRCcthzwnaVIlZ0eNkEMjQ&h=AT1RwfoScwFJsI4jCl__Nz03Q-WxbNTAGpRHnKBeX91JF3czecSMJJmWtFaVIKROI5tMe_AOFB80dTqXl0TuFnlBGd6rnd4-4JX5MKAMeTI00f3fTfxebWmz9dTn9FTeRlN6CYZs6VURN9D4CIm5&__tn__=-UK-R&c[0]=AT3X92sOOcKKjKmZL8gNDTIfhbaJRe_YwcaXtp0AkWRNL_Ye-HIl5yLeXc5V5JCv2L5Ti4FwVeow4jFBxapDtVj_7ZCvpRtTN54SJRWo4WdfTzJZrWQAeFhrOe4vYNaBkYnoQqEkuY-HzBL_s7PpdBO7hzpaYO5D5x2gHEG96Q0F6NJlINn9a32Qwe8O-6u_qS_JXg",
"https://m.facebook.com/l.php?u=https%3A%2F%2Fone.scholarshippro.site%2Fmy-boyfriend-lied-to-me-that-he-wanted-a-child-so-i-taught-him-a-much-deserved-lesson-viral-in-zoom%2F%3Ffbclid%3DIwZXh0bgNhZW0CMTAAAR3siP2ipLi8kv1IrXl0yT32u2jf91KgEnbXd_wjJBs-6UvCzcFsMtQLOwU_aem_ko__jAODqZy9u3zPdbjenA&h=AT1KX1LZFZ5rSPCdgCQ1ggqZ7zO3olhfJ40spbH6CnFsipvrJ66LHU0umKeaMgw0ygS5_Ip2m6HW4u6mt4OjWmfRl95kJQPyzeUnfDyB42qyu1eoCuikIKG3dseTLqzFu_yHNcxQlfhcRxp9GAfK&__tn__=-UK-R&c[0]=AT3X92sOOcKKjKmZL8gNDTIfhbaJRe_YwcaXtp0AkWRNL_Ye-HIl5yLeXc5V5JCv2L5Ti4FwVeow4jFBxapDtVj_7ZCvpRtTN54SJRWo4WdfTzJZrWQAeFhrOe4vYNaBkYnoQqEkuY-HzBL_s7PpdBO7hzpaYO5D5x2gHEG96Q0F6NJlINn9a32Qwe8O-6u_qS_JXg",
"https://m.facebook.com/l.php?u=https%3A%2F%2Fone.scholarshippro.site%2Fman-discovers-his-wife-is-leading-a-double-life-after-finding-strange-receipts-viral-in-zoom%2F%3Ffbclid%3DIwZXh0bgNhZW0CMTAAAR0u6U2MQ8CFd68HLhSYDkxjiw3lrl4FGgic3qDKy-z1h7WAKf3mcwOUWlA_aem_NRCcthzwnaVIlZ0eNkEMjQ&h=AT1N8CT5U91uNak-IK2URFHgMgCBHzTmQ2_9aLF0WH28tyd_i6uWepzf4g26QbbHlPb2Dz8oVKwL5rUlfGYm4gxPHlv4_rxW46mSNL8y8OJTwKUP9kuPCm-JyxjBBBJHm0bpcouJ-hpOW_JxAvdF&__tn__=-UK-R&c[0]=AT3X92sOOcKKjKmZL8gNDTIfhbaJRe_YwcaXtp0AkWRNL_Ye-HIl5yLeXc5V5JCv2L5Ti4FwVeow4jFBxapDtVj_7ZCvpRtTN54SJRWo4WdfTzJZrWQAeFhrOe4vYNaBkYnoQqEkuY-HzBL_s7PpdBO7hzpaYO5D5x2gHEG96Q0F6NJlINn9a32Qwe8O-6u_qS_JXg",
"https://m.facebook.com/l.php?u=https%3A%2F%2Fone.scholarshippro.site%2Fmy-boyfriend-proposed-to-me-only-3-months-after-we-met-i-was-over-the-moon-until-i-found-out-why-viral-in-zoom-2%2F%3Ffbclid%3DIwZXh0bgNhZW0CMTAAAR1hRC5MwBY1LiQn6MnTiiHBefanQ80ibvd92FPXIUZU1C2hgupaGkiRZiQ_aem_nMk6wJ-7u1PzbPs9Yop_LQ&h=AT3YTejAADuLgI-7DGiavmbOCcYhJuTUABxWal3chBn0_8N64fAbFtwfT_ZOOMrmNQNRtNiPn7EuZ8Asuvi_VKytlAib1iGbpGLsKP2377X4WGW5lfzn2iP1FW9R-49cAuCL7ozbQRSlvhCxnQl9&__tn__=-UK-R&c[0]=AT3X92sOOcKKjKmZL8gNDTIfhbaJRe_YwcaXtp0AkWRNL_Ye-HIl5yLeXc5V5JCv2L5Ti4FwVeow4jFBxapDtVj_7ZCvpRtTN54SJRWo4WdfTzJZrWQAeFhrOe4vYNaBkYnoQqEkuY-HzBL_s7PpdBO7hzpaYO5D5x2gHEG96Q0F6NJlINn9a32Qwe8O-6u_qS_JXg",
"https://m.facebook.com/l.php?u=https%3A%2F%2Fone.scholarshippro.site%2Fmy-husband-refused-to-take-photos-of-me-on-our-vacation-his-reason-shocked-me-but-my-revenge-left-him-in-tears-viral-in-zoom%2F%3Ffbclid%3DIwZXh0bgNhZW0CMTAAAR0vFsuo8yuGzGBlrkoG_vgt7y7Yv1DGAbrVVYtr8LJM9ezhSGAKzpLI9gc_aem_qRB1jki9pTn8AUXopL9nWg&h=AT2DwagA29Wgvjc2g14V95SPjzKoglcaRBEHXRl3M3y5A-wzZUOPqVsFdbsyCNybsgNo__cMrIvvraSPHcqBasEXMMVJvclvWRBJC9FfNNLX32S2PMEWKRd0ppuxGX1_JvAzUvEAkHsIO748oQHH&__tn__=-UK-R&c[0]=AT3X92sOOcKKjKmZL8gNDTIfhbaJRe_YwcaXtp0AkWRNL_Ye-HIl5yLeXc5V5JCv2L5Ti4FwVeow4jFBxapDtVj_7ZCvpRtTN54SJRWo4WdfTzJZrWQAeFhrOe4vYNaBkYnoQqEkuY-HzBL_s7PpdBO7hzpaYO5D5x2gHEG96Q0F6NJlINn9a32Qwe8O-6u_qS_JXg",
"https://m.facebook.com/l.php?u=https%3A%2F%2Fone.scholarshippro.site%2Fmy-mil-ruined-my-flower-garden-and-replaced-it-with-hideous-gnomes-but-karma-hit-back-with-a-vengeance-viral-in-zoom%2F%3Ffbclid%3DIwZXh0bgNhZW0CMTAAAR0vFsuo8yuGzGBlrkoG_vgt7y7Yv1DGAbrVVYtr8LJM9ezhSGAKzpLI9gc_aem_qRB1jki9pTn8AUXopL9nWg&h=AT0f2C01A6Kl9uppAzoN7IveoOg0v4J2uC86fh0tbeAY0jbSOVMtd-c4a4j1MdZ9ve6hPSeWCtSOKbgp3imvNZLPAO2EY_mlcv0TiiaIK6psKtY427gF2LUxYRYuBtRCv5DCo_-p8n8D-aRAe-QK&__tn__=-UK-R&c[0]=AT3X92sOOcKKjKmZL8gNDTIfhbaJRe_YwcaXtp0AkWRNL_Ye-HIl5yLeXc5V5JCv2L5Ti4FwVeow4jFBxapDtVj_7ZCvpRtTN54SJRWo4WdfTzJZrWQAeFhrOe4vYNaBkYnoQqEkuY-HzBL_s7PpdBO7hzpaYO5D5x2gHEG96Q0F6NJlINn9a32Qwe8O-6u_qS_JXg",
"https://m.facebook.com/l.php?u=https%3A%2F%2Fone.scholarshippro.site%2Fsophia-loren-aging-gracefully-and-stylishly-a-surprising-fashion-evolution%2F%3Ffbclid%3DIwZXh0bgNhZW0CMTAAAR0vFsuo8yuGzGBlrkoG_vgt7y7Yv1DGAbrVVYtr8LJM9ezhSGAKzpLI9gc_aem_qRB1jki9pTn8AUXopL9nWg&h=AT0Xn7dZ5UObHUCPfdWv5wop8DkItFNW2FXfL2XMYJjXHQL7chAyzy1J7Bdg9bh5z2qrmeABqabm4cClJoog0ViDXxV8F7GGr5WKf2o4WuhcGKCK8bty7-4IQgzuxoJ0PJeFJurAS70Ax-lZsYE-&__tn__=-UK-R&c[0]=AT3X92sOOcKKjKmZL8gNDTIfhbaJRe_YwcaXtp0AkWRNL_Ye-HIl5yLeXc5V5JCv2L5Ti4FwVeow4jFBxapDtVj_7ZCvpRtTN54SJRWo4WdfTzJZrWQAeFhrOe4vYNaBkYnoQqEkuY-HzBL_s7PpdBO7hzpaYO5D5x2gHEG96Q0F6NJlINn9a32Qwe8O-6u_qS_JXg",
"https://m.facebook.com/l.php?u=https%3A%2F%2Fone.scholarshippro.site%2Farrogant-woman-bullies-me-at-the-grocery-store-but-karma-strikes-back-in-epic-fashion-viral-in-zoom%2F%3Ffbclid%3DIwZXh0bgNhZW0CMTAAAR1hRC5MwBY1LiQn6MnTiiHBefanQ80ibvd92FPXIUZU1C2hgupaGkiRZiQ_aem_nMk6wJ-7u1PzbPs9Yop_LQ&h=AT2XKtHO4iMkxd3wQUb-WuG8KpqeL3lt00r4IVtxuacLLFU4w8EPY7GjvY9NtMOkhVhNFvOJbz_zPkLcVpA3Tk-Qtnbu_Ee3cswVreS7h3c-Gwu1-SOSwb45XuARDEOPt89m6RkFe5vbPiknKXSJ&__tn__=-UK-R&c[0]=AT3X92sOOcKKjKmZL8gNDTIfhbaJRe_YwcaXtp0AkWRNL_Ye-HIl5yLeXc5V5JCv2L5Ti4FwVeow4jFBxapDtVj_7ZCvpRtTN54SJRWo4WdfTzJZrWQAeFhrOe4vYNaBkYnoQqEkuY-HzBL_s7PpdBO7hzpaYO5D5x2gHEG96Q0F6NJlINn9a32Qwe8O-6u_qS_JXg",
"https://m.facebook.com/l.php?u=https%3A%2F%2Fone.scholarshippro.site%2Fsweet-lady-feeds-local-kids-for-free-when-a-neighbor-tried-to-kick-her-out-the-unbelievable-happened-viral-in-zoom%2F%3Ffbclid%3DIwZXh0bgNhZW0CMTAAAR3siP2ipLi8kv1IrXl0yT32u2jf91KgEnbXd_wjJBs-6UvCzcFsMtQLOwU_aem_ko__jAODqZy9u3zPdbjenA&h=AT2-s4fN8DKXl431OoO7WdZEMHGMQine9qm6JKkoV9PJFqaBEPPwZSCQIZLURZUgSFlWQz5D_tNe7GSFEnnCvNr69Sniets4_X09JS4r3Ij0ipCUuTIDrC9DzNn1kaiKp8fJbTp-yOJD-teyad4l&__tn__=-UK-R&c[0]=AT3X92sOOcKKjKmZL8gNDTIfhbaJRe_YwcaXtp0AkWRNL_Ye-HIl5yLeXc5V5JCv2L5Ti4FwVeow4jFBxapDtVj_7ZCvpRtTN54SJRWo4WdfTzJZrWQAeFhrOe4vYNaBkYnoQqEkuY-HzBL_s7PpdBO7hzpaYO5D5x2gHEG96Q0F6NJlINn9a32Qwe8O-6u_qS_JXg",
"https://m.facebook.com/l.php?u=https%3A%2F%2Fone.scholarshippro.site%2Fbaffled-teacher-questions-why-more-and-more-kids-are-being-sent-to-kindergarten-still-wearing-diapers-viral-in-zoom%2F%3Ffbclid%3DIwZXh0bgNhZW0CMTAAAR3vHBSCUXMSO1FQaKWdghnK6kAeNnmUm0565DQdJInpDCW12tfQy4d78D8_aem_LZKDcmK_K6lTrr08CyxIXA&h=AT0ajiK1GRiTDMhTbTDdiETuWNgQ04_fDYjboSofynsN1-8Xq6CMLPW0GvbdiCLsvcHi1sKpA8L0kswtGZIGRDNcmLJg1YnvQqulI7QkiTo5YfgBtC4eJ_aC9E5xt4eZoKdRks57AhZAjSl7DsM9&__tn__=-UK-R&c[0]=AT3X92sOOcKKjKmZL8gNDTIfhbaJRe_YwcaXtp0AkWRNL_Ye-HIl5yLeXc5V5JCv2L5Ti4FwVeow4jFBxapDtVj_7ZCvpRtTN54SJRWo4WdfTzJZrWQAeFhrOe4vYNaBkYnoQqEkuY-HzBL_s7PpdBO7hzpaYO5D5x2gHEG96Q0F6NJlINn9a32Qwe8O-6u_qS_JXg",
"https://m.facebook.com/l.php?u=https%3A%2F%2Fone.scholarshippro.site%2Fmy-boyfriend-left-our-hotel-early-and-stuck-me-with-a-1350-mini-bar-and-room-service-bill-i-got-creative-with-my-payback-viral-in-zoom%2F%3Ffbclid%3DIwZXh0bgNhZW0CMTAAAR1w7YUmA6vyGl1QjufuvNNmeIL3JbyTU5FPZodwyv6x0duEAevEQae13xk_aem_3sB7QxRRfkKHg6f0p9y_bg&h=AT1xGh-KUBa3-lxEVeh-6YFE31np0P9bgSWn47fhV1AKbN3aiHb7yR8v4k5PLT9Dn0nuSQ47AUyEfQN9Y7fD6Egdt_rH2CMZcNpFfZRVTYr9al7OPwCQs4Ywk3pZx9g28u6kU8AjdKO4AIZqj47t&__tn__=-UK-R&c[0]=AT3X92sOOcKKjKmZL8gNDTIfhbaJRe_YwcaXtp0AkWRNL_Ye-HIl5yLeXc5V5JCv2L5Ti4FwVeow4jFBxapDtVj_7ZCvpRtTN54SJRWo4WdfTzJZrWQAeFhrOe4vYNaBkYnoQqEkuY-HzBL_s7PpdBO7hzpaYO5D5x2gHEG96Q0F6NJlINn9a32Qwe8O-6u_qS_JXg",
"https://m.facebook.com/l.php?u=https%3A%2F%2Fone.scholarshippro.site%2Fi-talked-my-grandkids-into-my-plan-after-learning-that-she-punishes-her-children-by-sending-them-to-visit-me-viral-in-zoom%2F%3Ffbclid%3DIwZXh0bgNhZW0CMTAAAR3siP2ipLi8kv1IrXl0yT32u2jf91KgEnbXd_wjJBs-6UvCzcFsMtQLOwU_aem_ko__jAODqZy9u3zPdbjenA&h=AT3WsQRUY3f7d_8clXT1296oleY714R8CRlgwLQaTfYX9aFvz0AHpGVwf6New7vYvsaKm2L27cmTMkmyE-6nfm8ww_PrgeTLWIq5ORXVLmBpMLBQL9vvaeN_j2XBCs17bN-J6Uy-1jPcWMp7--AD&__tn__=-UK-R&c[0]=AT3X92sOOcKKjKmZL8gNDTIfhbaJRe_YwcaXtp0AkWRNL_Ye-HIl5yLeXc5V5JCv2L5Ti4FwVeow4jFBxapDtVj_7ZCvpRtTN54SJRWo4WdfTzJZrWQAeFhrOe4vYNaBkYnoQqEkuY-HzBL_s7PpdBO7hzpaYO5D5x2gHEG96Q0F6NJlINn9a32Qwe8O-6u_qS_JXg",
"https://m.facebook.com/l.php?u=https%3A%2F%2Fone.scholarshippro.site%2Flittle-kids-gave-me-a-note-after-their-dad-left-them-in-a-cafe-i-said-oh-my-god-out-loud-when-i-read-it-viral-in-zoom%2F%3Ffbclid%3DIwZXh0bgNhZW0CMTAAAR0KZ3pms0ges3FK-9FCLUBwX0l5OzGTGsj0r2B_SQO4hcdxLOg2j-cAnWQ_aem_JEhTZUqN7tHi7hWUiCtvWw&h=AT1z6nL1SUx28aZLMbAFKii0pfv2SLyu2VQtWCDm172C69sj3pklXJqq8szDlI-fnojLG2_gLoqrXF03JFLIi9JLsyf7lm2WTbacjAwqMBjZEDwtAVI9CfcC4nTCRzGi_nFJGoQpvJt0HSuJ3OKm&__tn__=-UK-R&c[0]=AT3X92sOOcKKjKmZL8gNDTIfhbaJRe_YwcaXtp0AkWRNL_Ye-HIl5yLeXc5V5JCv2L5Ti4FwVeow4jFBxapDtVj_7ZCvpRtTN54SJRWo4WdfTzJZrWQAeFhrOe4vYNaBkYnoQqEkuY-HzBL_s7PpdBO7hzpaYO5D5x2gHEG96Q0F6NJlINn9a32Qwe8O-6u_qS_JXg",
"https://m.facebook.com/l.php?u=https%3A%2F%2Fone.scholarshippro.site%2Fdog-wont-stop-barking-at-owners-car-what-they-find-under-the-hood-leaves-them-stunned-viral-in-zoom%2F%3Ffbclid%3DIwZXh0bgNhZW0CMTAAAR0m6piqZ83t_X6bPrC6uGdeF1yQottKokEE8r_ZAZAxalJRswWDI3EkUR8_aem_cyeTg0NTCwtf5cbhQ7v9pA&h=AT12AGzJPyK3JB_OvWEj5YPcz7I9Sg1qt3NPFXtj96Bb2xldm4it5oF78GsJVM1RDdJOMLxPiyd_s16Wg_wLURA-wCohKrn9sZIgp-fnBUCJjfnn3NL-8fjzNRlH9juR9_yNvzaghnIXEJEwsAp-&__tn__=-UK-R&c[0]=AT3X92sOOcKKjKmZL8gNDTIfhbaJRe_YwcaXtp0AkWRNL_Ye-HIl5yLeXc5V5JCv2L5Ti4FwVeow4jFBxapDtVj_7ZCvpRtTN54SJRWo4WdfTzJZrWQAeFhrOe4vYNaBkYnoQqEkuY-HzBL_s7PpdBO7hzpaYO5D5x2gHEG96Q0F6NJlINn9a32Qwe8O-6u_qS_JXg",
"https://m.facebook.com/l.php?u=https%3A%2F%2Fone.scholarshippro.site%2Fmy-husband-chose-his-female-friends-party-over-our-sick-son-my-revenge-made-him-weep-viral-in-zoom%2F%3Ffbclid%3DIwZXh0bgNhZW0CMTAAAR0m6piqZ83t_X6bPrC6uGdeF1yQottKokEE8r_ZAZAxalJRswWDI3EkUR8_aem_cyeTg0NTCwtf5cbhQ7v9pA&h=AT3-wlQNZWkFBmWIutgUHM1nHQXwW637z5eo7bnH8MBNNhDA8FDaI4q31CL5A9FVw_59-wISXm776pav_RqNrwDUwp2aFaD0m-K9GTepQKi8ZZTqZskt4n_i396yk2wG2SPSkSVtALEgFDmBGRT3&__tn__=-UK-R&c[0]=AT3X92sOOcKKjKmZL8gNDTIfhbaJRe_YwcaXtp0AkWRNL_Ye-HIl5yLeXc5V5JCv2L5Ti4FwVeow4jFBxapDtVj_7ZCvpRtTN54SJRWo4WdfTzJZrWQAeFhrOe4vYNaBkYnoQqEkuY-HzBL_s7PpdBO7hzpaYO5D5x2gHEG96Q0F6NJlINn9a32Qwe8O-6u_qS_JXg",
"https://m.facebook.com/l.php?u=https%3A%2F%2Fone.scholarshippro.site%2Fman-who-is-certain-late-ex-wife-gave-birth-to-only-one-kid-meets-their-daughters-carbon-copy-viral-in-zoom%2F%3Ffbclid%3DIwZXh0bgNhZW0CMTAAAR0u6U2MQ8CFd68HLhSYDkxjiw3lrl4FGgic3qDKy-z1h7WAKf3mcwOUWlA_aem_NRCcthzwnaVIlZ0eNkEMjQ&h=AT2Ye7pYn1D37ZhO6dfe-PQQnQcIOogPCqsXB0Q4-8t8amKZdj11a6CkO1dPC207bM-LnjOP8jLxzKj-b1VvxdhIEQzfYn2GCTe5ov8RtDc8QcLsoMoh0HBltfrnoiUCnn4I0_ynLBDIC03EROxy&__tn__=-UK-R&c[0]=AT3X92sOOcKKjKmZL8gNDTIfhbaJRe_YwcaXtp0AkWRNL_Ye-HIl5yLeXc5V5JCv2L5Ti4FwVeow4jFBxapDtVj_7ZCvpRtTN54SJRWo4WdfTzJZrWQAeFhrOe4vYNaBkYnoQqEkuY-HzBL_s7PpdBO7hzpaYO5D5x2gHEG96Q0F6NJlINn9a32Qwe8O-6u_qS_JXg",
"https://m.facebook.com/l.php?u=https%3A%2F%2Fone.scholarshippro.site%2Fafter-having-my-kids-i-forgot-how-to-fall-asleep-fast-and-soundly-turned-out-to-do-that-i-needed-to-get-rid-of-one-thing-viral-in-zoom%2F%3Ffbclid%3DIwZXh0bgNhZW0CMTAAAR0m6piqZ83t_X6bPrC6uGdeF1yQottKokEE8r_ZAZAxalJRswWDI3EkUR8_aem_cyeTg0NTCwtf5cbhQ7v9pA&h=AT0l_FLMXWWZKxsliUdLswuZLX7VDDVSVFcgYYheU4G8Vpxb9BnXK9ZmrDPRuLPETBqHj04_1dZxZxesfIV-m4TUY98BZVy-Ha7GsZcy4mYU1ssEBXImXeylp90FBbt8VwKdOU4W7yeqMetpdq0u&__tn__=-UK-R&c[0]=AT3X92sOOcKKjKmZL8gNDTIfhbaJRe_YwcaXtp0AkWRNL_Ye-HIl5yLeXc5V5JCv2L5Ti4FwVeow4jFBxapDtVj_7ZCvpRtTN54SJRWo4WdfTzJZrWQAeFhrOe4vYNaBkYnoQqEkuY-HzBL_s7PpdBO7hzpaYO5D5x2gHEG96Q0F6NJlINn9a32Qwe8O-6u_qS_JXg",
"https://m.facebook.com/l.php?u=https%3A%2F%2Fone.scholarshippro.site%2Fdo-you-remember-this-legendary-dance-from-the-1950s-it-brings-strong-memories-viral-in-zoom%2F%3Ffbclid%3DIwZXh0bgNhZW0CMTAAAR3vHBSCUXMSO1FQaKWdghnK6kAeNnmUm0565DQdJInpDCW12tfQy4d78D8_aem_LZKDcmK_K6lTrr08CyxIXA&h=AT1G0-9VIu9-VCyPDrdDCyXtuDXHowgQlIDDotHa6ObcfKfzOq9-zUYm8-yPLN52dIgl_eM64lEpsR57Uq3WJJns3CZZmNyvtXeTHG75OskOHPKI2dd1b_fbkUrFhfJ4UQLOGZuoLGUAljVVqmoi&__tn__=-UK-R&c[0]=AT3X92sOOcKKjKmZL8gNDTIfhbaJRe_YwcaXtp0AkWRNL_Ye-HIl5yLeXc5V5JCv2L5Ti4FwVeow4jFBxapDtVj_7ZCvpRtTN54SJRWo4WdfTzJZrWQAeFhrOe4vYNaBkYnoQqEkuY-HzBL_s7PpdBO7hzpaYO5D5x2gHEG96Q0F6NJlINn9a32Qwe8O-6u_qS_JXg",
"https://m.facebook.com/l.php?u=https%3A%2F%2Fone.scholarshippro.site%2Fmy-boyfriend-proposed-to-me-only-3-months-after-we-met-i-was-over-the-moon-until-i-found-out-why-viral-in-zoom%2F%3Ffbclid%3DIwZXh0bgNhZW0CMTAAAR1lFXy4WnpJKaw41M2KPlghntgGUj3JO_g4yfSV-xlqfYL8ZY0NBIxf6pQ_aem_rEzp-xlnZrO12JQK3TjhOQ&h=AT37XHrEpBWywHBGkJ7eAhXi-DwycbcaJQvHcaKRzwcO5woEf07eUHHZspRpTq_JH6Q-PKER2eQds_nHOcyc24Ox1cpK2B6Xidpn6bCI8vVFHElYvZtNdSslkXYSy6bsCMmzu2eZGkkklyA63qbp&__tn__=-UK-R&c[0]=AT3X92sOOcKKjKmZL8gNDTIfhbaJRe_YwcaXtp0AkWRNL_Ye-HIl5yLeXc5V5JCv2L5Ti4FwVeow4jFBxapDtVj_7ZCvpRtTN54SJRWo4WdfTzJZrWQAeFhrOe4vYNaBkYnoQqEkuY-HzBL_s7PpdBO7hzpaYO5D5x2gHEG96Q0F6NJlINn9a32Qwe8O-6u_qS_JXg",
"https://m.facebook.com/l.php?u=https%3A%2F%2Fone.scholarshippro.site%2Fentitled-couple-took-my-premium-seat-on-the-plane-i-taught-them-a-lesson-and-turned-it-into-a-profit-viral-in-zoom-3%2F%3Ffbclid%3DIwZXh0bgNhZW0CMTAAAR0KZ3pms0ges3FK-9FCLUBwX0l5OzGTGsj0r2B_SQO4hcdxLOg2j-cAnWQ_aem_JEhTZUqN7tHi7hWUiCtvWw&h=AT21GhIojz_SulPW6DLDXHqrkXdyElUGuaMCj_-vY4OUzvp124EyJyx5xu7s9Di76wTi9LSl6n8mibbnMmiNGeDv_TLAWrWDdvjlyZqpzS9St7c4xPgZQioEdsLAOUt95I0j0vV-z5BpD0lPRln5&__tn__=-UK-R&c[0]=AT3X92sOOcKKjKmZL8gNDTIfhbaJRe_YwcaXtp0AkWRNL_Ye-HIl5yLeXc5V5JCv2L5Ti4FwVeow4jFBxapDtVj_7ZCvpRtTN54SJRWo4WdfTzJZrWQAeFhrOe4vYNaBkYnoQqEkuY-HzBL_s7PpdBO7hzpaYO5D5x2gHEG96Q0F6NJlINn9a32Qwe8O-6u_qS_JXg",
"https://m.facebook.com/l.php?u=https%3A%2F%2Fone.scholarshippro.site%2Fi-came-home-after-a-year-away-to-find-a-baby-three-letters-in-my-kitchen-the-truth-behind-it-shook-my-world-viral-in-zoom-2%2F%3Ffbclid%3DIwZXh0bgNhZW0CMTAAAR1lFXy4WnpJKaw41M2KPlghntgGUj3JO_g4yfSV-xlqfYL8ZY0NBIxf6pQ_aem_rEzp-xlnZrO12JQK3TjhOQ&h=AT1UPlQz503RDP5UgTisd2TT6y6D4V0WOVS1e3m6mdMGmiUDTbasvASoB6Wid0aYH-yotY_oUbxiLG4iEDEBrGWc1e4RWa7E_81Oyhmsv4MDpZ9owEleWw59Hn4Yeg66bqekjpOIxIUH1CqmFVsR&__tn__=-UK-R&c[0]=AT3X92sOOcKKjKmZL8gNDTIfhbaJRe_YwcaXtp0AkWRNL_Ye-HIl5yLeXc5V5JCv2L5Ti4FwVeow4jFBxapDtVj_7ZCvpRtTN54SJRWo4WdfTzJZrWQAeFhrOe4vYNaBkYnoQqEkuY-HzBL_s7PpdBO7hzpaYO5D5x2gHEG96Q0F6NJlINn9a32Qwe8O-6u_qS_JXg",
"https://m.facebook.com/l.php?u=https%3A%2F%2Fone.scholarshippro.site%2Fmy-entitled-sil-kicked-me-out-of-the-family-potluck-because-i-couldnt-bring-delicacies-karma-taught-her-a-better-lesson-than-i-ever-could%2F%3Ffbclid%3DIwZXh0bgNhZW0CMTAAAR0KZ3pms0ges3FK-9FCLUBwX0l5OzGTGsj0r2B_SQO4hcdxLOg2j-cAnWQ_aem_JEhTZUqN7tHi7hWUiCtvWw&h=AT1QC0R6LAZD25IhFpCbkTioDaFRsiaienUIXefbvlOmdIVUotapsNn7ZRC0O7DIZ5mhQCsHwbAOK_X-N0Uj4c4AmwItv8KhAaTt1aGdfxTeLb05hU1SmVXgKq7QdXO21a-o9noPir1bNSdNbp4V&__tn__=-UK-R&c[0]=AT3X92sOOcKKjKmZL8gNDTIfhbaJRe_YwcaXtp0AkWRNL_Ye-HIl5yLeXc5V5JCv2L5Ti4FwVeow4jFBxapDtVj_7ZCvpRtTN54SJRWo4WdfTzJZrWQAeFhrOe4vYNaBkYnoQqEkuY-HzBL_s7PpdBO7hzpaYO5D5x2gHEG96Q0F6NJlINn9a32Qwe8O-6u_qS_JXg",
"https://m.facebook.com/l.php?u=https%3A%2F%2Fone.scholarshippro.site%2Fmy-husband-didnt-take-me-on-vacation-with-his-family-i-found-out-why-after-unexpected-help-from-my-mother-in-law-viral-in-zoom%2F%3Ffbclid%3DIwZXh0bgNhZW0CMTAAAR0u6U2MQ8CFd68HLhSYDkxjiw3lrl4FGgic3qDKy-z1h7WAKf3mcwOUWlA_aem_NRCcthzwnaVIlZ0eNkEMjQ&h=AT30INvTHbe8RkFoY1nBnEYupCM6kKMCI1P8kIVSJ7x0hfqSdhdt651SOCLxL0kBhgI9vHZ03f0xCEjvArz1kbiJGcec58x1v5A754vyZl4JRqgxHdrUfbWjoBtu6qLskNISDBrlAFPUTWacQ4YL&__tn__=-UK-R&c[0]=AT3X92sOOcKKjKmZL8gNDTIfhbaJRe_YwcaXtp0AkWRNL_Ye-HIl5yLeXc5V5JCv2L5Ti4FwVeow4jFBxapDtVj_7ZCvpRtTN54SJRWo4WdfTzJZrWQAeFhrOe4vYNaBkYnoQqEkuY-HzBL_s7PpdBO7hzpaYO5D5x2gHEG96Q0F6NJlINn9a32Qwe8O-6u_qS_JXg",
"https://m.facebook.com/l.php?u=https%3A%2F%2Fone.scholarshippro.site%2Fmy-ex-husband-asked-me-to-be-a-surrogate-for-him-and-his-new-wife-it-ended-not-as-he-expected-viral-in-zoom%2F%3Ffbclid%3DIwZXh0bgNhZW0CMTAAAR1ziex1RR6fEyzLpnYoeciiSXDMJ2kSg4V4NoTXo6S9Z7a7ME3wYpiBhbQ_aem_qM_D_K0prTLYAI5qlGvYjQ&h=AT0AnJMCu6ny0RYB3pX0Ed9Ixv8_gbdOpIOs8Bn8nv-i-c8fEloEioI95ZGOncy_TK7ilQ41fD5WbKCwqzf3oB-hulsejnnCgQcd_7qmLBExT9PD1sjSHd2FiHCwmfzUq9tigGzVztvp7sFD75gF&__tn__=-UK-R&c[0]=AT3X92sOOcKKjKmZL8gNDTIfhbaJRe_YwcaXtp0AkWRNL_Ye-HIl5yLeXc5V5JCv2L5Ti4FwVeow4jFBxapDtVj_7ZCvpRtTN54SJRWo4WdfTzJZrWQAeFhrOe4vYNaBkYnoQqEkuY-HzBL_s7PpdBO7hzpaYO5D5x2gHEG96Q0F6NJlINn9a32Qwe8O-6u_qS_JXg",
"https://m.facebook.com/l.php?u=https%3A%2F%2Fone.scholarshippro.site%2Fi-told-my-friend-she-married-a-useless-man-and-now-she-hates-me-viral-in-zoom%2F%3Ffbclid%3DIwZXh0bgNhZW0CMTAAAR0u6U2MQ8CFd68HLhSYDkxjiw3lrl4FGgic3qDKy-z1h7WAKf3mcwOUWlA_aem_NRCcthzwnaVIlZ0eNkEMjQ&h=AT2x0J282SDjjfbvwOmwxChGHWpgL0-z-9yCUI_OOtSBhn-JtISUmFgjdbUVJj4qkUYmkqC5KS6sLa6sV1OtlcrXT32fa5VgZdB33X89ZCQHusi7_pPCqKc2Whg3w46OSW1VeIBh8S7_k9F9gB5H&__tn__=-UK-R&c[0]=AT3X92sOOcKKjKmZL8gNDTIfhbaJRe_YwcaXtp0AkWRNL_Ye-HIl5yLeXc5V5JCv2L5Ti4FwVeow4jFBxapDtVj_7ZCvpRtTN54SJRWo4WdfTzJZrWQAeFhrOe4vYNaBkYnoQqEkuY-HzBL_s7PpdBO7hzpaYO5D5x2gHEG96Q0F6NJlINn9a32Qwe8O-6u_qS_JXg",
"https://m.facebook.com/l.php?u=https%3A%2F%2Fone.scholarshippro.site%2Fwoman-insists-her-son-leaves-his-pregnant-wife-viral-in-zoom%2F%3Ffbclid%3DIwZXh0bgNhZW0CMTAAAR1hRC5MwBY1LiQn6MnTiiHBefanQ80ibvd92FPXIUZU1C2hgupaGkiRZiQ_aem_nMk6wJ-7u1PzbPs9Yop_LQ&h=AT0u4ZwY6GzxwIIHLBYzZtDe12XyL4KwYs-b9OhT7OAyaZSrqMHkQtWwZO1fKnUJLMhiU0HSsq9GV9ZMUizD8UebyZeJ4pFdXvMYrLye8wEGctek2kunD4JwNMFDT6CCdaog9jk8Yfy2fKAE6P1s&__tn__=-UK-R&c[0]=AT3X92sOOcKKjKmZL8gNDTIfhbaJRe_YwcaXtp0AkWRNL_Ye-HIl5yLeXc5V5JCv2L5Ti4FwVeow4jFBxapDtVj_7ZCvpRtTN54SJRWo4WdfTzJZrWQAeFhrOe4vYNaBkYnoQqEkuY-HzBL_s7PpdBO7hzpaYO5D5x2gHEG96Q0F6NJlINn9a32Qwe8O-6u_qS_JXg",
"https://m.facebook.com/l.php?u=https%3A%2F%2Fone.scholarshippro.site%2Four-granddaughter-accused-us-of-being-cheap-after-getting-our-wedding-present-viral-in-zoom%2F%3Ffbclid%3DIwZXh0bgNhZW0CMTAAAR1w7YUmA6vyGl1QjufuvNNmeIL3JbyTU5FPZodwyv6x0duEAevEQae13xk_aem_3sB7QxRRfkKHg6f0p9y_bg&h=AT0ghdEaYyndK6sxzXofoZBr0FRS8TY3D5-mk4h-r0gLbMBycoiQbID6fDQaeIUYZMwbwoAbaaVGEY9ZJ40yQ2zLibqAnIg5OFe9IWmc_79NWxBm7aeq9PQ97licgP0A6RKVjsKtDv3SUJ4unjqX&__tn__=-UK-R&c[0]=AT3X92sOOcKKjKmZL8gNDTIfhbaJRe_YwcaXtp0AkWRNL_Ye-HIl5yLeXc5V5JCv2L5Ti4FwVeow4jFBxapDtVj_7ZCvpRtTN54SJRWo4WdfTzJZrWQAeFhrOe4vYNaBkYnoQqEkuY-HzBL_s7PpdBO7hzpaYO5D5x2gHEG96Q0F6NJlINn9a32Qwe8O-6u_qS_JXg",
"https://m.facebook.com/l.php?u=https%3A%2F%2Fone.scholarshippro.site%2Fmy-neighbors-contacted-me-to-complain-about-my-in-laws-behavior-i-authorized-them-to-set-boundaries-viral-in-zoom%2F%3Ffbclid%3DIwZXh0bgNhZW0CMTAAAR3siP2ipLi8kv1IrXl0yT32u2jf91KgEnbXd_wjJBs-6UvCzcFsMtQLOwU_aem_ko__jAODqZy9u3zPdbjenA&h=AT00hVlb_L2szWLcqCaIR9lM9hWHX0ThM84CU--KzwJv4JOqLS0aZLYMb0rG8emO8j0rKTS43_wpDI92Q3NjfFvnSdzhu4fmy6LgR7I9UiVMPMOwHvcjBS3vqdaNXqSeHXYRxj0UVVbD_nVYM1dc&__tn__=-UK-R&c[0]=AT3X92sOOcKKjKmZL8gNDTIfhbaJRe_YwcaXtp0AkWRNL_Ye-HIl5yLeXc5V5JCv2L5Ti4FwVeow4jFBxapDtVj_7ZCvpRtTN54SJRWo4WdfTzJZrWQAeFhrOe4vYNaBkYnoQqEkuY-HzBL_s7PpdBO7hzpaYO5D5x2gHEG96Q0F6NJlINn9a32Qwe8O-6u_qS_JXg",
"https://m.facebook.com/l.php?u=https%3A%2F%2Fone.scholarshippro.site%2Fmy-wife-began-to-pull-away-and-avoid-my-daughter-and-me-one-day-she-left-this-envelope-and-vanished-viral-in-zoom%2F%3Ffbclid%3DIwZXh0bgNhZW0CMTAAAR1w7YUmA6vyGl1QjufuvNNmeIL3JbyTU5FPZodwyv6x0duEAevEQae13xk_aem_3sB7QxRRfkKHg6f0p9y_bg&h=AT1UffO-Qq-XbGAfDXlBfq_8SE3bFjmAVtmbAoib_5WSP3wBIwuLGRTcnWR766JylRnGDMccsTG2ZMLtOxkoApXWHshDTYtLs8G1Sy-ytZcDKnkb98UqKjvUdbiZUqSn6XrdDzOmHgoxWqF89AH5&__tn__=-UK-R&c[0]=AT3X92sOOcKKjKmZL8gNDTIfhbaJRe_YwcaXtp0AkWRNL_Ye-HIl5yLeXc5V5JCv2L5Ti4FwVeow4jFBxapDtVj_7ZCvpRtTN54SJRWo4WdfTzJZrWQAeFhrOe4vYNaBkYnoQqEkuY-HzBL_s7PpdBO7hzpaYO5D5x2gHEG96Q0F6NJlINn9a32Qwe8O-6u_qS_JXg",
"https://m.facebook.com/l.php?u=https%3A%2F%2Fone.scholarshippro.site%2Fmy-wife-left-me-and-my-son-for-her-boss-years-later-she-calls-me-back-viral-in-zoom-2%2F%3Ffbclid%3DIwZXh0bgNhZW0CMTAAAR1ziex1RR6fEyzLpnYoeciiSXDMJ2kSg4V4NoTXo6S9Z7a7ME3wYpiBhbQ_aem_qM_D_K0prTLYAI5qlGvYjQ&h=AT33TS3ift-DGbx7EK-OBfrsRfbsZkhRbLCgyLYv6Z-7aBZ2dN2e2YeBCzMDG4Gt1D6fjY3oV7mP6rqTcpVmA-kSjIbdjSVxsW60q7fXMRvB-0KiL4q03ZDLMhlI7NQN2u1wzkWKWCHZgWcHqcsw&__tn__=-UK-R&c[0]=AT3X92sOOcKKjKmZL8gNDTIfhbaJRe_YwcaXtp0AkWRNL_Ye-HIl5yLeXc5V5JCv2L5Ti4FwVeow4jFBxapDtVj_7ZCvpRtTN54SJRWo4WdfTzJZrWQAeFhrOe4vYNaBkYnoQqEkuY-HzBL_s7PpdBO7hzpaYO5D5x2gHEG96Q0F6NJlINn9a32Qwe8O-6u_qS_JXg",
"https://m.facebook.com/l.php?u=https%3A%2F%2Fone.scholarshippro.site%2Fmy-wife-left-me-and-my-son-for-her-boss-years-later-she-calls-me-back-viral-in-zoom%2F%3Ffbclid%3DIwZXh0bgNhZW0CMTAAAR1lFXy4WnpJKaw41M2KPlghntgGUj3JO_g4yfSV-xlqfYL8ZY0NBIxf6pQ_aem_rEzp-xlnZrO12JQK3TjhOQ&h=AT3bdA_4Ah5vHh7CNpeNy7DA_P_qnMo69HintuPsf-lQBJzwAJENrqxWd1NmmSqiygmAXZbcgNS7xayuG8flWshhIEPX8HW_3GN8MLqsqxekEuZkSgsiFxH9juat2hJbzOdZN1AKs3fdAD8rbpyk&__tn__=-UK-R&c[0]=AT3X92sOOcKKjKmZL8gNDTIfhbaJRe_YwcaXtp0AkWRNL_Ye-HIl5yLeXc5V5JCv2L5Ti4FwVeow4jFBxapDtVj_7ZCvpRtTN54SJRWo4WdfTzJZrWQAeFhrOe4vYNaBkYnoQqEkuY-HzBL_s7PpdBO7hzpaYO5D5x2gHEG96Q0F6NJlINn9a32Qwe8O-6u_qS_JXg",
"https://m.facebook.com/l.php?u=https%3A%2F%2Fone.scholarshippro.site%2Fmy-boyfriend-invited-me-on-a-proposal-trip-and-spent-it-with-his-best-friend-instead-my-revenge-was-priceless-viral-in-zoom%2F%3Ffbclid%3DIwZXh0bgNhZW0CMTAAAR0vFsuo8yuGzGBlrkoG_vgt7y7Yv1DGAbrVVYtr8LJM9ezhSGAKzpLI9gc_aem_qRB1jki9pTn8AUXopL9nWg&h=AT16CWfn1i_1rAniHBpY_ejCcyxiNrSX5KvoXxUCiDsoxwKWbHmiHjHxXiKl-PfMU5IYtXpTH67eqhvVQGU0Ls8NP06qlaTyiW4akQ7zVCtaVrif1sIqWlZRBCAg0Ni_nYUMZQjv4ZhQLZ_rEOmw&__tn__=-UK-R&c[0]=AT3X92sOOcKKjKmZL8gNDTIfhbaJRe_YwcaXtp0AkWRNL_Ye-HIl5yLeXc5V5JCv2L5Ti4FwVeow4jFBxapDtVj_7ZCvpRtTN54SJRWo4WdfTzJZrWQAeFhrOe4vYNaBkYnoQqEkuY-HzBL_s7PpdBO7hzpaYO5D5x2gHEG96Q0F6NJlINn9a32Qwe8O-6u_qS_JXg",
"https://m.facebook.com/l.php?u=https%3A%2F%2Fone.scholarshippro.site%2Fone-day-he-was-shocked-to-learn-what-she-spent-the-money-people-gave-her-on-viral-in-zoom%2F%3Ffbclid%3DIwZXh0bgNhZW0CMTAAAR3vHBSCUXMSO1FQaKWdghnK6kAeNnmUm0565DQdJInpDCW12tfQy4d78D8_aem_LZKDcmK_K6lTrr08CyxIXA&h=AT1YbYkxnMRVReLHvYaykBqmItCABPbrvfCs6f7X6oPo_5O_Zuh6S5T17FgX_D9jNjdbD_8La7w7AFI1l6JuCv6dOnSReJ90UH27hL9Lq0lPNzyVzJJDJvp9m3Xxir4VGqEZu3fmmh-B4mzvHb-h&__tn__=-UK-R&c[0]=AT3X92sOOcKKjKmZL8gNDTIfhbaJRe_YwcaXtp0AkWRNL_Ye-HIl5yLeXc5V5JCv2L5Ti4FwVeow4jFBxapDtVj_7ZCvpRtTN54SJRWo4WdfTzJZrWQAeFhrOe4vYNaBkYnoQqEkuY-HzBL_s7PpdBO7hzpaYO5D5x2gHEG96Q0F6NJlINn9a32Qwe8O-6u_qS_JXg",
"https://m.facebook.com/l.php?u=https%3A%2F%2Fone.scholarshippro.site%2Fmen-singing-you-raise-me-up-will-give-you-chills-viral-in-zoom%2F%3Ffbclid%3DIwZXh0bgNhZW0CMTAAAR0vFsuo8yuGzGBlrkoG_vgt7y7Yv1DGAbrVVYtr8LJM9ezhSGAKzpLI9gc_aem_qRB1jki9pTn8AUXopL9nWg&h=AT1NBx7s1wF9OkZBeHqZLDQVM-43vBcEhm2wveSNDjtxgl-cwp9ghKbtRQY3xdGU0UCrcrohMlq1odFwtN2jHoYNB6ZEpmcNqFnWfhbMUnwRIBs4GiSrSj6UIEohP5aIugzAr4Ew3OhP_QyFK26h&__tn__=-UK-R&c[0]=AT3X92sOOcKKjKmZL8gNDTIfhbaJRe_YwcaXtp0AkWRNL_Ye-HIl5yLeXc5V5JCv2L5Ti4FwVeow4jFBxapDtVj_7ZCvpRtTN54SJRWo4WdfTzJZrWQAeFhrOe4vYNaBkYnoQqEkuY-HzBL_s7PpdBO7hzpaYO5D5x2gHEG96Q0F6NJlINn9a32Qwe8O-6u_qS_JXg",
"https://m.facebook.com/l.php?u=https%3A%2F%2Fone.scholarshippro.site%2Fmy-husband-picks-a-new-hobby-every-month-and-demands-that-i-sponsor-them-this-time-i-had-enough-viral-in-zoom%2F%3Ffbclid%3DIwZXh0bgNhZW0CMTAAAR1hRC5MwBY1LiQn6MnTiiHBefanQ80ibvd92FPXIUZU1C2hgupaGkiRZiQ_aem_nMk6wJ-7u1PzbPs9Yop_LQ&h=AT24tPvPQibQz2fJW3YvBgdu6ty4ThX-7IprTXlNM8xr6oVxMlppLS3HlrWz3C7auy1MaHthyz5pi2NfDRo1o9UF5zDuGmb1yD1bRFA-ARLX6gewDa5wLcJJj2T-c-l7VqTOHwUrMwvkwtgvEiK3&__tn__=-UK-R&c[0]=AT3X92sOOcKKjKmZL8gNDTIfhbaJRe_YwcaXtp0AkWRNL_Ye-HIl5yLeXc5V5JCv2L5Ti4FwVeow4jFBxapDtVj_7ZCvpRtTN54SJRWo4WdfTzJZrWQAeFhrOe4vYNaBkYnoQqEkuY-HzBL_s7PpdBO7hzpaYO5D5x2gHEG96Q0F6NJlINn9a32Qwe8O-6u_qS_JXg",
"https://m.facebook.com/l.php?u=https%3A%2F%2Fone.scholarshippro.site%2Fmy-mother-in-law-bought-me-the-best-mattress-i-was-terrified-when-i-learned-her-true-purpose-viral-in-zoom%2F%3Ffbclid%3DIwZXh0bgNhZW0CMTAAAR0m6piqZ83t_X6bPrC6uGdeF1yQottKokEE8r_ZAZAxalJRswWDI3EkUR8_aem_cyeTg0NTCwtf5cbhQ7v9pA&h=AT2inZ2bTyS1Bnjluk6ldl1ShqClbqfdLOvTg01hO-1-LRWF0l_LkI7hjqDwQoVEAVQqZ4KNQ_aCUi02u4YbA-i5C_MCLHSAmkiXicZJAkyKn2Mzff_0oQem6ChIH6a7BS1cbsBGnfyGFCKgIIXo&__tn__=-UK-R&c[0]=AT3X92sOOcKKjKmZL8gNDTIfhbaJRe_YwcaXtp0AkWRNL_Ye-HIl5yLeXc5V5JCv2L5Ti4FwVeow4jFBxapDtVj_7ZCvpRtTN54SJRWo4WdfTzJZrWQAeFhrOe4vYNaBkYnoQqEkuY-HzBL_s7PpdBO7hzpaYO5D5x2gHEG96Q0F6NJlINn9a32Qwe8O-6u_qS_JXg"
    ]
}