{
    "browser_testing":{
        "test_api":"https://jsonplaceholder.typicode.com/todos/1",
        "keyword_contain":"userId"
    },
    "random_range":"9:14",
    "work_urls":[
        "https://m.facebook.com/l.php?u=https%3A%2F%2Fstudyinsurance.site%2F%3Fp%3D689%26fbclid%3DIwZXh0bgNhZW0CMTAAAR0sf-sjnDFfRs5-ukc4iHK7WgutNYtc0m-p2LfpKyA65S9e33L-ujF5s8c_aem_5qs0-PUfBDFT1hyFTzIYlA&h=AT1aaPomallJUAhLme10I2yVQuCM_dQ0O5aS2nUb1IKewU0nOugSVNCtwbKHMPJmGTOH2k14UxuUrqRAs3WS646aUMV6I8HOOoSWnZTbK2zs2cf79voP2EuyEFgo46QXpNqm_4SUX6HawtQKX826&__tn__=-UK-R&c[0]=AT325wCDpix4tHYRGx4HJ5UXzSFfiwFQkqf5f2Da_ZZ4_qtEpw2cFxVJLziRn0NLkqBTelY5V006F0MZaOh2Cyzrk4bcNAyYBe3qxEYZPtvltMRbYThNmMpejZ0KWp68ZNNGXBpg2TyZuG0FLexZ5YKkfu95OBw59NX-Erk3K5HnNC7PW0mWVA",
        "https://m.facebook.com/l.php?u=https%3A%2F%2Fstudyinsurance.site%2F%3Fp%3D681%26fbclid%3DIwZXh0bgNhZW0CMTAAAR0GUJhPs3TVKBaHW2rnf3UJaRDfrZxGCf4CLlVEEoW1CWanbb34_Ucw8kg_aem_nftw4rgpk2nt4rvYUTcKqg&h=AT3XWswmhnWwg2XgFynhQ9EmWMsloFkAkpb8BX05aS_QaFT7tBcbMXbZfHywpNkt1SyN4DTBiL7dxhSxmX-MK5H4Fs8cSs2E3vilK2MSBUcLpNbChwPWOh7eWv_s_EK8JC60gRtOZj5Upi6Gs-4P&__tn__=-UK-R&c[0]=AT325wCDpix4tHYRGx4HJ5UXzSFfiwFQkqf5f2Da_ZZ4_qtEpw2cFxVJLziRn0NLkqBTelY5V006F0MZaOh2Cyzrk4bcNAyYBe3qxEYZPtvltMRbYThNmMpejZ0KWp68ZNNGXBpg2TyZuG0FLexZ5YKkfu95OBw59NX-Erk3K5HnNC7PW0mWVA",
        "https://m.facebook.com/l.php?u=https%3A%2F%2Fstudyinsurance.site%2F%3Fp%3D686%26fbclid%3DIwZXh0bgNhZW0CMTAAAR0G6HNFWf2ICIXc8EB6LDRHBe2a6drF0jqtPo-e8yboiY56PvtzfJePWtA_aem_TzenW1ATa4VnfMRpBnY7lQ&h=AT0lYCnZlcpTJW0nzuX53ykKtr7KWGH9KbYKkU4eejKnhX46BLXuyE03a8Txtj2qXGegC6Uly7YqOD5rLjvkjU9y9Rh83diU9-IaU1738vpfbTE4OQiIbeRNb8KP0LNaVsRF7KJmlE8ZrQOxduJ6&__tn__=-UK-R&c[0]=AT325wCDpix4tHYRGx4HJ5UXzSFfiwFQkqf5f2Da_ZZ4_qtEpw2cFxVJLziRn0NLkqBTelY5V006F0MZaOh2Cyzrk4bcNAyYBe3qxEYZPtvltMRbYThNmMpejZ0KWp68ZNNGXBpg2TyZuG0FLexZ5YKkfu95OBw59NX-Erk3K5HnNC7PW0mWVA",
        "https://m.facebook.com/l.php?u=https%3A%2F%2Fstudyinsurance.site%2F%3Fp%3D694%26fbclid%3DIwZXh0bgNhZW0CMTAAAR33-eHh0oKLx7ORQRIoQNhFXg3pk3SvSIw2jSwmPRMHvQv91NpmLOuhvsY_aem_3s93SjYtSbn9KLmgSx1Nrg&h=AT1jpHPc6CMqflC8JoQysXr--Kk7joo0XLU_TZIKhLTQFk1cA36Fr0wyhyZSl8ti-VY3_-hqmK5FJ5n9gtL6VH71DeFOzRW1FKqOhiKNuFxIQiv_XrvSGu2FAuyQCsTE-qvuypXwxxeipglHt6Ia&__tn__=-UK-R&c[0]=AT325wCDpix4tHYRGx4HJ5UXzSFfiwFQkqf5f2Da_ZZ4_qtEpw2cFxVJLziRn0NLkqBTelY5V006F0MZaOh2Cyzrk4bcNAyYBe3qxEYZPtvltMRbYThNmMpejZ0KWp68ZNNGXBpg2TyZuG0FLexZ5YKkfu95OBw59NX-Erk3K5HnNC7PW0mWVA",
        "https://m.facebook.com/l.php?u=https%3A%2F%2Fstudyinsurance.site%2F%3Fp%3D660%26fbclid%3DIwZXh0bgNhZW0CMTAAAR1Xiuci7xBZkL6Ijk7ztjdGWuZJFSspWHVRURatkywoyep15pNfLNnfh9s_aem_0qSidyPRdsdtYSdjk1E9Vw&h=AT1lJQtxqRBt-bF2jQu6w06fVFuDYcfUQS1pmqjz1F5n6S4tRZqI6ZT0iFKUXw9wazpx0xKgD6tf5cnaZW2Q6g4-7iLgtHaznu-SP6FIrZV6r0uo1tNmEtMdVtQ1XLAboCFg3PTbA_q6BjaGQJ35&__tn__=-UK-R&c[0]=AT325wCDpix4tHYRGx4HJ5UXzSFfiwFQkqf5f2Da_ZZ4_qtEpw2cFxVJLziRn0NLkqBTelY5V006F0MZaOh2Cyzrk4bcNAyYBe3qxEYZPtvltMRbYThNmMpejZ0KWp68ZNNGXBpg2TyZuG0FLexZ5YKkfu95OBw59NX-Erk3K5HnNC7PW0mWVA",
        "https://m.facebook.com/l.php?u=https%3A%2F%2Fstudyinsurance.site%2F%3Fp%3D671%26fbclid%3DIwZXh0bgNhZW0CMTAAAR0G6HNFWf2ICIXc8EB6LDRHBe2a6drF0jqtPo-e8yboiY56PvtzfJePWtA_aem_TzenW1ATa4VnfMRpBnY7lQ&h=AT3Mqql55WjZrJFJMR1kffYvA0FduuELJSmoEN3Ralm5x1dgDnxAknrnNybGmsnS2rpuN7V-GGAzgVknzfHobahb2Eueuv8QGe5aGAQzOfj2G2mTpjxmHoWKvzBlryD7WI7bkLsISLCLPvFqlf1l&__tn__=-UK-R&c[0]=AT325wCDpix4tHYRGx4HJ5UXzSFfiwFQkqf5f2Da_ZZ4_qtEpw2cFxVJLziRn0NLkqBTelY5V006F0MZaOh2Cyzrk4bcNAyYBe3qxEYZPtvltMRbYThNmMpejZ0KWp68ZNNGXBpg2TyZuG0FLexZ5YKkfu95OBw59NX-Erk3K5HnNC7PW0mWVA",
        "https://m.facebook.com/l.php?u=https%3A%2F%2Fstudyinsurance.site%2F%3Fp%3D676%26fbclid%3DIwZXh0bgNhZW0CMTAAAR0sf-sjnDFfRs5-ukc4iHK7WgutNYtc0m-p2LfpKyA65S9e33L-ujF5s8c_aem_5qs0-PUfBDFT1hyFTzIYlA&h=AT08m9BEryo_d2cPc3OkFuAEbZHJlVbr54s-xCQmHG_jsDbEuGVjaWPjvtv7u1PhT-WfsK-keAopicWR9nCjjL0RNXKbmoij7TTwQ360T2QK0kHfqjj2NHpL_ISxTX7vfjYtON02O1lYqkWELuiE&__tn__=-UK-R&c[0]=AT325wCDpix4tHYRGx4HJ5UXzSFfiwFQkqf5f2Da_ZZ4_qtEpw2cFxVJLziRn0NLkqBTelY5V006F0MZaOh2Cyzrk4bcNAyYBe3qxEYZPtvltMRbYThNmMpejZ0KWp68ZNNGXBpg2TyZuG0FLexZ5YKkfu95OBw59NX-Erk3K5HnNC7PW0mWVA",
        "https://m.facebook.com/l.php?u=https%3A%2F%2Fstudyinsurance.site%2F%3Fp%3D413%26fbclid%3DIwZXh0bgNhZW0CMTAAAR1Xiuci7xBZkL6Ijk7ztjdGWuZJFSspWHVRURatkywoyep15pNfLNnfh9s_aem_0qSidyPRdsdtYSdjk1E9Vw&h=AT12SREEtRzavNDlzRUj3f8IqS0CcmogdT3p1vDKIy3pNa-tCrwtZ6s2URZBwjQ_wF0uoXqfNi9lD7_ZPcbnrZo7cUp5Dz0-aR-nhE7lhQYEl9TwHhOtB9wMrMJEgumiQQ7AIm9SJNcyvB2XfcMO&__tn__=-UK-R&c[0]=AT325wCDpix4tHYRGx4HJ5UXzSFfiwFQkqf5f2Da_ZZ4_qtEpw2cFxVJLziRn0NLkqBTelY5V006F0MZaOh2Cyzrk4bcNAyYBe3qxEYZPtvltMRbYThNmMpejZ0KWp68ZNNGXBpg2TyZuG0FLexZ5YKkfu95OBw59NX-Erk3K5HnNC7PW0mWVA",
        "https://m.facebook.com/l.php?u=https%3A%2F%2Fstudyinsurance.site%2F%3Fp%3D415%26fbclid%3DIwZXh0bgNhZW0CMTAAAR0sf-sjnDFfRs5-ukc4iHK7WgutNYtc0m-p2LfpKyA65S9e33L-ujF5s8c_aem_5qs0-PUfBDFT1hyFTzIYlA&h=AT23F3cz3Xmy-0UcF4vdxY7EbiZaWVmsfpAyyV6clc4bhWJyxZqHsdZZCXoJO6Pa-1__5NW14T-UpF0KgCB0M_FgVFrVCvuY0_FJJGXnQUhKoHR3Vk_si_55iYz18JkfE93j3hKEpRQpCl1HBLk6&__tn__=-UK-R&c[0]=AT325wCDpix4tHYRGx4HJ5UXzSFfiwFQkqf5f2Da_ZZ4_qtEpw2cFxVJLziRn0NLkqBTelY5V006F0MZaOh2Cyzrk4bcNAyYBe3qxEYZPtvltMRbYThNmMpejZ0KWp68ZNNGXBpg2TyZuG0FLexZ5YKkfu95OBw59NX-Erk3K5HnNC7PW0mWVA",
        "https://m.facebook.com/l.php?u=https%3A%2F%2Fstudyinsurance.site%2F%3Fp%3D417%26fbclid%3DIwZXh0bgNhZW0CMTAAAR0G6HNFWf2ICIXc8EB6LDRHBe2a6drF0jqtPo-e8yboiY56PvtzfJePWtA_aem_TzenW1ATa4VnfMRpBnY7lQ&h=AT16tVs_uzgKPJgJ-MyyvGHMortBDfwRRTL4Ml_Q0q0P8ampWU86KwHrvgOC5mCt3lsgqi8HbaNrOsfh0Zr0D2muIYo5T3qm2uRbzbFbCc_CFBdSE3fQpMrngPWzYgLzS8UCjFJdq-bzDmM9_Tu6&__tn__=-UK-R&c[0]=AT325wCDpix4tHYRGx4HJ5UXzSFfiwFQkqf5f2Da_ZZ4_qtEpw2cFxVJLziRn0NLkqBTelY5V006F0MZaOh2Cyzrk4bcNAyYBe3qxEYZPtvltMRbYThNmMpejZ0KWp68ZNNGXBpg2TyZuG0FLexZ5YKkfu95OBw59NX-Erk3K5HnNC7PW0mWVA",
        "https://m.facebook.com/l.php?u=https%3A%2F%2Fstudyinsurance.site%2F%3Fp%3D419%26fbclid%3DIwZXh0bgNhZW0CMTAAAR0CF_xiv4vQ3kcIgfgHcJavy2DaFvNT-nTRkb-rzU8ezYgpBBVAvdJpa28_aem_vGybqI_VgBTujvc2xJcSAA&h=AT0iPJ9TYH-pWaqwP9PFtmpxdTmWplu0vp5RvBs80h9c3q0nCIZDkN9_vYTctCh55G6kAgRl_8i9tnXfqaHrq1BrIK2zox4WmHThdD3JNkU-Viehe0HU82oYAR74eP-pOjm-0zrEl4Gy6F0tHz-S&__tn__=-UK-R&c[0]=AT325wCDpix4tHYRGx4HJ5UXzSFfiwFQkqf5f2Da_ZZ4_qtEpw2cFxVJLziRn0NLkqBTelY5V006F0MZaOh2Cyzrk4bcNAyYBe3qxEYZPtvltMRbYThNmMpejZ0KWp68ZNNGXBpg2TyZuG0FLexZ5YKkfu95OBw59NX-Erk3K5HnNC7PW0mWVA",
        "https://m.facebook.com/l.php?u=https%3A%2F%2Fstudyinsurance.site%2F%3Fp%3D421%26fbclid%3DIwZXh0bgNhZW0CMTAAAR33-eHh0oKLx7ORQRIoQNhFXg3pk3SvSIw2jSwmPRMHvQv91NpmLOuhvsY_aem_3s93SjYtSbn9KLmgSx1Nrg&h=AT3C56DvwER0DpksiUj9T6sZBIToP-NL-ZvDZwDztxJpTIOzNKYFiiI1_oyCnsppL4F-nVWScYeXWOv5qjMW7OuY6s3U_SbWoSIIu7_glt9ENQl4-_Pgs0AI4-lDQMw8tSC9hwUdMVeMAbpSG3AW&__tn__=-UK-R&c[0]=AT325wCDpix4tHYRGx4HJ5UXzSFfiwFQkqf5f2Da_ZZ4_qtEpw2cFxVJLziRn0NLkqBTelY5V006F0MZaOh2Cyzrk4bcNAyYBe3qxEYZPtvltMRbYThNmMpejZ0KWp68ZNNGXBpg2TyZuG0FLexZ5YKkfu95OBw59NX-Erk3K5HnNC7PW0mWVA",
        "https://m.facebook.com/l.php?u=https%3A%2F%2Fstudyinsurance.site%2F%3Fp%3D423%26fbclid%3DIwZXh0bgNhZW0CMTAAAR33-eHh0oKLx7ORQRIoQNhFXg3pk3SvSIw2jSwmPRMHvQv91NpmLOuhvsY_aem_3s93SjYtSbn9KLmgSx1Nrg&h=AT1-rWrOPWX6wueDFgtu-bQdMOf0A2muG-zMVnhi76afNTFSMIid6mN2ZVCPhvhfDwum_GpGKzo45_pjGwR3c56ykdALthJUcyiGjiL3cX5Z3u8luz3Rvui7hE_kZgHBekQDJK4Yrm_c6mZREmag&__tn__=-UK-R&c[0]=AT325wCDpix4tHYRGx4HJ5UXzSFfiwFQkqf5f2Da_ZZ4_qtEpw2cFxVJLziRn0NLkqBTelY5V006F0MZaOh2Cyzrk4bcNAyYBe3qxEYZPtvltMRbYThNmMpejZ0KWp68ZNNGXBpg2TyZuG0FLexZ5YKkfu95OBw59NX-Erk3K5HnNC7PW0mWVA",
        "https://m.facebook.com/l.php?u=https%3A%2F%2Fstudyinsurance.site%2F%3Fp%3D269%26fbclid%3DIwZXh0bgNhZW0CMTAAAR0G6HNFWf2ICIXc8EB6LDRHBe2a6drF0jqtPo-e8yboiY56PvtzfJePWtA_aem_TzenW1ATa4VnfMRpBnY7lQ&h=AT00fF-YjCR3gIxAZIhGltUSVrswROzUQY8Mv2IX_KUMhCqQ8qiTShIbEmMAXb7XUhvai7nU0-bn2kMbmXsGE6Be2t_ePU701V2jBUpRlc6CSM4B9HVUkTf098KDk0kIbjPkWRv1aBPDUg3NRTMt&__tn__=-UK-R&c[0]=AT325wCDpix4tHYRGx4HJ5UXzSFfiwFQkqf5f2Da_ZZ4_qtEpw2cFxVJLziRn0NLkqBTelY5V006F0MZaOh2Cyzrk4bcNAyYBe3qxEYZPtvltMRbYThNmMpejZ0KWp68ZNNGXBpg2TyZuG0FLexZ5YKkfu95OBw59NX-Erk3K5HnNC7PW0mWVA",
        "https://m.facebook.com/l.php?u=https%3A%2F%2Fstudyinsurance.site%2F%3Fp%3D267%26fbclid%3DIwZXh0bgNhZW0CMTAAAR0G6HNFWf2ICIXc8EB6LDRHBe2a6drF0jqtPo-e8yboiY56PvtzfJePWtA_aem_TzenW1ATa4VnfMRpBnY7lQ&h=AT0HOMceBjzjGkNo8hcfR-Sx0LcZzbfLTNt55dY1XpMwTk3Wtd0NP52gaK2sjo5v1OvipF_hNL2LJhvCgeEW4kOMZuqpOabY-aG0kaU75bUPlFQyz0qbN9C1AoGxkxQ3D74TUupfyoajnrFDmX-B&__tn__=-UK-R&c[0]=AT325wCDpix4tHYRGx4HJ5UXzSFfiwFQkqf5f2Da_ZZ4_qtEpw2cFxVJLziRn0NLkqBTelY5V006F0MZaOh2Cyzrk4bcNAyYBe3qxEYZPtvltMRbYThNmMpejZ0KWp68ZNNGXBpg2TyZuG0FLexZ5YKkfu95OBw59NX-Erk3K5HnNC7PW0mWVA",
        "https://m.facebook.com/l.php?u=https%3A%2F%2Fstudyinsurance.site%2F%3Fp%3D265%26fbclid%3DIwZXh0bgNhZW0CMTAAAR0sf-sjnDFfRs5-ukc4iHK7WgutNYtc0m-p2LfpKyA65S9e33L-ujF5s8c_aem_5qs0-PUfBDFT1hyFTzIYlA&h=AT0A8JDk_GdSzEI9IFMbEPJ7Qnoqwc8ocexL1Revi2pETBdJ0OPu6xUXii6msmeTyLGlM9HV2y9ISdPG94M2cuLNlve0HugfudZ5BxR_ZkNrMbZutnNy0Zb9DjrBjM5r7dmOaiwqCjexv9BI401i&__tn__=-UK-R&c[0]=AT325wCDpix4tHYRGx4HJ5UXzSFfiwFQkqf5f2Da_ZZ4_qtEpw2cFxVJLziRn0NLkqBTelY5V006F0MZaOh2Cyzrk4bcNAyYBe3qxEYZPtvltMRbYThNmMpejZ0KWp68ZNNGXBpg2TyZuG0FLexZ5YKkfu95OBw59NX-Erk3K5HnNC7PW0mWVA",
        "https://m.facebook.com/l.php?u=https%3A%2F%2Fstudyinsurance.site%2F%3Fp%3D263%26fbclid%3DIwZXh0bgNhZW0CMTAAAR33-eHh0oKLx7ORQRIoQNhFXg3pk3SvSIw2jSwmPRMHvQv91NpmLOuhvsY_aem_3s93SjYtSbn9KLmgSx1Nrg&h=AT0Z4GgRrKrV-inCKMDgZO_Wi-tVIqM7evBCNFGJL-w2171DmeQkkcpKXCpuzLolIxXsJU7k03hG9AaonQaaQfRu0uCi1MrOdLSskuJBkHUPllwTsbTRCRhiN0fvKgKrfRFrVDKM5i6fqct64_3O&__tn__=-UK-R&c[0]=AT325wCDpix4tHYRGx4HJ5UXzSFfiwFQkqf5f2Da_ZZ4_qtEpw2cFxVJLziRn0NLkqBTelY5V006F0MZaOh2Cyzrk4bcNAyYBe3qxEYZPtvltMRbYThNmMpejZ0KWp68ZNNGXBpg2TyZuG0FLexZ5YKkfu95OBw59NX-Erk3K5HnNC7PW0mWVA",
        "https://m.facebook.com/l.php?u=https%3A%2F%2Fstudyinsurance.site%2F%3Fp%3D261%26fbclid%3DIwZXh0bgNhZW0CMTAAAR1Xiuci7xBZkL6Ijk7ztjdGWuZJFSspWHVRURatkywoyep15pNfLNnfh9s_aem_0qSidyPRdsdtYSdjk1E9Vw&h=AT042JGAOnSecnvIny-TgxHqBhJy_2V4moSBpDrj-1gk2_0bXZmWAP_l4_EDh4c42OXj8dYSblNGM4gTv14535oc4bLjzk13ebyX8wKs3Hn_zb67ngGjiGsIsyg0nr1PZa_5gifN1qMZxyPqqf9v&__tn__=-UK-R&c[0]=AT325wCDpix4tHYRGx4HJ5UXzSFfiwFQkqf5f2Da_ZZ4_qtEpw2cFxVJLziRn0NLkqBTelY5V006F0MZaOh2Cyzrk4bcNAyYBe3qxEYZPtvltMRbYThNmMpejZ0KWp68ZNNGXBpg2TyZuG0FLexZ5YKkfu95OBw59NX-Erk3K5HnNC7PW0mWVA",
        "https://m.facebook.com/l.php?u=https%3A%2F%2Fstudyinsurance.site%2F%3Fp%3D259%26fbclid%3DIwZXh0bgNhZW0CMTAAAR1Xiuci7xBZkL6Ijk7ztjdGWuZJFSspWHVRURatkywoyep15pNfLNnfh9s_aem_0qSidyPRdsdtYSdjk1E9Vw&h=AT05PqlSOzU5X3bFeG2mwRL1iOJLmqskzzL0q2ipbxIOosZH2gAUGl3xsOHA_k58ZLvJjn6xaDOpaczRKGRfFCUHiGxaUN8a3mOMtqxxlAzhElrhBrMM6ah7WXim5XjFx6EkYmLuQYWA4yf9TQOx&__tn__=-UK-R&c[0]=AT325wCDpix4tHYRGx4HJ5UXzSFfiwFQkqf5f2Da_ZZ4_qtEpw2cFxVJLziRn0NLkqBTelY5V006F0MZaOh2Cyzrk4bcNAyYBe3qxEYZPtvltMRbYThNmMpejZ0KWp68ZNNGXBpg2TyZuG0FLexZ5YKkfu95OBw59NX-Erk3K5HnNC7PW0mWVA",
        "https://m.facebook.com/l.php?u=https%3A%2F%2Fstudyinsurance.site%2F%3Fp%3D259%26fbclid%3DIwZXh0bgNhZW0CMTAAAR1Xiuci7xBZkL6Ijk7ztjdGWuZJFSspWHVRURatkywoyep15pNfLNnfh9s_aem_0qSidyPRdsdtYSdjk1E9Vw&h=AT05PqlSOzU5X3bFeG2mwRL1iOJLmqskzzL0q2ipbxIOosZH2gAUGl3xsOHA_k58ZLvJjn6xaDOpaczRKGRfFCUHiGxaUN8a3mOMtqxxlAzhElrhBrMM6ah7WXim5XjFx6EkYmLuQYWA4yf9TQOx&__tn__=-UK-R&c[0]=AT325wCDpix4tHYRGx4HJ5UXzSFfiwFQkqf5f2Da_ZZ4_qtEpw2cFxVJLziRn0NLkqBTelY5V006F0MZaOh2Cyzrk4bcNAyYBe3qxEYZPtvltMRbYThNmMpejZ0KWp68ZNNGXBpg2TyZuG0FLexZ5YKkfu95OBw59NX-Erk3K5HnNC7PW0mWVA",
        "https://m.facebook.com/l.php?u=https%3A%2F%2Fstudyinsurance.site%2F%3Fp%3D255%26fbclid%3DIwZXh0bgNhZW0CMTAAAR0sf-sjnDFfRs5-ukc4iHK7WgutNYtc0m-p2LfpKyA65S9e33L-ujF5s8c_aem_5qs0-PUfBDFT1hyFTzIYlA&h=AT23m5NcZQf7VTAWxMBWQjSgxDRhBRnZHorZUtpzZy4SJ1FXVzGE7BH1r7HyXJuW8M5dvpKU0FqAGwedByEasdvlucUfSMNx8iUs9NYNjjVkBHi9bmnGBrGz3gYprIj0BVRp9zBjfeUpb2Sbyaqm&__tn__=-UK-R&c[0]=AT325wCDpix4tHYRGx4HJ5UXzSFfiwFQkqf5f2Da_ZZ4_qtEpw2cFxVJLziRn0NLkqBTelY5V006F0MZaOh2Cyzrk4bcNAyYBe3qxEYZPtvltMRbYThNmMpejZ0KWp68ZNNGXBpg2TyZuG0FLexZ5YKkfu95OBw59NX-Erk3K5HnNC7PW0mWVA",
        "https://m.facebook.com/l.php?u=https%3A%2F%2Fstudyinsurance.site%2F%3Fp%3D253%26fbclid%3DIwZXh0bgNhZW0CMTAAAR3pIAczW9OOPIz3RjUaA70VS1IghNuRAYD3NHDkxUOrLWXmXpRFI89WQcQ_aem_Ke34cKVD-vjfdl_ICeQ3dg&h=AT1gF8nzyeN3a4rJzGWBpPpn2o7w2j9EAm2BFKGgkDac02BJ0_fxIbt7kMSAVBDlWKinBLoh2RFJVzTXJh3r8ZMxIO-N17KFrlFg2qX2IN49aX1OuIashWXOdMjs5JawVYACgcDwsMkk8DH8Jgzq&__tn__=-UK-R&c[0]=AT325wCDpix4tHYRGx4HJ5UXzSFfiwFQkqf5f2Da_ZZ4_qtEpw2cFxVJLziRn0NLkqBTelY5V006F0MZaOh2Cyzrk4bcNAyYBe3qxEYZPtvltMRbYThNmMpejZ0KWp68ZNNGXBpg2TyZuG0FLexZ5YKkfu95OBw59NX-Erk3K5HnNC7PW0mWVA",
        "https://m.facebook.com/l.php?u=https%3A%2F%2Fstudyinsurance.site%2F%3Fp%3D251%26fbclid%3DIwZXh0bgNhZW0CMTAAAR01JTrDd3QZkqF39dH4dmjC48a63HIFwEypB2BBQLDx0LIW5H7laPoUi_I_aem_GJ67KddXRpzJBo4asliEJQ&h=AT0-oxjl9cG50obiU9Jv8sRW8YH2KtgQP8CNwyRfSBjpj1kx9X-2WzcwmOAv76_qwToxAG4wB9YZ2OuZBbbYiy8MtUgVhRlKOtw8SkwL3HbXkhwTi6P2cONDAeusYRxQfUeAiLAOxqux44ezjAgk&__tn__=-UK-R&c[0]=AT325wCDpix4tHYRGx4HJ5UXzSFfiwFQkqf5f2Da_ZZ4_qtEpw2cFxVJLziRn0NLkqBTelY5V006F0MZaOh2Cyzrk4bcNAyYBe3qxEYZPtvltMRbYThNmMpejZ0KWp68ZNNGXBpg2TyZuG0FLexZ5YKkfu95OBw59NX-Erk3K5HnNC7PW0mWVA",
        "https://m.facebook.com/l.php?u=https%3A%2F%2Fstudyinsurance.site%2F%3Fp%3D273%26fbclid%3DIwZXh0bgNhZW0CMTAAAR01JTrDd3QZkqF39dH4dmjC48a63HIFwEypB2BBQLDx0LIW5H7laPoUi_I_aem_GJ67KddXRpzJBo4asliEJQ&h=AT1oJiCKxWWWKT6qrNyINbuwT4eEb3tNrqnUcCc3HbdLw6lfwRpOl84bvofP5BLsfhH73uz4Xlc_a1_JTsKHJTPoeRbzHyC9LB27Wa35vFMnNVMXq0cHtTOSnCAPKHFS3nwwWzshvj9x0OE1nDwc&__tn__=-UK-R&c[0]=AT325wCDpix4tHYRGx4HJ5UXzSFfiwFQkqf5f2Da_ZZ4_qtEpw2cFxVJLziRn0NLkqBTelY5V006F0MZaOh2Cyzrk4bcNAyYBe3qxEYZPtvltMRbYThNmMpejZ0KWp68ZNNGXBpg2TyZuG0FLexZ5YKkfu95OBw59NX-Erk3K5HnNC7PW0mWVA",
        "https://m.facebook.com/l.php?u=https%3A%2F%2Fstudyinsurance.site%2F%3Fp%3D275%26fbclid%3DIwZXh0bgNhZW0CMTAAAR01JTrDd3QZkqF39dH4dmjC48a63HIFwEypB2BBQLDx0LIW5H7laPoUi_I_aem_GJ67KddXRpzJBo4asliEJQ&h=AT104HRJG6G7_zNyxuL9W-cG8T60kuWLhk0mQq0SHzPSEEzmtXd2e6_8P0OMvgM1te3sQmQkth-q3bl8bw07gYBWzscpahbX6lcit_IBx0iVk0fFlc2op6SQZ_TRSZ1Wn8fJp7eujZXZqZ5P7exp&__tn__=-UK-R&c[0]=AT325wCDpix4tHYRGx4HJ5UXzSFfiwFQkqf5f2Da_ZZ4_qtEpw2cFxVJLziRn0NLkqBTelY5V006F0MZaOh2Cyzrk4bcNAyYBe3qxEYZPtvltMRbYThNmMpejZ0KWp68ZNNGXBpg2TyZuG0FLexZ5YKkfu95OBw59NX-Erk3K5HnNC7PW0mWVA",
        "https://m.facebook.com/l.php?u=https%3A%2F%2Fstudyinsurance.site%2F%3Fp%3D277%26fbclid%3DIwZXh0bgNhZW0CMTAAAR0CF_xiv4vQ3kcIgfgHcJavy2DaFvNT-nTRkb-rzU8ezYgpBBVAvdJpa28_aem_vGybqI_VgBTujvc2xJcSAA&h=AT3rmdj_ExsPZRg6ExDzuok7L4tYa4LB8WElQGkHNe6tYxatsNBWWuIlzF1Lb2Edz0kfB76JUCEcG5V9OZr5KWxzUxF82LbvViraLtW-oB6G_YGhXR54OcRGY9C5IxEdM9BNFQcszYK8uMzPz2Sa&__tn__=-UK-R&c[0]=AT325wCDpix4tHYRGx4HJ5UXzSFfiwFQkqf5f2Da_ZZ4_qtEpw2cFxVJLziRn0NLkqBTelY5V006F0MZaOh2Cyzrk4bcNAyYBe3qxEYZPtvltMRbYThNmMpejZ0KWp68ZNNGXBpg2TyZuG0FLexZ5YKkfu95OBw59NX-Erk3K5HnNC7PW0mWVA",
        "https://m.facebook.com/l.php?u=https%3A%2F%2Fstudyinsurance.site%2F%3Fp%3D279%26fbclid%3DIwZXh0bgNhZW0CMTAAAR0GUJhPs3TVKBaHW2rnf3UJaRDfrZxGCf4CLlVEEoW1CWanbb34_Ucw8kg_aem_nftw4rgpk2nt4rvYUTcKqg&h=AT3j-VSFNbDmo1wYFnpJLpw_TMRkB2R2zNHnb2CndXoh-lfVtWdqeG_PQ_23KjlGODf8yz45o92PA15ep4-MmV34bst0lXRwu-we3coeKW83JG44oi1_FqgHWD5Y_wI0GcYVK8BwTPQmMIT7V-BR&__tn__=-UK-R&c[0]=AT325wCDpix4tHYRGx4HJ5UXzSFfiwFQkqf5f2Da_ZZ4_qtEpw2cFxVJLziRn0NLkqBTelY5V006F0MZaOh2Cyzrk4bcNAyYBe3qxEYZPtvltMRbYThNmMpejZ0KWp68ZNNGXBpg2TyZuG0FLexZ5YKkfu95OBw59NX-Erk3K5HnNC7PW0mWVA",
        "https://m.facebook.com/l.php?u=https%3A%2F%2Fstudyinsurance.site%2F%3Fp%3D281%26fbclid%3DIwZXh0bgNhZW0CMTAAAR1Xiuci7xBZkL6Ijk7ztjdGWuZJFSspWHVRURatkywoyep15pNfLNnfh9s_aem_0qSidyPRdsdtYSdjk1E9Vw&h=AT0T9JEBhuon35pgwMHHLzNjN93id3qOGWn_XDS1J7UZnEIJQGWQOkE6-QZYaIEW61H0UMr96Oz0nsnu7QDkynxHRnWsdbLOgoV8AttcVWBg4TmUr32BTklBLhxFMdek1_vQlmU1MVUV62lCAbbE&__tn__=-UK-R&c[0]=AT325wCDpix4tHYRGx4HJ5UXzSFfiwFQkqf5f2Da_ZZ4_qtEpw2cFxVJLziRn0NLkqBTelY5V006F0MZaOh2Cyzrk4bcNAyYBe3qxEYZPtvltMRbYThNmMpejZ0KWp68ZNNGXBpg2TyZuG0FLexZ5YKkfu95OBw59NX-Erk3K5HnNC7PW0mWVA",
        "https://m.facebook.com/l.php?u=https%3A%2F%2Fstudyinsurance.site%2F%3Fp%3D283%26fbclid%3DIwZXh0bgNhZW0CMTAAAR0GUJhPs3TVKBaHW2rnf3UJaRDfrZxGCf4CLlVEEoW1CWanbb34_Ucw8kg_aem_nftw4rgpk2nt4rvYUTcKqg&h=AT1mv65xv5ODhGDwRHRBNReKDtzhf0i4OTDxsT5HFA6XCeF-Y-zx0K5msRkOYRSghRDFWc8WV0k39x7fTbZr_-4DtvOuEgNsry3bZeUsWu-VehzGt-ymUOQm-NHYN2-nESowPw1tQ5CKXdRPp3GR&__tn__=-UK-R&c[0]=AT325wCDpix4tHYRGx4HJ5UXzSFfiwFQkqf5f2Da_ZZ4_qtEpw2cFxVJLziRn0NLkqBTelY5V006F0MZaOh2Cyzrk4bcNAyYBe3qxEYZPtvltMRbYThNmMpejZ0KWp68ZNNGXBpg2TyZuG0FLexZ5YKkfu95OBw59NX-Erk3K5HnNC7PW0mWVA",
        "https://m.facebook.com/l.php?u=https%3A%2F%2Fstudyinsurance.site%2F%3Fp%3D285%26fbclid%3DIwZXh0bgNhZW0CMTAAAR0GUJhPs3TVKBaHW2rnf3UJaRDfrZxGCf4CLlVEEoW1CWanbb34_Ucw8kg_aem_nftw4rgpk2nt4rvYUTcKqg&h=AT1oetL4bEOHMGje2tjwNF69nQwn_I4-NT0ReAEakLgV61ncGxw9nEQB-ZMUNCua26-9ySGws5zlVdUmeUpfqsnqrGduZpjnbV9k-Sf9Y8J56_MxVGd8BYGAZBVeHp3toQMB5tSmbootHkhO_Th7&__tn__=-UK-R&c[0]=AT325wCDpix4tHYRGx4HJ5UXzSFfiwFQkqf5f2Da_ZZ4_qtEpw2cFxVJLziRn0NLkqBTelY5V006F0MZaOh2Cyzrk4bcNAyYBe3qxEYZPtvltMRbYThNmMpejZ0KWp68ZNNGXBpg2TyZuG0FLexZ5YKkfu95OBw59NX-Erk3K5HnNC7PW0mWVA",
        "https://m.facebook.com/l.php?u=https%3A%2F%2Fstudyinsurance.site%2F%3Fp%3D287%26fbclid%3DIwZXh0bgNhZW0CMTAAAR0sf-sjnDFfRs5-ukc4iHK7WgutNYtc0m-p2LfpKyA65S9e33L-ujF5s8c_aem_5qs0-PUfBDFT1hyFTzIYlA&h=AT3q5-g6DHXwNTChqRIztV1Xk1uQqKRaNmL3qzVDCVWqxemP7k-kogJbmFfIl58orblPKASXRQC6tH89y2KFbYdr8d9fs-0CcUm3H5zf6c7BFKEivmBvFXYERGkgQ2esdGaToM2NUgk-8YDnDSCe&__tn__=-UK-R&c[0]=AT325wCDpix4tHYRGx4HJ5UXzSFfiwFQkqf5f2Da_ZZ4_qtEpw2cFxVJLziRn0NLkqBTelY5V006F0MZaOh2Cyzrk4bcNAyYBe3qxEYZPtvltMRbYThNmMpejZ0KWp68ZNNGXBpg2TyZuG0FLexZ5YKkfu95OBw59NX-Erk3K5HnNC7PW0mWVA",
        "https://m.facebook.com/l.php?u=https%3A%2F%2Fstudyinsurance.site%2F%3Fp%3D289%26fbclid%3DIwZXh0bgNhZW0CMTAAAR0CF_xiv4vQ3kcIgfgHcJavy2DaFvNT-nTRkb-rzU8ezYgpBBVAvdJpa28_aem_vGybqI_VgBTujvc2xJcSAA&h=AT3G0Kc84BDmmaD1Kd4ucx1Ha_7S14EgT-n-mzgOdDc_ksBLUXMcCGOvyfNQmoOFFvggcQEK6HVgdBBomg6Vgntyh2W1k1Qv6EvHIIRTAg51Tn4sBQwqsZ_NqxUfGssU0mLTYvqy-VaaQz3hW0ZJ&__tn__=-UK-R&c[0]=AT325wCDpix4tHYRGx4HJ5UXzSFfiwFQkqf5f2Da_ZZ4_qtEpw2cFxVJLziRn0NLkqBTelY5V006F0MZaOh2Cyzrk4bcNAyYBe3qxEYZPtvltMRbYThNmMpejZ0KWp68ZNNGXBpg2TyZuG0FLexZ5YKkfu95OBw59NX-Erk3K5HnNC7PW0mWVA",
        "https://m.facebook.com/l.php?u=https%3A%2F%2Fstudyinsurance.site%2F%3Fp%3D293%26fbclid%3DIwZXh0bgNhZW0CMTAAAR0sf-sjnDFfRs5-ukc4iHK7WgutNYtc0m-p2LfpKyA65S9e33L-ujF5s8c_aem_5qs0-PUfBDFT1hyFTzIYlA&h=AT2oCoM7IU13rMxqjviDrtVZsAxgAWtRPIzhGFBjIf6o5XkguCsabtmSxbxViCSBHbsUqc6Sh8pd2zcuATPlMUYgn0rEgf4lXWecqHUSvq0R00cbIxp4PmSHMbRXd9OBQhrEUbQLJW7Q8xOKWGU3&__tn__=-UK-R&c[0]=AT325wCDpix4tHYRGx4HJ5UXzSFfiwFQkqf5f2Da_ZZ4_qtEpw2cFxVJLziRn0NLkqBTelY5V006F0MZaOh2Cyzrk4bcNAyYBe3qxEYZPtvltMRbYThNmMpejZ0KWp68ZNNGXBpg2TyZuG0FLexZ5YKkfu95OBw59NX-Erk3K5HnNC7PW0mWVA",
        "https://m.facebook.com/l.php?u=https%3A%2F%2Fstudyinsurance.site%2F%3Fp%3D295%26fbclid%3DIwZXh0bgNhZW0CMTAAAR3pIAczW9OOPIz3RjUaA70VS1IghNuRAYD3NHDkxUOrLWXmXpRFI89WQcQ_aem_Ke34cKVD-vjfdl_ICeQ3dg&h=AT2xp7k5KrpiRKn1E5i_gNvPovO6PVCccCwEdwT2z7hkB1HyY52DS2cFvS_u9lAHgR7o6KObFNC7rV-pz924rw9LUx6hFQvMsdMsX7BuaxiVbxELEyobHqZRFMZYHKGppN0f-C_GtQagWOQm5vl8&__tn__=-UK-R&c[0]=AT325wCDpix4tHYRGx4HJ5UXzSFfiwFQkqf5f2Da_ZZ4_qtEpw2cFxVJLziRn0NLkqBTelY5V006F0MZaOh2Cyzrk4bcNAyYBe3qxEYZPtvltMRbYThNmMpejZ0KWp68ZNNGXBpg2TyZuG0FLexZ5YKkfu95OBw59NX-Erk3K5HnNC7PW0mWVA",
        "https://m.facebook.com/l.php?u=https%3A%2F%2Fstudyinsurance.site%2F%3Fp%3D297%26fbclid%3DIwZXh0bgNhZW0CMTAAAR0G6HNFWf2ICIXc8EB6LDRHBe2a6drF0jqtPo-e8yboiY56PvtzfJePWtA_aem_TzenW1ATa4VnfMRpBnY7lQ&h=AT24pnUEEF8FUo-cmnOM9EsGPuwIuyfukH6Qaj8vGlS2KYm0mRRithDXMNzuvlyjwWH6laA2ZYyongnShv3BjvCZoifbCv9INZ-HY2jSZcBuSQ_iSzJuTGGjeSOh2Y-i0qHBV-3wWYyozSpcYbUr&__tn__=-UK-R&c[0]=AT325wCDpix4tHYRGx4HJ5UXzSFfiwFQkqf5f2Da_ZZ4_qtEpw2cFxVJLziRn0NLkqBTelY5V006F0MZaOh2Cyzrk4bcNAyYBe3qxEYZPtvltMRbYThNmMpejZ0KWp68ZNNGXBpg2TyZuG0FLexZ5YKkfu95OBw59NX-Erk3K5HnNC7PW0mWVA",
        "https://m.facebook.com/l.php?u=https%3A%2F%2Fstudyinsurance.site%2F%3Fp%3D299%26fbclid%3DIwZXh0bgNhZW0CMTAAAR3pIAczW9OOPIz3RjUaA70VS1IghNuRAYD3NHDkxUOrLWXmXpRFI89WQcQ_aem_Ke34cKVD-vjfdl_ICeQ3dg&h=AT3DUGbmyYMtbDYNbgSe1-HEnFfFqVbLcOcskKPLXnL2Bf9--QUDNY1Bhx5hMkXO6jOnGUuLBC9AV8Gnq95o4siRjCWPjqnBemZhJLuScDMwI21Y2dQCTpOZkX6PtfgXD-zOaeTSsvma8GaaTNKm&__tn__=-UK-R&c[0]=AT325wCDpix4tHYRGx4HJ5UXzSFfiwFQkqf5f2Da_ZZ4_qtEpw2cFxVJLziRn0NLkqBTelY5V006F0MZaOh2Cyzrk4bcNAyYBe3qxEYZPtvltMRbYThNmMpejZ0KWp68ZNNGXBpg2TyZuG0FLexZ5YKkfu95OBw59NX-Erk3K5HnNC7PW0mWVA",
        "https://m.facebook.com/l.php?u=https%3A%2F%2Fstudyinsurance.site%2F%3Fp%3D301%26fbclid%3DIwZXh0bgNhZW0CMTAAAR0CF_xiv4vQ3kcIgfgHcJavy2DaFvNT-nTRkb-rzU8ezYgpBBVAvdJpa28_aem_vGybqI_VgBTujvc2xJcSAA&h=AT38Z44i1Xg1ExKa8zZc5urY4pFwEiO1uVKvs-80CBbCvzh6pgfbvZ5aprPdvhxCMsw_X9Bw65vM6S0gYdUCJn2zNyQJVNn6FWvNsfgdszftqftrXPU3QIRcYjeiRSrttslJlIfm1zWqN_AIcxLR&__tn__=-UK-R&c[0]=AT325wCDpix4tHYRGx4HJ5UXzSFfiwFQkqf5f2Da_ZZ4_qtEpw2cFxVJLziRn0NLkqBTelY5V006F0MZaOh2Cyzrk4bcNAyYBe3qxEYZPtvltMRbYThNmMpejZ0KWp68ZNNGXBpg2TyZuG0FLexZ5YKkfu95OBw59NX-Erk3K5HnNC7PW0mWVA",
        "https://m.facebook.com/l.php?u=https%3A%2F%2Fstudyinsurance.site%2F%3Fp%3D303%26fbclid%3DIwZXh0bgNhZW0CMTAAAR1Xiuci7xBZkL6Ijk7ztjdGWuZJFSspWHVRURatkywoyep15pNfLNnfh9s_aem_0qSidyPRdsdtYSdjk1E9Vw&h=AT3WMQo8QnGfQxACyDO6ZVT9UWkXZb_9qzi5gAoeCu8qgLbKoabqP1ZQzGmf2T9Otd4Ot93ibelDiaK6yG-ni5KCfdJ5cLfbzIf2-qe9iwp-LVEjjiHAEeWcreZqs7bTJauP-1IoIBD8tYM9SyGD&__tn__=-UK-R&c[0]=AT325wCDpix4tHYRGx4HJ5UXzSFfiwFQkqf5f2Da_ZZ4_qtEpw2cFxVJLziRn0NLkqBTelY5V006F0MZaOh2Cyzrk4bcNAyYBe3qxEYZPtvltMRbYThNmMpejZ0KWp68ZNNGXBpg2TyZuG0FLexZ5YKkfu95OBw59NX-Erk3K5HnNC7PW0mWVA",
        "https://m.facebook.com/l.php?u=https%3A%2F%2Fstudyinsurance.site%2F%3Fp%3D305%26fbclid%3DIwZXh0bgNhZW0CMTAAAR0CF_xiv4vQ3kcIgfgHcJavy2DaFvNT-nTRkb-rzU8ezYgpBBVAvdJpa28_aem_vGybqI_VgBTujvc2xJcSAA&h=AT1o55_5esHU5H0nawVE2d0siHCZxB32tKTe1TWuIsVWmhJ6IlMO_AfY8IvYBXtTRNsSHocYnLban5DqleiFdXiwwDier1kA8Fg8vfgeE0HhTOIpi18U_5F9VPLXsDU1p61mJvMZtvOXxLzPAtUw&__tn__=-UK-R&c[0]=AT325wCDpix4tHYRGx4HJ5UXzSFfiwFQkqf5f2Da_ZZ4_qtEpw2cFxVJLziRn0NLkqBTelY5V006F0MZaOh2Cyzrk4bcNAyYBe3qxEYZPtvltMRbYThNmMpejZ0KWp68ZNNGXBpg2TyZuG0FLexZ5YKkfu95OBw59NX-Erk3K5HnNC7PW0mWVA",
        "https://m.facebook.com/l.php?u=https%3A%2F%2Fstudyinsurance.site%2F%3Fp%3D307%26fbclid%3DIwZXh0bgNhZW0CMTAAAR0GUJhPs3TVKBaHW2rnf3UJaRDfrZxGCf4CLlVEEoW1CWanbb34_Ucw8kg_aem_nftw4rgpk2nt4rvYUTcKqg&h=AT3dlEQGCfB8EuZzgShHShjFPsVRmxMUoskNrnIrhQ5q8VEXApZPv-JZT3FTsU0qVCI0q5F_wqrCXwMl8xNKb2gyY1aChuVmOp-8wzbapgE3JUtO_YIp4fmvxJXIeJkEvtdkOYFodWim0Qcof9bI&__tn__=-UK-R&c[0]=AT325wCDpix4tHYRGx4HJ5UXzSFfiwFQkqf5f2Da_ZZ4_qtEpw2cFxVJLziRn0NLkqBTelY5V006F0MZaOh2Cyzrk4bcNAyYBe3qxEYZPtvltMRbYThNmMpejZ0KWp68ZNNGXBpg2TyZuG0FLexZ5YKkfu95OBw59NX-Erk3K5HnNC7PW0mWVA",
        "https://m.facebook.com/l.php?u=https%3A%2F%2Fstudyinsurance.site%2F%3Fp%3D311%26fbclid%3DIwZXh0bgNhZW0CMTAAAR33-eHh0oKLx7ORQRIoQNhFXg3pk3SvSIw2jSwmPRMHvQv91NpmLOuhvsY_aem_3s93SjYtSbn9KLmgSx1Nrg&h=AT1n5U3pHvHzh8KdbKN4ERPeDZpckkAelU63nAaBy-VYBZFvnHuZzkwfFyy_PZAwDKVhS3EWgB34PY3-cdLWC-IgbvVRQ3Ak_jAFdeB3gbSDHtwZVoRI3cMZus2KyyKHtM2nIbh9ZUrOOz8fkmDZ&__tn__=-UK-R&c[0]=AT325wCDpix4tHYRGx4HJ5UXzSFfiwFQkqf5f2Da_ZZ4_qtEpw2cFxVJLziRn0NLkqBTelY5V006F0MZaOh2Cyzrk4bcNAyYBe3qxEYZPtvltMRbYThNmMpejZ0KWp68ZNNGXBpg2TyZuG0FLexZ5YKkfu95OBw59NX-Erk3K5HnNC7PW0mWVA",
        "https://m.facebook.com/l.php?u=https%3A%2F%2Fstudyinsurance.site%2F%3Fp%3D313%26fbclid%3DIwZXh0bgNhZW0CMTAAAR0G6HNFWf2ICIXc8EB6LDRHBe2a6drF0jqtPo-e8yboiY56PvtzfJePWtA_aem_TzenW1ATa4VnfMRpBnY7lQ&h=AT2VazlfsrvnceKowW3G1de9Qy71HfoJYO_33I5e9AY_19uGsxuKDLFvauGvzjBJ8ERREdQxeH7AQ8zIM8THh9xmLTto7rhKIu7tNY0CQrwYA52-58ttmpeLVNF4qd1gC1x7Hk6vEVOa8r3ZF0EJ&__tn__=-UK-R&c[0]=AT325wCDpix4tHYRGx4HJ5UXzSFfiwFQkqf5f2Da_ZZ4_qtEpw2cFxVJLziRn0NLkqBTelY5V006F0MZaOh2Cyzrk4bcNAyYBe3qxEYZPtvltMRbYThNmMpejZ0KWp68ZNNGXBpg2TyZuG0FLexZ5YKkfu95OBw59NX-Erk3K5HnNC7PW0mWVA",
        "https://m.facebook.com/l.php?u=https%3A%2F%2Fstudyinsurance.site%2F%3Fp%3D315%26fbclid%3DIwZXh0bgNhZW0CMTAAAR3pIAczW9OOPIz3RjUaA70VS1IghNuRAYD3NHDkxUOrLWXmXpRFI89WQcQ_aem_Ke34cKVD-vjfdl_ICeQ3dg&h=AT1mSYZrb_tkOM43a93NfLHppY6XdHYGcT-pthtyZ5s-GbGJqyBEaWihi05yqSxCrda_NayAN88xBWsK2mxi7BN95zJxWCvVKGBD-dUZUkOVoe_pWbbHwNTASjlADka3V5T7dpLfhyIazlnW6QfL&__tn__=-UK-R&c[0]=AT325wCDpix4tHYRGx4HJ5UXzSFfiwFQkqf5f2Da_ZZ4_qtEpw2cFxVJLziRn0NLkqBTelY5V006F0MZaOh2Cyzrk4bcNAyYBe3qxEYZPtvltMRbYThNmMpejZ0KWp68ZNNGXBpg2TyZuG0FLexZ5YKkfu95OBw59NX-Erk3K5HnNC7PW0mWVA",
        "https://m.facebook.com/l.php?u=https%3A%2F%2Fstudyinsurance.site%2F%3Fp%3D317%26fbclid%3DIwZXh0bgNhZW0CMTAAAR33-eHh0oKLx7ORQRIoQNhFXg3pk3SvSIw2jSwmPRMHvQv91NpmLOuhvsY_aem_3s93SjYtSbn9KLmgSx1Nrg&h=AT1dl5BTb1fux1T7w-MyaiVnl7QDlelnoeAV3gBzjrXXNfEPeZdxMxF4R-HjpO6m-GlsEC4OGCGhS9tYoo5aRl3GmgE0X8Tvw0D4QQ6pj0g7lSx2KtHdy_vtBYAStjgbknaj-SYwbNKhnAn7sgqv&__tn__=-UK-R&c[0]=AT325wCDpix4tHYRGx4HJ5UXzSFfiwFQkqf5f2Da_ZZ4_qtEpw2cFxVJLziRn0NLkqBTelY5V006F0MZaOh2Cyzrk4bcNAyYBe3qxEYZPtvltMRbYThNmMpejZ0KWp68ZNNGXBpg2TyZuG0FLexZ5YKkfu95OBw59NX-Erk3K5HnNC7PW0mWVA",
        "https://m.facebook.com/l.php?u=https%3A%2F%2Fstudyinsurance.site%2F%3Fp%3D319%26fbclid%3DIwZXh0bgNhZW0CMTAAAR0G6HNFWf2ICIXc8EB6LDRHBe2a6drF0jqtPo-e8yboiY56PvtzfJePWtA_aem_TzenW1ATa4VnfMRpBnY7lQ&h=AT05VYlMIiGrO4MH3ihldtgw8idnz3187A2f74msFJxx6OMuoLFBDB9eczEWuA1bKVy-NPjCYw4Nys01guVr_zybJ3xubUd8CbQHL54n9N7tBD1nm0CKxqEp2t5qndR1z067j-JOt3k4urIMRwAQ&__tn__=-UK-R&c[0]=AT325wCDpix4tHYRGx4HJ5UXzSFfiwFQkqf5f2Da_ZZ4_qtEpw2cFxVJLziRn0NLkqBTelY5V006F0MZaOh2Cyzrk4bcNAyYBe3qxEYZPtvltMRbYThNmMpejZ0KWp68ZNNGXBpg2TyZuG0FLexZ5YKkfu95OBw59NX-Erk3K5HnNC7PW0mWVA",
        "https://m.facebook.com/l.php?u=https%3A%2F%2Fstudyinsurance.site%2F%3Fp%3D321%26fbclid%3DIwZXh0bgNhZW0CMTAAAR0CF_xiv4vQ3kcIgfgHcJavy2DaFvNT-nTRkb-rzU8ezYgpBBVAvdJpa28_aem_vGybqI_VgBTujvc2xJcSAA&h=AT3-azJr_KlMsvdaU_E5xL7NFC0IOt3I2sWnqmLh4SK46xwmIJ0HfiigtY_26YQPvztKx04e7zhX_rOVU7Uua2mHxdD7XWRunCcHwUjHqWJq9rAL0_vsN2Lx0uPGUynffEjdqng8X6kSJ4YFpgdJ&__tn__=-UK-R&c[0]=AT325wCDpix4tHYRGx4HJ5UXzSFfiwFQkqf5f2Da_ZZ4_qtEpw2cFxVJLziRn0NLkqBTelY5V006F0MZaOh2Cyzrk4bcNAyYBe3qxEYZPtvltMRbYThNmMpejZ0KWp68ZNNGXBpg2TyZuG0FLexZ5YKkfu95OBw59NX-Erk3K5HnNC7PW0mWVA",
        "https://m.facebook.com/l.php?u=https%3A%2F%2Fstudyinsurance.site%2F%3Fp%3D323%26fbclid%3DIwZXh0bgNhZW0CMTAAAR0G6HNFWf2ICIXc8EB6LDRHBe2a6drF0jqtPo-e8yboiY56PvtzfJePWtA_aem_TzenW1ATa4VnfMRpBnY7lQ&h=AT2E3IwvUfQ-IASSZzQTAGM_AlbxXVpDi_LHeUNRkhOTzF1z-rr7PmFThdUI0hKqPFrvhZpPdV9q1G7N5o38TUCiQxyXt0e8mpNW9rp2w61mHte2V9q0T7xo2skgoWuS-u2rs7mxpRVLU89vKPmr&__tn__=-UK-R&c[0]=AT325wCDpix4tHYRGx4HJ5UXzSFfiwFQkqf5f2Da_ZZ4_qtEpw2cFxVJLziRn0NLkqBTelY5V006F0MZaOh2Cyzrk4bcNAyYBe3qxEYZPtvltMRbYThNmMpejZ0KWp68ZNNGXBpg2TyZuG0FLexZ5YKkfu95OBw59NX-Erk3K5HnNC7PW0mWVA",
        "https://m.facebook.com/l.php?u=https%3A%2F%2Fstudyinsurance.site%2F%3Fp%3D325%26fbclid%3DIwZXh0bgNhZW0CMTAAAR1Xiuci7xBZkL6Ijk7ztjdGWuZJFSspWHVRURatkywoyep15pNfLNnfh9s_aem_0qSidyPRdsdtYSdjk1E9Vw&h=AT0Roc1kcbMVUM-w7IKR6GdwX7JhFyLEqT9EfAN1wvdNlc0L5pqNuEIz9AFUkyV8kzmxnB9WJA6731CFNNoPMgW1ZA7tEQW8p30fh1LBlKxbhP74Vvnrs_9UYgNJvMj1Xi6MdYk3lT2mfEa2ZLF2&__tn__=-UK-R&c[0]=AT325wCDpix4tHYRGx4HJ5UXzSFfiwFQkqf5f2Da_ZZ4_qtEpw2cFxVJLziRn0NLkqBTelY5V006F0MZaOh2Cyzrk4bcNAyYBe3qxEYZPtvltMRbYThNmMpejZ0KWp68ZNNGXBpg2TyZuG0FLexZ5YKkfu95OBw59NX-Erk3K5HnNC7PW0mWVA"
    ]
}
