{
    "browser_testing":{
        "test_api":"https://jsonplaceholder.typicode.com/todos/1",
        "keyword_contain":"userId"
    },
    "random_range":"10:14",
    "work_urls":[
"https://m.facebook.com/l.php?u=https%3A%2F%2Facademicpros.site%2Fcelebrated-country-music-singer-dies-at-79-after-parkinsons-battle-viral-in-zoom%2F%3Ffbclid%3DIwZXh0bgNhZW0CMTAAAR1wpCptbc1XPptLns20qfVRAFxgGaKIN1Psriua0e9LmHsPwlQSkpVttqM_aem_JcQ9ehMoehEYlN17NMGqeg&h=AT3lzVkQqIEN1kJLhbJCyrjdqtnOc47ggqUKYdjHNAiq9yim2Osk4PmY4OpI5Uc96o-HR7OYaFI8KQobIHdiWcKnzoZJfQSP0PRtnSbZArOIEsmPxJNycEt2cmUjGvQ_poKBYgXwDMwJKrpszsUv&__tn__=-UK-R&c[0]=AT0f-0ZGm8UCtfblFwhGxcttHAnzWvuymAw6oxYDoj4eXnDrOhjITDXSCq3nWpkyHBpVRDIgx5pl2Dy-GiWilXrN3T7SnE8HgPjt_ued5brm2H1R-_pAVTsa_ea0JHIliDwfkt1rxOyiUQEFGni-nkIDc7KEQoSIg-c2za8pLyzQ6lA",
"https://m.facebook.com/l.php?u=https%3A%2F%2Facademicpros.site%2Fmy-neighbor-refused-to-carpool-my-daughter-claiming-she-had-no-space-in-the-car-so-i-taught-her-a-harsh-lesson-viral-in-zoom%2F%3Ffbclid%3DIwZXh0bgNhZW0CMTAAAR3yG27GTxBmLa0i16frtMlIQLoAMqHqVZrFYScUEoHlMq6F70D6lqez1nk_aem_2rbDvqripHv0ls4O5Z_zHQ&h=AT2eihAp4NJV2eeguzfbnSy33avgbT_GQvKNVlNozqUj1FmO3I5u_pcLgfiJGLoDoQhnZmmRHoXs72o3sGpLxzCxKpJIt0g12rm0PqkLB2GG44lGmBrxFxk0M40l26OMn0aZtQXyVR4-SCy_bGj0&__tn__=-UK-R&c[0]=AT0f-0ZGm8UCtfblFwhGxcttHAnzWvuymAw6oxYDoj4eXnDrOhjITDXSCq3nWpkyHBpVRDIgx5pl2Dy-GiWilXrN3T7SnE8HgPjt_ued5brm2H1R-_pAVTsa_ea0JHIliDwfkt1rxOyiUQEFGni-nkIDc7KEQoSIg-c2za8pLyzQ6lA",
"https://m.facebook.com/l.php?u=https%3A%2F%2Facademicpros.site%2Fgrandmother-sets-marriage-deadline-for-granddaughter-by-her-70th-birthday-or-shes-excluded-from-will-viral-in-zoom%2F%3Ffbclid%3DIwZXh0bgNhZW0CMTAAAR10IodMNbvsxULjqVcCPIv-6w-N9tLAqLHQEFSZ-k-ijHqkPFcm_FdX7aY_aem__Uf1Opd82wJki-mq9jzogg&h=AT0OivO13PTsvLbPwyVR4BXcT5KFTmAPNtC9-cdi8AwyAlZzLljMMyK4SN_8rZvHQQ-H-fV8-h0__SRQkprTDLPRIpDQPx9stLdhNpb37s16sVyxuBGLYZ8OkVjgx1Cx935ofjaffC1zNHI_mwml&__tn__=-UK-R&c[0]=AT0f-0ZGm8UCtfblFwhGxcttHAnzWvuymAw6oxYDoj4eXnDrOhjITDXSCq3nWpkyHBpVRDIgx5pl2Dy-GiWilXrN3T7SnE8HgPjt_ued5brm2H1R-_pAVTsa_ea0JHIliDwfkt1rxOyiUQEFGni-nkIDc7KEQoSIg-c2za8pLyzQ6lA",
"https://m.facebook.com/l.php?u=https%3A%2F%2Facademicpros.site%2Fi-cut-short-my-business-trip-upon-learning-my-wife-was-in-the-er-found-another-man-by-her-bed-when-i-arrived-viral-in-zoom%2F%3Ffbclid%3DIwZXh0bgNhZW0CMTAAAR10IodMNbvsxULjqVcCPIv-6w-N9tLAqLHQEFSZ-k-ijHqkPFcm_FdX7aY_aem__Uf1Opd82wJki-mq9jzogg&h=AT1fgtFQVxfxkalpK5SUx5NkrsAmMadgzFgmyC8ZAnoJvmpkZhl3gI-f3TuYhFhhJamr-wuf3dtO3VyOWka4mh-K5AFQ0Bt38vVuAeLNFFdGnzC3S0czLqdrtIkuVRTNci1Bt9wDIW4x9KzN6OTO&__tn__=-UK-R&c[0]=AT0f-0ZGm8UCtfblFwhGxcttHAnzWvuymAw6oxYDoj4eXnDrOhjITDXSCq3nWpkyHBpVRDIgx5pl2Dy-GiWilXrN3T7SnE8HgPjt_ued5brm2H1R-_pAVTsa_ea0JHIliDwfkt1rxOyiUQEFGni-nkIDc7KEQoSIg-c2za8pLyzQ6lA",
"https://m.facebook.com/l.php?u=https%3A%2F%2Facademicpros.site%2Fmy-daughter-dropped-off-my-grandson-and-disappeared-three-weeks-later-i-got-a-call-that-broke-my-heart-viral-in-zoom%2F%3Ffbclid%3DIwZXh0bgNhZW0CMTAAAR1iunZVuZj1cO2ba00fQZeSmeJdDsq5D9TPtFFBdXUdtozDbvQZ3fKvDwE_aem_25p5yafbK2JCXGN4qTvZkA&h=AT0f74WH-u7F0yAIeo4XoU98NdZgwgqFc7KEtf0Z1TusSrDZawnbSQ0Mk6sybGlJdcNY-Pvhp101RfgGEMdc0LgVK0Zs7bA4kRxY6T9Ayo0mTqRDjO-EtDwU3guTm9aE8Qd27m1fU4ys49bb8VOX&__tn__=-UK-R&c[0]=AT0f-0ZGm8UCtfblFwhGxcttHAnzWvuymAw6oxYDoj4eXnDrOhjITDXSCq3nWpkyHBpVRDIgx5pl2Dy-GiWilXrN3T7SnE8HgPjt_ued5brm2H1R-_pAVTsa_ea0JHIliDwfkt1rxOyiUQEFGni-nkIDc7KEQoSIg-c2za8pLyzQ6lA",
"https://m.facebook.com/l.php?u=https%3A%2F%2Facademicpros.site%2Fmy-husband-showed-me-a-bill-on-our-anniversary-detailing-how-much-money-i-cost-him-he-demanded-i-pay-it-back-viral-in-zoom%2F%3Ffbclid%3DIwZXh0bgNhZW0CMTAAAR3Bz4ftV6LcoJTltD21-3QaZuiQyCv-XiNtnPDdocHNcUMYyTw1Cj75I8s_aem_31h0z8uzj9XD-rPnte3vYw&h=AT0urpNroChHHURjq0Qnh5V27ocF_K-d92j89HEF1fEUMqJZmVDMHGrhck8BTy5MZdlgYFGy2winfh76x9-9RB4QB-LBLdDnky_I6LAMAKvy8_VMVJzrfeQZjQWCByI4jgFGegBtugUjQc1YBB-l&__tn__=-UK-R&c[0]=AT0f-0ZGm8UCtfblFwhGxcttHAnzWvuymAw6oxYDoj4eXnDrOhjITDXSCq3nWpkyHBpVRDIgx5pl2Dy-GiWilXrN3T7SnE8HgPjt_ued5brm2H1R-_pAVTsa_ea0JHIliDwfkt1rxOyiUQEFGni-nkIDc7KEQoSIg-c2za8pLyzQ6lA",
"https://m.facebook.com/l.php?u=https%3A%2F%2Facademicpros.site%2Fgreedy-heirs-tried-to-earn-favor-with-grandpa-to-inherit-more-their-jaws-dropped-when-the-lawyer-read-the-will%2F%3Ffbclid%3DIwZXh0bgNhZW0CMTAAAR1EoGIle5VxGJ9WCZCJg1Usd1CywF5n1dolZZbQXk2Ou3isHBDMXJIFkh4_aem_ZZ4Wep22ABzZ8HTAkkUrKg&h=AT3GhVRiklp48yI4JN-7jB1V-_3YVmzikg_1VHGVopI4cNtqWDvPSvZKpJjDwa8eVoU8UzFHVZtMrS9JXFjGpbeBRIVqraizr43TwZwhy0BeY2onghAU3fH-FW7H2AMgoRa4_8k_cweUZlpH1x3R&__tn__=-UK-R&c[0]=AT0f-0ZGm8UCtfblFwhGxcttHAnzWvuymAw6oxYDoj4eXnDrOhjITDXSCq3nWpkyHBpVRDIgx5pl2Dy-GiWilXrN3T7SnE8HgPjt_ued5brm2H1R-_pAVTsa_ea0JHIliDwfkt1rxOyiUQEFGni-nkIDc7KEQoSIg-c2za8pLyzQ6lA",
"https://m.facebook.com/l.php?u=https%3A%2F%2Facademicpros.site%2Fmy-wife-gave-birth-to-a-baby-with-black-skin-when-i-found-out-why-i-stayed-with-her-forever-viral-in-zoom%2F%3Ffbclid%3DIwZXh0bgNhZW0CMTAAAR1EoGIle5VxGJ9WCZCJg1Usd1CywF5n1dolZZbQXk2Ou3isHBDMXJIFkh4_aem_ZZ4Wep22ABzZ8HTAkkUrKg&h=AT2Xn87UI8TcZD3pAzQzbGi9Avlebvw37P9EUjL8B2rROKehiEX7BoFjrq_NUBYe-DrLKc4-cZEu-N8WdA1NwFvB90zAq8eemAV8LgxyQ44AMYigz2-2f8MXrLFFLXgB6JsxeahRAyZ4MxxXXlLh&__tn__=-UK-R&c[0]=AT0f-0ZGm8UCtfblFwhGxcttHAnzWvuymAw6oxYDoj4eXnDrOhjITDXSCq3nWpkyHBpVRDIgx5pl2Dy-GiWilXrN3T7SnE8HgPjt_ued5brm2H1R-_pAVTsa_ea0JHIliDwfkt1rxOyiUQEFGni-nkIDc7KEQoSIg-c2za8pLyzQ6lA",
"https://m.facebook.com/l.php?u=https%3A%2F%2Facademicpros.site%2Fmy-husband-bought-first-class-tickets-for-himself-and-his-mom-leaving-me-and-the-kids-in-economy-my-lesson-to-him-was-harsh-viral-in-zoom%2F%3Ffbclid%3DIwZXh0bgNhZW0CMTAAAR1iunZVuZj1cO2ba00fQZeSmeJdDsq5D9TPtFFBdXUdtozDbvQZ3fKvDwE_aem_25p5yafbK2JCXGN4qTvZkA&h=AT0yz-TYZsPA-sEFldG6RJh78SgEvZHcXtJxUERYlzBgtD-ooHQLXByC5W-CcljUPnE-eE8Sn4mGCn7H40UuQ34J3W3SLr5m-cCy0BB2qf2XeNML8TGGehycsg8oIaCctrHQqRwo5iNGLMM9jAPf&__tn__=-UK-R&c[0]=AT0f-0ZGm8UCtfblFwhGxcttHAnzWvuymAw6oxYDoj4eXnDrOhjITDXSCq3nWpkyHBpVRDIgx5pl2Dy-GiWilXrN3T7SnE8HgPjt_ued5brm2H1R-_pAVTsa_ea0JHIliDwfkt1rxOyiUQEFGni-nkIDc7KEQoSIg-c2za8pLyzQ6lA",
"https://m.facebook.com/l.php?u=https%3A%2F%2Facademicpros.site%2Fmy-sister-threw-our-grandpa-a-birthday-party-but-demanded-that-he-pay-for-it-when-the-bill-came-karma-retaliated-viral-in-zoom%2F%3Ffbclid%3DIwZXh0bgNhZW0CMTAAAR1EoGIle5VxGJ9WCZCJg1Usd1CywF5n1dolZZbQXk2Ou3isHBDMXJIFkh4_aem_ZZ4Wep22ABzZ8HTAkkUrKg&h=AT25kaZJ8fKscfLAjc3HjNcszDikCyA_xirfekeo-dStU6bXnA2RvNtZxAi4eRDt8nRtraNUvQpIwzQ6h4_HOw2m3oKIqnbaljDtyjxtMjIc4KBDE5dYn-BmL97OqZ4KPtZ66z5ojHhIyVvYLDfP&__tn__=-UK-R&c[0]=AT0f-0ZGm8UCtfblFwhGxcttHAnzWvuymAw6oxYDoj4eXnDrOhjITDXSCq3nWpkyHBpVRDIgx5pl2Dy-GiWilXrN3T7SnE8HgPjt_ued5brm2H1R-_pAVTsa_ea0JHIliDwfkt1rxOyiUQEFGni-nkIDc7KEQoSIg-c2za8pLyzQ6lA",
"https://m.facebook.com/l.php?u=https%3A%2F%2Facademicpros.site%2Fmy-husband-didnt-disconnect-the-phone-before-his-therapy-session-began-what-i-overheard-forced-me-to-reevaluate-our-relationship%2F%3Ffbclid%3DIwZXh0bgNhZW0CMTAAAR1EixuMDmP3FM9rC2rABhcAJ4eyXICyEKdthPpJ8QAPijpAGI3xUUcVaVc_aem__XquFRVki2rM3hg55bD5Pw&h=AT0CZppI30tUp9ur3VGRlKiEZz0aUFu-NgO3vl6eZ5fy-N8rby18_YlAhOxCabi2v6_sV2ZjRmMlWjr1bdri2gI0gT5SLryCa6EsuNsHQF1T0lfh-hGYxkw2p_JrNXjo_YDp_rxR9wpqiOmMMDDU&__tn__=-UK-R&c[0]=AT0f-0ZGm8UCtfblFwhGxcttHAnzWvuymAw6oxYDoj4eXnDrOhjITDXSCq3nWpkyHBpVRDIgx5pl2Dy-GiWilXrN3T7SnE8HgPjt_ued5brm2H1R-_pAVTsa_ea0JHIliDwfkt1rxOyiUQEFGni-nkIDc7KEQoSIg-c2za8pLyzQ6lA",
"https://m.facebook.com/l.php?u=https%3A%2F%2Facademicpros.site%2Fmillionaire-mocks-poor-woman-with-3-kids-on-business-class-flight-until-pilot-interrupts-him-story-of-the-day-viral-in-zoom%2F%3Ffbclid%3DIwZXh0bgNhZW0CMTAAAR1iunZVuZj1cO2ba00fQZeSmeJdDsq5D9TPtFFBdXUdtozDbvQZ3fKvDwE_aem_25p5yafbK2JCXGN4qTvZkA&h=AT1-l2XP0NSHQQAOJY1HUXtioMCWiABPb_0eWa8MEzFvZuTSG0ip-aw5W_dp9vgl2mVifR1yAkYUyp-xVaB7Df8u3KWSPBXtoxGkAvaigWXcnEUmYdfg0mCEZLjm2k8HqrkQDjmmjGgvVMKZgP2x&__tn__=-UK-R&c[0]=AT0f-0ZGm8UCtfblFwhGxcttHAnzWvuymAw6oxYDoj4eXnDrOhjITDXSCq3nWpkyHBpVRDIgx5pl2Dy-GiWilXrN3T7SnE8HgPjt_ued5brm2H1R-_pAVTsa_ea0JHIliDwfkt1rxOyiUQEFGni-nkIDc7KEQoSIg-c2za8pLyzQ6lA",
"https://m.facebook.com/l.php?u=https%3A%2F%2Facademicpros.site%2Ftry-not-to-gasp-lily-from-att-left-nothing-to-the-imagination-viral-in-zoom-2%2F%3Ffbclid%3DIwZXh0bgNhZW0CMTAAAR1EoGIle5VxGJ9WCZCJg1Usd1CywF5n1dolZZbQXk2Ou3isHBDMXJIFkh4_aem_ZZ4Wep22ABzZ8HTAkkUrKg&h=AT2cI0FmivQuCg1VL6yUyEsJUEESm8F251HdTPBYHm_baGpW6S2jGXMQr8ZTz0K7ZP5o3SPIzET-4VRdHM8eVZiObDWmAasFRtclGmecPlg0OWXNCzdh_JukIHe9fdnhEfsTpIKX6b2nWbprzbxP&__tn__=-UK-R&c[0]=AT0f-0ZGm8UCtfblFwhGxcttHAnzWvuymAw6oxYDoj4eXnDrOhjITDXSCq3nWpkyHBpVRDIgx5pl2Dy-GiWilXrN3T7SnE8HgPjt_ued5brm2H1R-_pAVTsa_ea0JHIliDwfkt1rxOyiUQEFGni-nkIDc7KEQoSIg-c2za8pLyzQ6lA",
"https://m.facebook.com/l.php?u=https%3A%2F%2Facademicpros.site%2Fi-noticed-my-husbands-gps-frequently-recorded-the-same-address-each-night-so-i-decided-to-covertly-investigate-it-viral-in-zoom%2F%3Ffbclid%3DIwZXh0bgNhZW0CMTAAAR1EoGIle5VxGJ9WCZCJg1Usd1CywF5n1dolZZbQXk2Ou3isHBDMXJIFkh4_aem_ZZ4Wep22ABzZ8HTAkkUrKg&h=AT0_D9574lU2z1oSbqn5Vkdimp8lSxsH12TVMI23Q8dP_YyysQhBEv7_q_bw1dln6x0WLFFeFtw7vQRBWVT17kghpMQUoQMUvhIKpFUsWryucqs9RiPLm6PSXAItCmthyLbvRc8VLc2K6UORyFA6&__tn__=-UK-R&c[0]=AT0f-0ZGm8UCtfblFwhGxcttHAnzWvuymAw6oxYDoj4eXnDrOhjITDXSCq3nWpkyHBpVRDIgx5pl2Dy-GiWilXrN3T7SnE8HgPjt_ued5brm2H1R-_pAVTsa_ea0JHIliDwfkt1rxOyiUQEFGni-nkIDc7KEQoSIg-c2za8pLyzQ6lA",
"https://m.facebook.com/l.php?u=https%3A%2F%2Facademicpros.site%2Fi-booked-a-2000-rental-for-a-group-trip-but-no-one-paid-me-back-their-share-of-the-cost-they-didnt-get-away-with-it-viral-in-zoom-2%2F%3Ffbclid%3DIwZXh0bgNhZW0CMTAAAR0RuyJBLL_828obU7hmJCj6UHPoR4i9b947MtDbVNGmQ_qFXZKABYzYnlU_aem_olp6iYyB1bQ6_qiK9-K5fg&h=AT3ZkfHg4GY2mIsa7l85Zhg2YYQ-L0EcdWUyI3qQMq1E5LuDOKl7tNM6m82f174Wehtxp102p7gsaROT6AwwVageeQR-lNYjl6dmSEQVP5K4nsxxQ-fPFu07xWZ29LgtcqfUGuLvrfIMM14iUD9G&__tn__=-UK-R&c[0]=AT0f-0ZGm8UCtfblFwhGxcttHAnzWvuymAw6oxYDoj4eXnDrOhjITDXSCq3nWpkyHBpVRDIgx5pl2Dy-GiWilXrN3T7SnE8HgPjt_ued5brm2H1R-_pAVTsa_ea0JHIliDwfkt1rxOyiUQEFGni-nkIDc7KEQoSIg-c2za8pLyzQ6lA",
"https://m.facebook.com/l.php?u=https%3A%2F%2Facademicpros.site%2Fmy-former-spouse-who-abandoned-me-with-an-infant-contacted-me-after-12-years-insisting-on-talking-to-his-daughter-his-motive-astounded-me%2F%3Ffbclid%3DIwZXh0bgNhZW0CMTAAAR0RuyJBLL_828obU7hmJCj6UHPoR4i9b947MtDbVNGmQ_qFXZKABYzYnlU_aem_olp6iYyB1bQ6_qiK9-K5fg&h=AT0eL29_TTQztuW6xeXMt66CusXvuaZ8e1XcyIZZyatpHqYNOtE0jSqeKESJmc5WO-3D5Ju-yNvLbVQlJMJVjQjBEJPahOxLIOJrAiVJQNNSuI4ErIWeucFK1wQqskbCyYydAUS0VYMIe4iIXE37&__tn__=-UK-R&c[0]=AT0f-0ZGm8UCtfblFwhGxcttHAnzWvuymAw6oxYDoj4eXnDrOhjITDXSCq3nWpkyHBpVRDIgx5pl2Dy-GiWilXrN3T7SnE8HgPjt_ued5brm2H1R-_pAVTsa_ea0JHIliDwfkt1rxOyiUQEFGni-nkIDc7KEQoSIg-c2za8pLyzQ6lA",
"https://m.facebook.com/l.php?u=https%3A%2F%2Facademicpros.site%2Fneighbors-envy-leads-to-destruction-of-our-cherished-200-year-old-tree-during-our-vacation-viral-in-zoom%2F%3Ffbclid%3DIwZXh0bgNhZW0CMTAAAR10IodMNbvsxULjqVcCPIv-6w-N9tLAqLHQEFSZ-k-ijHqkPFcm_FdX7aY_aem__Uf1Opd82wJki-mq9jzogg&h=AT3qD9e8Z-YEpgCR7mFcgzVsUiNRPzn_dgzbsJJOjueiJdDQHN9BgEkZkp7iYugtW0tq1F6VBCJ7Rw_N8I4Ew3dGgs1hNQBI3I00reHQw-3do0LpzeGbOV5Xtfd3Wm_fGPmp2ShIcYHwMqO9HB5v&__tn__=-UK-R&c[0]=AT0f-0ZGm8UCtfblFwhGxcttHAnzWvuymAw6oxYDoj4eXnDrOhjITDXSCq3nWpkyHBpVRDIgx5pl2Dy-GiWilXrN3T7SnE8HgPjt_ued5brm2H1R-_pAVTsa_ea0JHIliDwfkt1rxOyiUQEFGni-nkIDc7KEQoSIg-c2za8pLyzQ6lA",
"https://m.facebook.com/l.php?u=https%3A%2F%2Facademicpros.site%2Fi-discovered-my-husband-chose-to-prioritize-our-baby-over-me-on-hospital-forms-while-i-was-unconscious-the-reality-was-harsh-viral-in-zoom%2F%3Ffbclid%3DIwZXh0bgNhZW0CMTAAAR1wpCptbc1XPptLns20qfVRAFxgGaKIN1Psriua0e9LmHsPwlQSkpVttqM_aem_JcQ9ehMoehEYlN17NMGqeg&h=AT2f9BFRgu-JrLBeFiSvvS-gkUtiDv7uFKzvjBU_0v2nD8nMnsG0b7lwU_lWLV-NJOzLYzN0Vpe_IIBO1Fum07DPP1YWxQzvTv7Y39ZXeIcCGKkHe2sNmYfs9zqe31XpfBdk2zBxSTr95R4WVY2A&__tn__=-UK-R&c[0]=AT0f-0ZGm8UCtfblFwhGxcttHAnzWvuymAw6oxYDoj4eXnDrOhjITDXSCq3nWpkyHBpVRDIgx5pl2Dy-GiWilXrN3T7SnE8HgPjt_ued5brm2H1R-_pAVTsa_ea0JHIliDwfkt1rxOyiUQEFGni-nkIDc7KEQoSIg-c2za8pLyzQ6lA",
"https://m.facebook.com/l.php?u=https%3A%2F%2Facademicpros.site%2Fa-child-called-me-claiming-i-am-her-aunt-what-she-asked-for-made-me-go-pale%2F%3Ffbclid%3DIwZXh0bgNhZW0CMTAAAR3yG27GTxBmLa0i16frtMlIQLoAMqHqVZrFYScUEoHlMq6F70D6lqez1nk_aem_2rbDvqripHv0ls4O5Z_zHQ&h=AT0Lsm7hKog3EAa6qLXbBSxIyxnly9lQqn3cmyrZJSSah3ehQj0HKzFv46mqMgH7hvFFhuKS21W-KklXsR6ez-2ANjd1TE9fkknaQTo7IbynLI0vq6xrUtVpuA8BpXXQJoCRhOTowpnH4JVXvCI6&__tn__=-UK-R&c[0]=AT0f-0ZGm8UCtfblFwhGxcttHAnzWvuymAw6oxYDoj4eXnDrOhjITDXSCq3nWpkyHBpVRDIgx5pl2Dy-GiWilXrN3T7SnE8HgPjt_ued5brm2H1R-_pAVTsa_ea0JHIliDwfkt1rxOyiUQEFGni-nkIDc7KEQoSIg-c2za8pLyzQ6lA",
"https://m.facebook.com/l.php?u=https%3A%2F%2Facademicpros.site%2Fa-child-called-me-claiming-i-am-her-aunt-what-she-asked-for-made-me-go-pale%2F%3Ffbclid%3DIwZXh0bgNhZW0CMTAAAR3yG27GTxBmLa0i16frtMlIQLoAMqHqVZrFYScUEoHlMq6F70D6lqez1nk_aem_2rbDvqripHv0ls4O5Z_zHQ&h=AT0Lsm7hKog3EAa6qLXbBSxIyxnly9lQqn3cmyrZJSSah3ehQj0HKzFv46mqMgH7hvFFhuKS21W-KklXsR6ez-2ANjd1TE9fkknaQTo7IbynLI0vq6xrUtVpuA8BpXXQJoCRhOTowpnH4JVXvCI6&__tn__=-UK-R&c[0]=AT0f-0ZGm8UCtfblFwhGxcttHAnzWvuymAw6oxYDoj4eXnDrOhjITDXSCq3nWpkyHBpVRDIgx5pl2Dy-GiWilXrN3T7SnE8HgPjt_ued5brm2H1R-_pAVTsa_ea0JHIliDwfkt1rxOyiUQEFGni-nkIDc7KEQoSIg-c2za8pLyzQ6lA",
"https://m.facebook.com/l.php?u=https%3A%2F%2Facademicpros.site%2Fwhen-late-night-talk-show-goes-wrong-viral-in-zoom%2F%3Ffbclid%3DIwZXh0bgNhZW0CMTAAAR3Bz4ftV6LcoJTltD21-3QaZuiQyCv-XiNtnPDdocHNcUMYyTw1Cj75I8s_aem_31h0z8uzj9XD-rPnte3vYw&h=AT0n33w9kZTzkd5Y5tbONPvuA8FTTweYpaHir59-GDqlPqDBwpX6UmoXZ0FnrrW6ZPY4GUJmRnYZ8nd57lh-6AQRWTp7GY5GMlDLd_SRx-BJ5r0igC7xgF1YMyf64idi08m0X4FxMMTItyEipf0X&__tn__=-UK-R&c[0]=AT0f-0ZGm8UCtfblFwhGxcttHAnzWvuymAw6oxYDoj4eXnDrOhjITDXSCq3nWpkyHBpVRDIgx5pl2Dy-GiWilXrN3T7SnE8HgPjt_ued5brm2H1R-_pAVTsa_ea0JHIliDwfkt1rxOyiUQEFGni-nkIDc7KEQoSIg-c2za8pLyzQ6lA",
"https://m.facebook.com/l.php?u=https%3A%2F%2Facademicpros.site%2Fthis-actually-happened-on-live-tv-weather-forecast-viral-in-zoom%2F%3Ffbclid%3DIwZXh0bgNhZW0CMTAAAR3yG27GTxBmLa0i16frtMlIQLoAMqHqVZrFYScUEoHlMq6F70D6lqez1nk_aem_2rbDvqripHv0ls4O5Z_zHQ&h=AT1fC1pSOZiN9QQbyedX5EYFOux2W_efHfwfSTLBlDaRcvWo_oqbVHfsC1tAFvkaIgiO1h9ddvc4bZD6UV4ARcieg78zvqQrXhpq35CeWQCK_nEaSwTkNHSYODj_lDVg9WoSM7qhTo5JuiG0Q0rH&__tn__=-UK-R&c[0]=AT0f-0ZGm8UCtfblFwhGxcttHAnzWvuymAw6oxYDoj4eXnDrOhjITDXSCq3nWpkyHBpVRDIgx5pl2Dy-GiWilXrN3T7SnE8HgPjt_ued5brm2H1R-_pAVTsa_ea0JHIliDwfkt1rxOyiUQEFGni-nkIDc7KEQoSIg-c2za8pLyzQ6lA",
"https://m.facebook.com/l.php?u=https%3A%2F%2Facademicpros.site%2Fweather-presenter-goes-crazy-live-on-the-air-viral-in-zoom%2F%3Ffbclid%3DIwZXh0bgNhZW0CMTAAAR1EoGIle5VxGJ9WCZCJg1Usd1CywF5n1dolZZbQXk2Ou3isHBDMXJIFkh4_aem_ZZ4Wep22ABzZ8HTAkkUrKg&h=AT0VnHoZHXiY7t2nkrcUXNeYkZhZMgljgJD_yG95_jPRU_nK9n91uFtzpFgYqNC1z62DYuYpkOjptisnDzD5xS6RF-ZA518Ng5SdRCjEoBDbdnbzDcVBCM0QFhDfZNrMkmN9dJk9AO6fnbIOSgdA&__tn__=-UK-R&c[0]=AT0f-0ZGm8UCtfblFwhGxcttHAnzWvuymAw6oxYDoj4eXnDrOhjITDXSCq3nWpkyHBpVRDIgx5pl2Dy-GiWilXrN3T7SnE8HgPjt_ued5brm2H1R-_pAVTsa_ea0JHIliDwfkt1rxOyiUQEFGni-nkIDc7KEQoSIg-c2za8pLyzQ6lA",
"https://m.facebook.com/l.php?u=https%3A%2F%2Facademicpros.site%2Fmarisa-ramirez-44-shows-off-more-than-she-wanted-to-viral-in-zoom%2F%3Ffbclid%3DIwZXh0bgNhZW0CMTAAAR3yG27GTxBmLa0i16frtMlIQLoAMqHqVZrFYScUEoHlMq6F70D6lqez1nk_aem_2rbDvqripHv0ls4O5Z_zHQ&h=AT09cFhPTwE0fMJnmHTrZ4DdLeMq256yJPccd1i0icIHzVPSsduIlp8_Z_1tymX3Wl7EI7prMAa0Y1svGJE3jOmqFhyCxUIQYnhBeyRZ8b3A7xbt1SseY_M8Z-Ibo5BtFpCNsonQOthXDVi_8Y_c&__tn__=-UK-R&c[0]=AT0f-0ZGm8UCtfblFwhGxcttHAnzWvuymAw6oxYDoj4eXnDrOhjITDXSCq3nWpkyHBpVRDIgx5pl2Dy-GiWilXrN3T7SnE8HgPjt_ued5brm2H1R-_pAVTsa_ea0JHIliDwfkt1rxOyiUQEFGni-nkIDc7KEQoSIg-c2za8pLyzQ6lA",
"https://m.facebook.com/l.php?u=https%3A%2F%2Facademicpros.site%2Fmechanic-attempts-to-cheat-me-and-quickly-learns-a-lasting-lesson-viral-in-zoom-2%2F%3Ffbclid%3DIwZXh0bgNhZW0CMTAAAR0RuyJBLL_828obU7hmJCj6UHPoR4i9b947MtDbVNGmQ_qFXZKABYzYnlU_aem_olp6iYyB1bQ6_qiK9-K5fg&h=AT28aBuSjUxzzOtIDiRvKLFjMrcAZ23jVNcl-2lEjRJjWwKdE8CTkXndBCKtaWDI8nlll8tj9gSWZy4yA8tGNo21qN1oZAZF7jv0sZK3p2xltHuOow1qWCcVu4uHVTQmjf9lbh1kNx8ZUr3FVMyC&__tn__=-UK-R&c[0]=AT0f-0ZGm8UCtfblFwhGxcttHAnzWvuymAw6oxYDoj4eXnDrOhjITDXSCq3nWpkyHBpVRDIgx5pl2Dy-GiWilXrN3T7SnE8HgPjt_ued5brm2H1R-_pAVTsa_ea0JHIliDwfkt1rxOyiUQEFGni-nkIDc7KEQoSIg-c2za8pLyzQ6lA",
"https://m.facebook.com/l.php?u=https%3A%2F%2Facademicpros.site%2Fmy-wife-left-us-calling-our-son-a-burden-10-years-later-she-showed-up-and-destroyed-my-life-again-viral-in-zoom%2F%3Ffbclid%3DIwZXh0bgNhZW0CMTAAAR3Bz4ftV6LcoJTltD21-3QaZuiQyCv-XiNtnPDdocHNcUMYyTw1Cj75I8s_aem_31h0z8uzj9XD-rPnte3vYw&h=AT3N_o79SsapMMG8BeGpWTqGBqk--ZO6_1VXWQjlVDFYKCIPOH3g-mqIGToSidLNnTVNqvTu3pLIPIDC3culOGmSNOLKsMaNZwJ0CPhSAu8j6JFDE7pGr5ydGWVZaDerYs4TlL5aiqx5HQmiPSEf&__tn__=-UK-R&c[0]=AT0f-0ZGm8UCtfblFwhGxcttHAnzWvuymAw6oxYDoj4eXnDrOhjITDXSCq3nWpkyHBpVRDIgx5pl2Dy-GiWilXrN3T7SnE8HgPjt_ued5brm2H1R-_pAVTsa_ea0JHIliDwfkt1rxOyiUQEFGni-nkIDc7KEQoSIg-c2za8pLyzQ6lA",
"https://m.facebook.com/l.php?u=https%3A%2F%2Facademicpros.site%2Fa-4-year-old-girl-disappeared-from-the-yard-of-her-house-one-morning-viral-in-zoom%2F%3Ffbclid%3DIwZXh0bgNhZW0CMTAAAR1wpCptbc1XPptLns20qfVRAFxgGaKIN1Psriua0e9LmHsPwlQSkpVttqM_aem_JcQ9ehMoehEYlN17NMGqeg&h=AT08zNrWpnDKBJsrKGRdLC0XMvxgOm0zF5rkBEV8SxhFeQDIFDQeTCuUa12edQ8Twska9Ke2lKWxmsSjHmFBCXNHcj1QA3MWNFgxTacD8zSK49ukHo_jIrC0-mlI_-vvZdLWdGh93-O4ZCqvux95&__tn__=-UK-R&c[0]=AT0f-0ZGm8UCtfblFwhGxcttHAnzWvuymAw6oxYDoj4eXnDrOhjITDXSCq3nWpkyHBpVRDIgx5pl2Dy-GiWilXrN3T7SnE8HgPjt_ued5brm2H1R-_pAVTsa_ea0JHIliDwfkt1rxOyiUQEFGni-nkIDc7KEQoSIg-c2za8pLyzQ6lA",
"https://m.facebook.com/l.php?u=https%3A%2F%2Facademicpros.site%2Fman-files-for-divorce-immediately-after-seeing-his-newborn-child-story-of-the-day-viral-in-zoom%2F%3Ffbclid%3DIwZXh0bgNhZW0CMTAAAR1iunZVuZj1cO2ba00fQZeSmeJdDsq5D9TPtFFBdXUdtozDbvQZ3fKvDwE_aem_25p5yafbK2JCXGN4qTvZkA&h=AT1WkrwX9ZuZWvmM0KiuEnT5l1yHZprBdzKUbz5sQ-DCOIgRNSYkQPAn6YApR4Q9mLFJh9GMPSy-Wakh-OcoDGpZc5VKHGIRWtiPy-xQ5h2yV2rTXtR0Rm-elVUIWAZBcvPhUUNB5lnjwhJVV64i&__tn__=-UK-R&c[0]=AT0f-0ZGm8UCtfblFwhGxcttHAnzWvuymAw6oxYDoj4eXnDrOhjITDXSCq3nWpkyHBpVRDIgx5pl2Dy-GiWilXrN3T7SnE8HgPjt_ued5brm2H1R-_pAVTsa_ea0JHIliDwfkt1rxOyiUQEFGni-nkIDc7KEQoSIg-c2za8pLyzQ6lA",
"https://m.facebook.com/l.php?u=https%3A%2F%2Facademicpros.site%2Four-daughter-demanded-a-down-payment-for-a-house-as-an-18th-birthday-gift-we-taught-her-a-valuable-lesson-july-23-2024-by-sage-leave-a-comment%2F%3Ffbclid%3DIwZXh0bgNhZW0CMTAAAR0RuyJBLL_828obU7hmJCj6UHPoR4i9b947MtDbVNGmQ_qFXZKABYzYnlU_aem_olp6iYyB1bQ6_qiK9-K5fg&h=AT3z12n-ydNQrh1-svk5hXqtAT8beqZSIuTcO7yLVoXuFUnNTZV61M4gjIprG0CL4hnVqkRCDyWwdrDo8r6a-0pXcNQpq-Av1ybx5DRRNIngdd3LpaZciAUnDT5W35_ny23QWv6vt9kvDcWOoiv1&__tn__=-UK-R&c[0]=AT0f-0ZGm8UCtfblFwhGxcttHAnzWvuymAw6oxYDoj4eXnDrOhjITDXSCq3nWpkyHBpVRDIgx5pl2Dy-GiWilXrN3T7SnE8HgPjt_ued5brm2H1R-_pAVTsa_ea0JHIliDwfkt1rxOyiUQEFGni-nkIDc7KEQoSIg-c2za8pLyzQ6lA",
"https://m.facebook.com/l.php?u=https%3A%2F%2Facademicpros.site%2Fjenny-a-proud-cowgirl-wanted-to-surprise-her-husband-mike-with-a-fun-picture-but-viral-in-zoom%2F%3Ffbclid%3DIwZXh0bgNhZW0CMTAAAR1wpCptbc1XPptLns20qfVRAFxgGaKIN1Psriua0e9LmHsPwlQSkpVttqM_aem_JcQ9ehMoehEYlN17NMGqeg&h=AT3bfqUFIHVZCZCPEgawcUiYv-_5n4vWo6znCHEBGMYO9iER735xvCy0aF1xbG3eHDwb-5OAG_Q6z7PmgPwfuK-7t9OjrZFXAu-CG-0jivAMUkhBlVSVJx-NJdA8Vm7T6_PQ8Mxuaz2s7cXNwhgU&__tn__=-UK-R&c[0]=AT0f-0ZGm8UCtfblFwhGxcttHAnzWvuymAw6oxYDoj4eXnDrOhjITDXSCq3nWpkyHBpVRDIgx5pl2Dy-GiWilXrN3T7SnE8HgPjt_ued5brm2H1R-_pAVTsa_ea0JHIliDwfkt1rxOyiUQEFGni-nkIDc7KEQoSIg-c2za8pLyzQ6lA",
"https://m.facebook.com/l.php?u=https%3A%2F%2Facademicpros.site%2Fmy-husband-left-me-and-our-toddler-in-economy-class-and-went-to-business-himself-he-regretted-it-so-much-in-a-few-days-viral-in-zoom%2F%3Ffbclid%3DIwZXh0bgNhZW0CMTAAAR0DHQGoDhvmHhsPdNLh5_W2Zm2zTp3GeWhZZkWVDiw7lRq2KfdNQbK9gNU_aem_y4hSbnYA1_n8S02EE61QFw&h=AT3-AMfvsaN6YanWH8P0FpRBvCMM9uSshPwVPOy68Y98KFeXKpQxL9ciXn93pJQMRfI7m03_EYJwjWNkjM2xxBoeE0U7WvgPaBiPCsoPbY-vipLkQ9eKTjVX_3hV_kCcviGFOMRRDV6wYoasItQc&__tn__=-UK-R&c[0]=AT0f-0ZGm8UCtfblFwhGxcttHAnzWvuymAw6oxYDoj4eXnDrOhjITDXSCq3nWpkyHBpVRDIgx5pl2Dy-GiWilXrN3T7SnE8HgPjt_ued5brm2H1R-_pAVTsa_ea0JHIliDwfkt1rxOyiUQEFGni-nkIDc7KEQoSIg-c2za8pLyzQ6lA",
"https://m.facebook.com/l.php?u=https%3A%2F%2Facademicpros.site%2Fi-booked-a-2000-rental-for-a-group-trip-but-no-one-paid-me-back-their-share-of-the-cost-they-didnt-get-away-with-it-viral-in-zoom%2F%3Ffbclid%3DIwZXh0bgNhZW0CMTAAAR1wpCptbc1XPptLns20qfVRAFxgGaKIN1Psriua0e9LmHsPwlQSkpVttqM_aem_JcQ9ehMoehEYlN17NMGqeg&h=AT2xFPrQpSb9mtJo30Xz5ljRKUu0yF5xSuw9tYwDOzSr9-B5AXOfSyDQpyrdi_rtHMjcJoi-rC4kV7k8ZLDvAJCJXbXuqu9jC8fW_F2m4ZXwxl8SjlM9aud0ZD-PkbLDt1HBBmvNswUausjBwn-R&__tn__=-UK-R&c[0]=AT0f-0ZGm8UCtfblFwhGxcttHAnzWvuymAw6oxYDoj4eXnDrOhjITDXSCq3nWpkyHBpVRDIgx5pl2Dy-GiWilXrN3T7SnE8HgPjt_ued5brm2H1R-_pAVTsa_ea0JHIliDwfkt1rxOyiUQEFGni-nkIDc7KEQoSIg-c2za8pLyzQ6lA",
"https://m.facebook.com/l.php?u=https%3A%2F%2Facademicpros.site%2Fmy-mil-ruined-my-wedding-dress-during-the-ceremony-but-karma-hit-her-back-immediately-viral-in-zoom%2F%3Ffbclid%3DIwZXh0bgNhZW0CMTAAAR3yG27GTxBmLa0i16frtMlIQLoAMqHqVZrFYScUEoHlMq6F70D6lqez1nk_aem_2rbDvqripHv0ls4O5Z_zHQ&h=AT1G06Hnzp4uxxaNj0rcpgNvg1z-ylWEtU5wWlC0miZ6KH18I9FVn6F3P-_x8jBss8FThE-HP2UUp8msk0Wh8buo8Vtd5LiIgYd5NjQf-G_vCfFP1f0grWJzDZRT9rF5hJlFMW7G7ZjWL8Y_nUzK&__tn__=-UK-R&c[0]=AT0f-0ZGm8UCtfblFwhGxcttHAnzWvuymAw6oxYDoj4eXnDrOhjITDXSCq3nWpkyHBpVRDIgx5pl2Dy-GiWilXrN3T7SnE8HgPjt_ued5brm2H1R-_pAVTsa_ea0JHIliDwfkt1rxOyiUQEFGni-nkIDc7KEQoSIg-c2za8pLyzQ6lA",
"https://m.facebook.com/l.php?u=https%3A%2F%2Facademicpros.site%2Fwoman-sends-list-of-rules-to-wedding-guests-soon-a-lot-of-them-start-cancelling-viral-in-zoom%2F%3Ffbclid%3DIwZXh0bgNhZW0CMTAAAR1EixuMDmP3FM9rC2rABhcAJ4eyXICyEKdthPpJ8QAPijpAGI3xUUcVaVc_aem__XquFRVki2rM3hg55bD5Pw&h=AT2y1xCK8ow87mZBzWO-xm6gD8PCL9ooMAE8yohSBMvA-RO2RPGUb_k_oWv7IgmiWSgeDxKmK2pCIKX2PQ5QT4EpEF3cXNicTZeyVSYmgpgtcj_xzXL6FxKMuagJd7CdVdL6j-0aJ2wRas6eYcgO&__tn__=-UK-R&c[0]=AT0f-0ZGm8UCtfblFwhGxcttHAnzWvuymAw6oxYDoj4eXnDrOhjITDXSCq3nWpkyHBpVRDIgx5pl2Dy-GiWilXrN3T7SnE8HgPjt_ued5brm2H1R-_pAVTsa_ea0JHIliDwfkt1rxOyiUQEFGni-nkIDc7KEQoSIg-c2za8pLyzQ6lA",
"https://m.facebook.com/l.php?u=https%3A%2F%2Facademicpros.site%2Fhusband-warned-he-would-be-unfaithful-if-i-refused-to-dress-up-and-apply-makeup-at-home-fate-handled-the-situation-viral-in-zoom%2F%3Ffbclid%3DIwZXh0bgNhZW0CMTAAAR1EixuMDmP3FM9rC2rABhcAJ4eyXICyEKdthPpJ8QAPijpAGI3xUUcVaVc_aem__XquFRVki2rM3hg55bD5Pw&h=AT3JC2Fl4PMlMJ2LORfnV5qqLK_B3nPDN1XkUV66vcEf4O4QggZJM0qVs1tPNaJX0MgpGScDg2ix2puCpukGqwxQUljfvRkSXhUFM4Yqar-kGDaQ8qOfGn2PQjubRJa-DSJFDfGNdVEJtXk2ZgG2&__tn__=-UK-R&c[0]=AT0f-0ZGm8UCtfblFwhGxcttHAnzWvuymAw6oxYDoj4eXnDrOhjITDXSCq3nWpkyHBpVRDIgx5pl2Dy-GiWilXrN3T7SnE8HgPjt_ued5brm2H1R-_pAVTsa_ea0JHIliDwfkt1rxOyiUQEFGni-nkIDc7KEQoSIg-c2za8pLyzQ6lA",
"https://m.facebook.com/l.php?u=https%3A%2F%2Facademicpros.site%2Fmil-changed-my-babys-name-while-i-was-in-the-er-after-giving-birth-i-did-not-let-it-slide-viral-in-zoom%2F%3Ffbclid%3DIwZXh0bgNhZW0CMTAAAR1EixuMDmP3FM9rC2rABhcAJ4eyXICyEKdthPpJ8QAPijpAGI3xUUcVaVc_aem__XquFRVki2rM3hg55bD5Pw&h=AT218_rkUw9euuvrlod0_XmCE_0pNH3GtggQwHJ2S76gXr9rjLxuvE_d6hsjWsTBS30H5NBUT-5XhViJQ9xJIizXiVynQDEnT7FBSMdmqGZ3QsNVL5e0mzQN8cNf0PC_tPxRd9kfhMqG0tsWjUBa&__tn__=-UK-R&c[0]=AT0f-0ZGm8UCtfblFwhGxcttHAnzWvuymAw6oxYDoj4eXnDrOhjITDXSCq3nWpkyHBpVRDIgx5pl2Dy-GiWilXrN3T7SnE8HgPjt_ued5brm2H1R-_pAVTsa_ea0JHIliDwfkt1rxOyiUQEFGni-nkIDc7KEQoSIg-c2za8pLyzQ6lA",
"https://m.facebook.com/l.php?u=https%3A%2F%2Facademicpros.site%2Fdiscovering-the-hidden-beauty-of-an-abandoned-house-viral-in-zoom%2F%3Ffbclid%3DIwZXh0bgNhZW0CMTAAAR0RuyJBLL_828obU7hmJCj6UHPoR4i9b947MtDbVNGmQ_qFXZKABYzYnlU_aem_olp6iYyB1bQ6_qiK9-K5fg&h=AT3fMUL1imTfq3cCHJiybSA7FlsoDzL-Bq0yAkBRtcsP8gfZLqCB5QM4cO87z_zxYo4Qnmeaq2_ePCC9L8hqKxANnn44nxzGf3t9t3zlxZNkww3bieXcFSHLtLGujuLAjb61sOZJIJ5gyOkN8FxQ&__tn__=-UK-R&c[0]=AT0f-0ZGm8UCtfblFwhGxcttHAnzWvuymAw6oxYDoj4eXnDrOhjITDXSCq3nWpkyHBpVRDIgx5pl2Dy-GiWilXrN3T7SnE8HgPjt_ued5brm2H1R-_pAVTsa_ea0JHIliDwfkt1rxOyiUQEFGni-nkIDc7KEQoSIg-c2za8pLyzQ6lA",
"https://m.facebook.com/l.php?u=https%3A%2F%2Facademicpros.site%2Fi-believed-i-was-experiencing-a-fairy-tale-with-my-ideal-fiance-but-i-uncovered-a-horror-hidden-beneath-his-mattress-viral-in-zoom%2F%3Ffbclid%3DIwZXh0bgNhZW0CMTAAAR3yG27GTxBmLa0i16frtMlIQLoAMqHqVZrFYScUEoHlMq6F70D6lqez1nk_aem_2rbDvqripHv0ls4O5Z_zHQ&h=AT3ahoIHtcAQsgQ9Me0OaGhnrZZhJJHFbgWkzGKI8s_xw8FNo3xE4kNkxWLX7skWj02zYv1UVW8JhTFTu5g7pQc9O3N4bv36oo0CjaJO4NzAjWp06tdQAqdMr8qcBwbGv3ACFW7evhugdhfXzshN&__tn__=-UK-R&c[0]=AT0f-0ZGm8UCtfblFwhGxcttHAnzWvuymAw6oxYDoj4eXnDrOhjITDXSCq3nWpkyHBpVRDIgx5pl2Dy-GiWilXrN3T7SnE8HgPjt_ued5brm2H1R-_pAVTsa_ea0JHIliDwfkt1rxOyiUQEFGni-nkIDc7KEQoSIg-c2za8pLyzQ6lA",
"https://m.facebook.com/l.php?u=https%3A%2F%2Facademicpros.site%2Fi-sought-retribution-against-my-unfaithful-fiance-by-leaving-surprises-in-his-house-before-departing-now-hes-desperately-texting-me-to-make-it-stop%2F%3Ffbclid%3DIwZXh0bgNhZW0CMTAAAR1iunZVuZj1cO2ba00fQZeSmeJdDsq5D9TPtFFBdXUdtozDbvQZ3fKvDwE_aem_25p5yafbK2JCXGN4qTvZkA&h=AT34vig-_DoGV3SBRa0VEnOJOfMqUbNv7U3fFuo-8h_JDFSPS3wZFPBpOeeePHf0Tq0yDxWFYhyV_D-JzGDtNMQFIDwwy6Fjk-posd7C_JnKCnwa0YVGUeZwlrTt4QzKmtSFFvCOxZzZdXb4h5_n&__tn__=-UK-R&c[0]=AT0f-0ZGm8UCtfblFwhGxcttHAnzWvuymAw6oxYDoj4eXnDrOhjITDXSCq3nWpkyHBpVRDIgx5pl2Dy-GiWilXrN3T7SnE8HgPjt_ued5brm2H1R-_pAVTsa_ea0JHIliDwfkt1rxOyiUQEFGni-nkIDc7KEQoSIg-c2za8pLyzQ6lA",
"https://m.facebook.com/l.php?u=https%3A%2F%2Facademicpros.site%2Fmy-wifes-closest-confidante-slandered-her-behind-her-back-so-i-orchestrated-an-elaborate-retaliation-viral-in-zoom%2F%3Ffbclid%3DIwZXh0bgNhZW0CMTAAAR3Bz4ftV6LcoJTltD21-3QaZuiQyCv-XiNtnPDdocHNcUMYyTw1Cj75I8s_aem_31h0z8uzj9XD-rPnte3vYw&h=AT3JIhMuyU_KGkVMeAhnFZ_GrBwJ3eaP8yZaiZqnlsdX-rVoLliIVN5ecQ7WsOhrzWeuCnkbZBaxGr5TLYxF38e_HsW0kanPxavI5ejfwuvceQ4EdeEJWhVnEF-daKtHX-ppou1KmBQxKXyzTIrj&__tn__=-UK-R&c[0]=AT0f-0ZGm8UCtfblFwhGxcttHAnzWvuymAw6oxYDoj4eXnDrOhjITDXSCq3nWpkyHBpVRDIgx5pl2Dy-GiWilXrN3T7SnE8HgPjt_ued5brm2H1R-_pAVTsa_ea0JHIliDwfkt1rxOyiUQEFGni-nkIDc7KEQoSIg-c2za8pLyzQ6lA",
"https://m.facebook.com/l.php?u=https%3A%2F%2Facademicpros.site%2Fstorm-stranded-my-boyfriends-family-and-me-at-gas-station-unveiling-secrets-that-changed-my-life-forever-story-of-the-day-viral-in-zoom%2F%3Ffbclid%3DIwZXh0bgNhZW0CMTAAAR1iunZVuZj1cO2ba00fQZeSmeJdDsq5D9TPtFFBdXUdtozDbvQZ3fKvDwE_aem_25p5yafbK2JCXGN4qTvZkA&h=AT0MNrXmpnq-STtkLgtRro6JVzO13Nty6jibFCIvKNGk8k4qi0WGuQx5IWXtjV6_6KqJoIdKoFWTbHNLCGFYb11y073Hz9BOieDGpu9E19AHQ0F7OoQR1_8E5lGOSJ8_NI0bdZRbo5H2MB1phdVK&__tn__=-UK-R&c[0]=AT0f-0ZGm8UCtfblFwhGxcttHAnzWvuymAw6oxYDoj4eXnDrOhjITDXSCq3nWpkyHBpVRDIgx5pl2Dy-GiWilXrN3T7SnE8HgPjt_ued5brm2H1R-_pAVTsa_ea0JHIliDwfkt1rxOyiUQEFGni-nkIDc7KEQoSIg-c2za8pLyzQ6lA",
"https://m.facebook.com/l.php?u=https%3A%2F%2Facademicpros.site%2Fbridget-moynahan-52-shows-off-more-than-she-wanted-to-viral-in-zoom%2F%3Ffbclid%3DIwZXh0bgNhZW0CMTAAAR398mQ9MGEkzUqHsHjd6ArvMkTbE0pPOX1p6CQMMfV-LacMmGtdElEBL5o_aem_Z-fM9GgfymUk6mPvR2olZA&h=AT2gyjcr41IymCXjtdlsfsUmvwF0rkg6cZH0FxkmAkEzPMH3XbEnj-eiL6k16ORx3UtiOBXsC2PTj_uhROpx-Tznva_vDWj7unCj97nDlp5a61xD4PR-luDlrh3XRCUaUtr3DWp6_5lXXeS1Eh8d&__tn__=-UK-R&c[0]=AT0f-0ZGm8UCtfblFwhGxcttHAnzWvuymAw6oxYDoj4eXnDrOhjITDXSCq3nWpkyHBpVRDIgx5pl2Dy-GiWilXrN3T7SnE8HgPjt_ued5brm2H1R-_pAVTsa_ea0JHIliDwfkt1rxOyiUQEFGni-nkIDc7KEQoSIg-c2za8pLyzQ6lA",
"https://m.facebook.com/l.php?u=https%3A%2F%2Facademicpros.site%2Fnobody-caught-this-wardrobe-blooper-in-two-and-a-half-men-until-years-later-viral-in-zoom%2F%3Ffbclid%3DIwZXh0bgNhZW0CMTAAAR1iunZVuZj1cO2ba00fQZeSmeJdDsq5D9TPtFFBdXUdtozDbvQZ3fKvDwE_aem_25p5yafbK2JCXGN4qTvZkA&h=AT3TpbWMbOtHDg8ZbRPMvg0kKm9_-pnTRT6od-8l0159uN6CUcYG0bc1RMOx8IfIx-aMmBtHS2mdBxkFMvE0rodiftIexUMZ5kTdI3PbGcNh54XH6ZSZaneTuon0EdvOgXDvESvSkUkbDezbgA7V&__tn__=-UK-R&c[0]=AT0f-0ZGm8UCtfblFwhGxcttHAnzWvuymAw6oxYDoj4eXnDrOhjITDXSCq3nWpkyHBpVRDIgx5pl2Dy-GiWilXrN3T7SnE8HgPjt_ued5brm2H1R-_pAVTsa_ea0JHIliDwfkt1rxOyiUQEFGni-nkIDc7KEQoSIg-c2za8pLyzQ6lA",
"https://m.facebook.com/l.php?u=https%3A%2F%2Facademicpros.site%2Ftry-not-to-gasp-when-you-see-greg-gutfelds-wife-viral-in-zoom%2F%3Ffbclid%3DIwZXh0bgNhZW0CMTAAAR1iunZVuZj1cO2ba00fQZeSmeJdDsq5D9TPtFFBdXUdtozDbvQZ3fKvDwE_aem_25p5yafbK2JCXGN4qTvZkA&h=AT3z4VUkT78fS5nxjAHvqOfzG98UehazLUwS0RWipvj9cAV32gNky--4CHckh8fJRbgs4mM1OHozgv81ex7_S2Or-LD-oo6UyhTLlnOUjMkrTIYiyI8pd-7MkUj-PPNFn7gxovg_RZgec2wZ376s&__tn__=-UK-R&c[0]=AT0f-0ZGm8UCtfblFwhGxcttHAnzWvuymAw6oxYDoj4eXnDrOhjITDXSCq3nWpkyHBpVRDIgx5pl2Dy-GiWilXrN3T7SnE8HgPjt_ued5brm2H1R-_pAVTsa_ea0JHIliDwfkt1rxOyiUQEFGni-nkIDc7KEQoSIg-c2za8pLyzQ6lA",
"https://m.facebook.com/l.php?u=https%3A%2F%2Facademicpros.site%2Fjennifer-esposito-left-nothing-to-the-imagination-try-not-to-gasp-viral-in-zoom%2F%3Ffbclid%3DIwZXh0bgNhZW0CMTAAAR10IodMNbvsxULjqVcCPIv-6w-N9tLAqLHQEFSZ-k-ijHqkPFcm_FdX7aY_aem__Uf1Opd82wJki-mq9jzogg&h=AT06Q91tM9TsL_0rbce39fc1qMqQEYCf8v0Cujj3Hn8rCQ-p6WJmLQcO71qOFnToo-rg1jK8-s7tf9iL4ZeVXa-P2HtZDD-GoV8ROaI_hdg2kRFkGZaFU-aM6fjUBeyBe0L8SKywvFdqKrrkbOs7&__tn__=-UK-R&c[0]=AT0f-0ZGm8UCtfblFwhGxcttHAnzWvuymAw6oxYDoj4eXnDrOhjITDXSCq3nWpkyHBpVRDIgx5pl2Dy-GiWilXrN3T7SnE8HgPjt_ued5brm2H1R-_pAVTsa_ea0JHIliDwfkt1rxOyiUQEFGni-nkIDc7KEQoSIg-c2za8pLyzQ6lA",
"https://m.facebook.com/l.php?u=https%3A%2F%2Facademicpros.site%2Fshe-forgot-she-was-on-a-live-tv-and-did-this-mistake-viral-in-zoom%2F%3Ffbclid%3DIwZXh0bgNhZW0CMTAAAR1iunZVuZj1cO2ba00fQZeSmeJdDsq5D9TPtFFBdXUdtozDbvQZ3fKvDwE_aem_25p5yafbK2JCXGN4qTvZkA&h=AT32CtNWfxLnSKAOQAh74apNsnkCk9UJlXRRa6ApgXKDyMBFggzypu1lppiDhlIo7UX0RcK_l6TksgHT7mUZuWPTYXHkpMSqLMYZvl_PFf5sBDbILWVdFRxemaOrihZ8wvHflgR7C17ejmRh-r0X&__tn__=-UK-R&c[0]=AT0f-0ZGm8UCtfblFwhGxcttHAnzWvuymAw6oxYDoj4eXnDrOhjITDXSCq3nWpkyHBpVRDIgx5pl2Dy-GiWilXrN3T7SnE8HgPjt_ued5brm2H1R-_pAVTsa_ea0JHIliDwfkt1rxOyiUQEFGni-nkIDc7KEQoSIg-c2za8pLyzQ6lA",
"https://m.facebook.com/l.php?u=https%3A%2F%2Facademicpros.site%2Ftry-not-to-gasp-lily-from-att-left-nothing-to-the-imagination-viral-in-zoom%2F%3Ffbclid%3DIwZXh0bgNhZW0CMTAAAR0DHQGoDhvmHhsPdNLh5_W2Zm2zTp3GeWhZZkWVDiw7lRq2KfdNQbK9gNU_aem_y4hSbnYA1_n8S02EE61QFw&h=AT1pBollK3IktD60RJdWn_sH8bNN-1H82LyHcWv4x27Apvi6olB8A8ZdtkhKIxfyPKmUU5r2tShERoUsNxClMNw1lMLs2XyEN6n_OLGyps86hWsQH-Py1RGYvyFPgIkWLfnB-tc4k76tIq05dKhM&__tn__=-UK-R&c[0]=AT0f-0ZGm8UCtfblFwhGxcttHAnzWvuymAw6oxYDoj4eXnDrOhjITDXSCq3nWpkyHBpVRDIgx5pl2Dy-GiWilXrN3T7SnE8HgPjt_ued5brm2H1R-_pAVTsa_ea0JHIliDwfkt1rxOyiUQEFGni-nkIDc7KEQoSIg-c2za8pLyzQ6lA",
"https://m.facebook.com/l.php?u=https%3A%2F%2Facademicpros.site%2Fi-arranged-for-a-pretend-boyfriend-to-join-our-family-meal-it-became-the-most-rewarding-choice-i-ever-made-viral-in-zoom%2F%3Ffbclid%3DIwZXh0bgNhZW0CMTAAAR3yG27GTxBmLa0i16frtMlIQLoAMqHqVZrFYScUEoHlMq6F70D6lqez1nk_aem_2rbDvqripHv0ls4O5Z_zHQ&h=AT2FAQ-2e8k3-xIDvCDVtIWyhb1SK8ivWgNMePkCKeXN19V-sEAieGYl-wu8zAxDxIP-HmN-UmUsO3v-IlAL_APhnVkeyXWAy5pNXX8_yhUmvnGTz-4qJvuNmVcW-elYuxhpBbTOo7CzwkErujku&__tn__=-UK-R&c[0]=AT0f-0ZGm8UCtfblFwhGxcttHAnzWvuymAw6oxYDoj4eXnDrOhjITDXSCq3nWpkyHBpVRDIgx5pl2Dy-GiWilXrN3T7SnE8HgPjt_ued5brm2H1R-_pAVTsa_ea0JHIliDwfkt1rxOyiUQEFGni-nkIDc7KEQoSIg-c2za8pLyzQ6lA",
"https://m.facebook.com/l.php?u=https%3A%2F%2Facademicpros.site%2Fmy-son-found-a-girlfriend-online-but-i-decided-to-break-them-up-once-i-discovered-her-identity-viral-in-zoom%2F%3Ffbclid%3DIwZXh0bgNhZW0CMTAAAR0RuyJBLL_828obU7hmJCj6UHPoR4i9b947MtDbVNGmQ_qFXZKABYzYnlU_aem_olp6iYyB1bQ6_qiK9-K5fg&h=AT1gY7YKMQ1q77gS-c8SQn_0LpN1Dvb1bvTzOgALF-jQoSSJYlCmNCDXvO-mIhTcq4EFXcdF38wq5zI8skOskhGKBAalTXQ3Da5ASg4UV0rUYlAK1jU0Pw7tjwT-WCzJTKifr7orKttUs5zI2MVJ&__tn__=-UK-R&c[0]=AT0f-0ZGm8UCtfblFwhGxcttHAnzWvuymAw6oxYDoj4eXnDrOhjITDXSCq3nWpkyHBpVRDIgx5pl2Dy-GiWilXrN3T7SnE8HgPjt_ued5brm2H1R-_pAVTsa_ea0JHIliDwfkt1rxOyiUQEFGni-nkIDc7KEQoSIg-c2za8pLyzQ6lA",
"https://m.facebook.com/l.php?u=https%3A%2F%2Facademicpros.site%2Flady-spots-daughter-and-son-in-law-who-tragically-died-5-years-ago-and-follows-them-story-of-the-day-viral-in-zoom%2F%3Ffbclid%3DIwZXh0bgNhZW0CMTAAAR0RuyJBLL_828obU7hmJCj6UHPoR4i9b947MtDbVNGmQ_qFXZKABYzYnlU_aem_olp6iYyB1bQ6_qiK9-K5fg&h=AT3bzlEnBVYaE12K18QJ7apbY0vSeb4rnfIJ4Gojl2fJFdMFPPY2l-xrxepdV7Y6tHLtF7KAkc7fvCGR460kyBgt2k1MQMOQPnHg-bi0nIJCMiDGUE6dZLFbtChW9DJMrDx5SiGp9bbnK9-Rbt5H&__tn__=-UK-R&c[0]=AT0f-0ZGm8UCtfblFwhGxcttHAnzWvuymAw6oxYDoj4eXnDrOhjITDXSCq3nWpkyHBpVRDIgx5pl2Dy-GiWilXrN3T7SnE8HgPjt_ued5brm2H1R-_pAVTsa_ea0JHIliDwfkt1rxOyiUQEFGni-nkIDc7KEQoSIg-c2za8pLyzQ6lA"
    ]
}
