{
    "browser_testing":{
        "test_api":"https://jsonplaceholder.typicode.com/todos/1",
        "keyword_contain":"userId"
    },
    "random_range":"9:12",
    "work_urls":[
        "https://m.facebook.com/l.php?u=https%3A%2F%2Fhealthfromherbal.com%2Fpompous-neighbor-dominated-our-communal-garden-for-boisterous-festivities-my-clever-strategy-prompted-his-departure-in-just-a-month%2F%3Ffbclid%3DIwZXh0bgNhZW0CMTAAAR3wkRKK6OMxXRvXyu47k8QsBygeI-GGUNYt24x5ZQP05BfFElUEitonT2E_aem_yDNuUKYg7HjT6hZXgg3Npg&h=AT0em7q_-si9J-PRiyIHX1MfJnqGlCO4X18BUqXKeRvVw6-REDOvVgstNcs8HmOYCsHorAXbf7t83-zS21t5NuFeMOlbePfCLguC0OxYR9pg_iLMwYNRXTDOEhGWJvnoes-urqXkLG5c3RpPpzi8&__tn__=-UK-R&c[0]=AT3vP2KiX-dq7zSOgN06jemoSfhmlroROwvIhbKL3ZFBqFLKKUknoUlBG94pK-R1b8Nhf3zUXRzfYVuf2_CMR-8BJuLN4XYy9L46rncdZuAzJ9Bt-rZEVgo0YDecu374ZWD17aFxf8XPvtXdF4LQZBnthpcS3XN1uMkt41rRowXWYTI",
        "https://m.facebook.com/l.php?u=https%3A%2F%2Fhealthfromherbal.com%2Fupon-our-neighbors-residence-igniting-they-sheltered-with-us-their-revelation-within-our-abode-rendered-me-aghast%2F%3Ffbclid%3DIwZXh0bgNhZW0CMTAAAR1UMpr1Fh87p9JqH3l6wh4TQPd3yofSqdY1kxKlX9VtX9IEsEgghu7ISms_aem_gZlAog-QyEReje1x5FzoXQ&h=AT1vjgWE5auK0NlADXvFHZM7YGD9XyngDpy0l3or-fyPuUDhBu0_wj0tkwb8VzvEgKchJyXY9xGqXaLeKPwGmKQ65jRpWfIcn8OxoLrsb51Hk16RjLFGhSCoARp330x17SLECXzvvek6vPXbsJhn&__tn__=-UK-R&c[0]=AT3vP2KiX-dq7zSOgN06jemoSfhmlroROwvIhbKL3ZFBqFLKKUknoUlBG94pK-R1b8Nhf3zUXRzfYVuf2_CMR-8BJuLN4XYy9L46rncdZuAzJ9Bt-rZEVgo0YDecu374ZWD17aFxf8XPvtXdF4LQZBnthpcS3XN1uMkt41rRowXWYTI",
        "https://m.facebook.com/l.php?u=https%3A%2F%2Fhealthfromherbal.com%2Fwoman-discovers-engagement-ring-in-her-boyfriends-drawer-later-sees-it-on-her-friends-finger%2F%3Ffbclid%3DIwZXh0bgNhZW0CMTAAAR1MLg-HXmsQQv9v69UaY6dC-Cq7E8MZdX3lX9qzDYvqVo-spuo9mXii7pA_aem_WvMdEzrulfjwEfyU8BlSzQ&h=AT1eFcIqEClcktznlfdGo4ukgqdWMI65neUa7CfNcNEK4oXVLUen_4s9FYbuZ59u7G1Cn2m0eFGVZuIa7IIAnhlTAoe9T3ON4kJGfaiU2sGXaFxkwUCUPXjIjBOMgqFnNEk-8XJd1s_RVw3i6ZG-&__tn__=-UK-R&c[0]=AT3vP2KiX-dq7zSOgN06jemoSfhmlroROwvIhbKL3ZFBqFLKKUknoUlBG94pK-R1b8Nhf3zUXRzfYVuf2_CMR-8BJuLN4XYy9L46rncdZuAzJ9Bt-rZEVgo0YDecu374ZWD17aFxf8XPvtXdF4LQZBnthpcS3XN1uMkt41rRowXWYTI",
        "https://m.facebook.com/l.php?u=https%3A%2F%2Fhealthfromherbal.com%2Fi-noticed-my-husbands-gps-frequently-recorded-the-same-address-each-night-so-i-decided-to-covertly-investigate-it%2F%3Ffbclid%3DIwZXh0bgNhZW0CMTAAAR0kb22W_lfHUDIUJpmvcK0_xcTGNn5P8J_7A6lwrqnYRymixkF_gVFKoCA_aem_kRFJ19yerHfy4vlkkOMF8Q&h=AT2cYnCJL3yEGoAlxTpajVJ4g1XpdffYMdXLA0cofd8v1tkxRuQSrRA1yS3zrEAfUkdDH9v3qaztM-5lcm_dO5MDvk01JKWVcW0A-hqEJ58DYVw6PBTVgF5yBNDmwC05gjuVDT2EWeJkT8H-HN9h&__tn__=-UK-R&c[0]=AT3vP2KiX-dq7zSOgN06jemoSfhmlroROwvIhbKL3ZFBqFLKKUknoUlBG94pK-R1b8Nhf3zUXRzfYVuf2_CMR-8BJuLN4XYy9L46rncdZuAzJ9Bt-rZEVgo0YDecu374ZWD17aFxf8XPvtXdF4LQZBnthpcS3XN1uMkt41rRowXWYTI",
        "https://m.facebook.com/l.php?u=https%3A%2F%2Fhealthfromherbal.com%2Fi-orchestrated-a-surprise-birthday-celebration-for-my-wife-but-was-astonished-by-her-companions-identity%2F%3Ffbclid%3DIwZXh0bgNhZW0CMTAAAR0ulIwBelDLBvXOH7tqeODOst0AZX3sgioVHexExHpchO93SpJgYgingns_aem_lD1KYhr-Pa8-TYipTq1eTw&h=AT18FS4QeXXfFJrIVYO4kiigSD2f6NhJEyBXbzR5UUqlg5DzxrZyZptN4fTM4U6qPUig9CGIC95GdcK58gmgob85EYjjA-mScjn6kgcHclBi2d-0c5ZzRzWyyr-ttMfAo5Je2oCvGQfxXj0ytouB&__tn__=-UK-R&c[0]=AT3vP2KiX-dq7zSOgN06jemoSfhmlroROwvIhbKL3ZFBqFLKKUknoUlBG94pK-R1b8Nhf3zUXRzfYVuf2_CMR-8BJuLN4XYy9L46rncdZuAzJ9Bt-rZEVgo0YDecu374ZWD17aFxf8XPvtXdF4LQZBnthpcS3XN1uMkt41rRowXWYTI",
        "https://m.facebook.com/l.php?u=https%3A%2F%2Fhealthfromherbal.com%2Fmechanic-attempts-to-cheat-me-and-quickly-learns-a-lasting-lesson-2%2F%3Ffbclid%3DIwZXh0bgNhZW0CMTAAAR0NMZT2aNIbfA7BgROGHuSt1rQ91BtU0FkfcmRy668YrBbcbEBIbvhPpSs_aem_PIC3OMg-u85Pv7KFR-8eQQ&h=AT3i5t-QH0B1q984_Ve6lgBcal4_7uW4wZF8rsMboCLp4f5SD5sNwaqRwXW-mhQOGtlHGM_WDP3S72UMdBu08QK6Wx3qVc42Z9ThtoeuqPmXrWrGGJbas4_4EPVjS7JZ_rzmIDP65_IWU4gO84wL&__tn__=-UK-R&c[0]=AT3vP2KiX-dq7zSOgN06jemoSfhmlroROwvIhbKL3ZFBqFLKKUknoUlBG94pK-R1b8Nhf3zUXRzfYVuf2_CMR-8BJuLN4XYy9L46rncdZuAzJ9Bt-rZEVgo0YDecu374ZWD17aFxf8XPvtXdF4LQZBnthpcS3XN1uMkt41rRowXWYTI",
        "https://m.facebook.com/l.php?u=https%3A%2F%2Fhealthfromherbal.com%2Fman-decides-to-dna-test-all-his-kids-following-his-oldest-daughters-dna-test-revelation%2F%3Ffbclid%3DIwZXh0bgNhZW0CMTAAAR1RoB76CCl6EAitBNJjns5Phub8-5FY4sAsS_-ABs06J-mXMWcWVxCp39k_aem_TTv1Ut8WtpYoBBfGjA_Arg&h=AT2WasTH3vWXK-zFS2vTaldzirNPaq7nph_haIAQ0--PiAGb1yLaoYaaLP-55xXqp4fXbkdhy68yBcHY9IHusuQEtM_sSBjR4gU4txK6ZZhZ4yYIqCW3eCfoRc3bEniLR2duDmqW2PzzuPhLETIR&__tn__=-UK-R&c[0]=AT3vP2KiX-dq7zSOgN06jemoSfhmlroROwvIhbKL3ZFBqFLKKUknoUlBG94pK-R1b8Nhf3zUXRzfYVuf2_CMR-8BJuLN4XYy9L46rncdZuAzJ9Bt-rZEVgo0YDecu374ZWD17aFxf8XPvtXdF4LQZBnthpcS3XN1uMkt41rRowXWYTI",
        "https://m.facebook.com/l.php?u=https%3A%2F%2Fhealthfromherbal.com%2Fno-one-expects-a-16-year-old-to-sound-exactly-like-elvis-presley-but-he-does%2F%3Ffbclid%3DIwZXh0bgNhZW0CMTAAAR35fNJs9-78cw7uO9adlP4mCvIU41Sh8ZtFRB-3cOVf040MVrdkddBypHo_aem_g0JZHJEk7G8wVhxstMas1Q&h=AT1vE8-j9FNpBrOb2s94Gmmk5yJPOsAdAa3l2IovqwZ3NsmqQ8l-myJdKPJ-o3xL6MhVL_3rbirrGV5bkU8iqp7-NicG4yCBwEJj6LOhn3AOfQNYYc3D2nrF5qpqPXLpFqAGv-xvPG6X30Hnuw_w&__tn__=-UK-R&c[0]=AT3vP2KiX-dq7zSOgN06jemoSfhmlroROwvIhbKL3ZFBqFLKKUknoUlBG94pK-R1b8Nhf3zUXRzfYVuf2_CMR-8BJuLN4XYy9L46rncdZuAzJ9Bt-rZEVgo0YDecu374ZWD17aFxf8XPvtXdF4LQZBnthpcS3XN1uMkt41rRowXWYTI",
        "https://m.facebook.com/l.php?u=https%3A%2F%2Fhealthfromherbal.com%2Fmy-parents-prohibited-me-from-leaving-home-upon-uncovering-their-true-motive-i-promptly-contacted-law-enforcement%2F%3Ffbclid%3DIwZXh0bgNhZW0CMTAAAR2sil8Hc84To0J2TXeozzOv6tfAVeR-TYTXpVSRma7vcCaqqu6fZpB4ooE_aem__gWQ_ne6YFIPUXLQMtN_gw&h=AT3Mup7k0NaBqpHoSyUKdZnK0pPIO-_0HwTuUMOmLVoVHdVFEJXE9FycPM0KpuMPAaJm9Nl21BNBG8WTPCmd8KlBYEWd3trmbiAraOckawYf5oo_rUUVkwFys4NVkfz8jrp4z8l7wxKrRlOO6YGJ&__tn__=-UK-R&c[0]=AT3vP2KiX-dq7zSOgN06jemoSfhmlroROwvIhbKL3ZFBqFLKKUknoUlBG94pK-R1b8Nhf3zUXRzfYVuf2_CMR-8BJuLN4XYy9L46rncdZuAzJ9Bt-rZEVgo0YDecu374ZWD17aFxf8XPvtXdF4LQZBnthpcS3XN1uMkt41rRowXWYTI",
        "https://m.facebook.com/l.php?u=https%3A%2F%2Fhealthfromherbal.com%2Flady-converses-with-her-supervisor-via-video-conference-as-her-irritated-spouse-interrupts%2F%3Ffbclid%3DIwZXh0bgNhZW0CMTAAAR22-lpdfzXkqdaRjeGISZJxGhmqi6Kh0csO3QuS9nJHYkIkmp1vLvNbmZE_aem_uE4o4190MYqSEySAaFjaQg&h=AT3SNeEDGBXnf2Uz8zRWY8MEVfZ4OV0-FyYOKQc_rG8lqmLUDD-4m-hOPA_Yr-P_01WiFRG7vAeFichxASG3hUyU3iaTDGAPJ-WrUQoM5NXxvXR8YzYERsiCyMEYzae2xIE8Dd92QdoRV4_6Eand&__tn__=-UK-R&c[0]=AT3vP2KiX-dq7zSOgN06jemoSfhmlroROwvIhbKL3ZFBqFLKKUknoUlBG94pK-R1b8Nhf3zUXRzfYVuf2_CMR-8BJuLN4XYy9L46rncdZuAzJ9Bt-rZEVgo0YDecu374ZWD17aFxf8XPvtXdF4LQZBnthpcS3XN1uMkt41rRowXWYTI",
        "https://m.facebook.com/l.php?u=https%3A%2F%2Fhealthfromherbal.com%2Fdownstairs-neighbors-kept-their-music-loud-for-days-it-disturbed-my-baby-so-i-gave-them-a-lesson-in-respect%2F%3Ffbclid%3DIwZXh0bgNhZW0CMTAAAR2Y9Dm9qT2gZP6uXvmjHaCoRVpiyEyA6cZtgitrSOS37p7weIkH6w43myE_aem_ax9SSfkL63QC74mcDu949Q&h=AT0EtzdcDGUXoHKDBt5arrhO8fbNgotSo9qYmeJhXM9XmFwoZcwyiAR3NJ0bHMI_abtJiQV-vZcd9Sn3EbrbaEEwIGTR3giubb6UdDGxlp2AODhfFCJU-rIq1oKJgefvbfKKa_cyvaMk3VnU7Ryd&__tn__=-UK-R&c[0]=AT3vP2KiX-dq7zSOgN06jemoSfhmlroROwvIhbKL3ZFBqFLKKUknoUlBG94pK-R1b8Nhf3zUXRzfYVuf2_CMR-8BJuLN4XYy9L46rncdZuAzJ9Bt-rZEVgo0YDecu374ZWD17aFxf8XPvtXdF4LQZBnthpcS3XN1uMkt41rRowXWYTI",
        "https://m.facebook.com/l.php?u=https%3A%2F%2Fhealthfromherbal.com%2Fmy-wife-suffered-from-memory-loss-for-years-prior-to-our-meeting-astonishingly-my-new-employer-knew-her%2F%3Ffbclid%3DIwZXh0bgNhZW0CMTAAAR19KHuWD5hM2knRCqVGuv5lS9XM9SJthZxG73atLZHt62uYREVTwk157ok_aem_3zLRHRyy8MCuDzpcCmjNCw&h=AT26UCdd9_jNtYLeV0axpOuge0IJCd4ysdtK0vs9GRBDtStmRoC9Kw33LF6Qs-5PN-TQ7vwQJi5AvTqd4IrbN252HuxBwffQ6OUGcDLBke4aDCNFTPyR0j-z0hauNMnCJWWfDHhv7qi2YcZp7fq2&__tn__=-UK-R&c[0]=AT3vP2KiX-dq7zSOgN06jemoSfhmlroROwvIhbKL3ZFBqFLKKUknoUlBG94pK-R1b8Nhf3zUXRzfYVuf2_CMR-8BJuLN4XYy9L46rncdZuAzJ9Bt-rZEVgo0YDecu374ZWD17aFxf8XPvtXdF4LQZBnthpcS3XN1uMkt41rRowXWYTI",
        "https://m.facebook.com/l.php?u=https%3A%2F%2Fhealthfromherbal.com%2Fi-arrived-to-fix-up-my-late-grandfathers-home-only-to-discover-it-being-demolished%2F%3Ffbclid%3DIwZXh0bgNhZW0CMTAAAR0NMZT2aNIbfA7BgROGHuSt1rQ91BtU0FkfcmRy668YrBbcbEBIbvhPpSs_aem_PIC3OMg-u85Pv7KFR-8eQQ&h=AT23sdIKNygIsKK4ZFlyx28mid6cwOLT_hZhscB640wabRUg5FgVSsfKvGk9fsz1UduQyYKQkAahl28mU9rio-_8N8h1szuWPIgPkSgSN22Q91Eg1ug0cRpTFzeYppi6V5b8hZKpVoj13NfP3ji8&__tn__=-UK-R&c[0]=AT3vP2KiX-dq7zSOgN06jemoSfhmlroROwvIhbKL3ZFBqFLKKUknoUlBG94pK-R1b8Nhf3zUXRzfYVuf2_CMR-8BJuLN4XYy9L46rncdZuAzJ9Bt-rZEVgo0YDecu374ZWD17aFxf8XPvtXdF4LQZBnthpcS3XN1uMkt41rRowXWYTI",
        "https://m.facebook.com/l.php?u=https%3A%2F%2Fhealthfromherbal.com%2Fi-arrived-to-fix-up-my-late-grandfathers-home-only-to-discover-it-being-demolished%2F%3Ffbclid%3DIwZXh0bgNhZW0CMTAAAR0NMZT2aNIbfA7BgROGHuSt1rQ91BtU0FkfcmRy668YrBbcbEBIbvhPpSs_aem_PIC3OMg-u85Pv7KFR-8eQQ&h=AT23sdIKNygIsKK4ZFlyx28mid6cwOLT_hZhscB640wabRUg5FgVSsfKvGk9fsz1UduQyYKQkAahl28mU9rio-_8N8h1szuWPIgPkSgSN22Q91Eg1ug0cRpTFzeYppi6V5b8hZKpVoj13NfP3ji8&__tn__=-UK-R&c[0]=AT3vP2KiX-dq7zSOgN06jemoSfhmlroROwvIhbKL3ZFBqFLKKUknoUlBG94pK-R1b8Nhf3zUXRzfYVuf2_CMR-8BJuLN4XYy9L46rncdZuAzJ9Bt-rZEVgo0YDecu374ZWD17aFxf8XPvtXdF4LQZBnthpcS3XN1uMkt41rRowXWYTI",
        "https://m.facebook.com/l.php?u=https%3A%2F%2Fhealthfromherbal.com%2Fthe-image-in-my-fiances-spectacles-sent-my-heart-sinking-an-unplanned-video-call-shattered-my-marriage-plans%2F%3Ffbclid%3DIwZXh0bgNhZW0CMTAAAR0ulIwBelDLBvXOH7tqeODOst0AZX3sgioVHexExHpchO93SpJgYgingns_aem_lD1KYhr-Pa8-TYipTq1eTw&h=AT24WAtG1WsvKLrFFpl2M3387I1_XKwvyY-lWwz18X-_P1UfEHBbsOVUHbv7r7jwkDvfZQuq1m6EsB61jfnPVMT1fyml5nvj_oVZNP2SjNxBNJQJblxRRBjK8xVXpetSfswek_L2iadV4pQuLsV8&__tn__=-UK-R&c[0]=AT3vP2KiX-dq7zSOgN06jemoSfhmlroROwvIhbKL3ZFBqFLKKUknoUlBG94pK-R1b8Nhf3zUXRzfYVuf2_CMR-8BJuLN4XYy9L46rncdZuAzJ9Bt-rZEVgo0YDecu374ZWD17aFxf8XPvtXdF4LQZBnthpcS3XN1uMkt41rRowXWYTI",
        "https://m.facebook.com/l.php?u=https%3A%2F%2Fhealthfromherbal.com%2Fwealthy-developer-destroys-elderly-mans-home-stumbles-upon-his-own-childhood-photograph-amidst-the-debris%2F%3Ffbclid%3DIwZXh0bgNhZW0CMTAAAR1b472mvAnll7d8TNp1KoV91ms78BgO3fn67XeHIzNuF7xWo3useQHOflU_aem_4PDxExnCeLN2tusCD82Ykw&h=AT3DNd0LP9g5AwTS1HeEGTyNKTFPR4p8nM49aZa19XF9627QKt59HT1OY6qxuRTV1l_EZSTOPe-BhGF9wX8ky6VAXQNhn-ntwDWdZZIB_fWe1czUG3o3D1ZEVSzUGeJsygOZRGufFOwNKGXqb0sJ&__tn__=-UK-R&c[0]=AT3vP2KiX-dq7zSOgN06jemoSfhmlroROwvIhbKL3ZFBqFLKKUknoUlBG94pK-R1b8Nhf3zUXRzfYVuf2_CMR-8BJuLN4XYy9L46rncdZuAzJ9Bt-rZEVgo0YDecu374ZWD17aFxf8XPvtXdF4LQZBnthpcS3XN1uMkt41rRowXWYTI",
        "https://m.facebook.com/l.php?u=https%3A%2F%2Fhealthfromherbal.com%2Fhusband-warned-he-would-be-unfaithful-if-i-refused-to-dress-up-and-apply-makeup-at-home-fate-handled-the-situation%2F%3Ffbclid%3DIwZXh0bgNhZW0CMTAAAR1F4P_uD7ipYHSWXFqKJudSXAd3Y9HmD4izE1EIX3FBdvjT_54Q1F3uSUo_aem_QuJW1RJmEWbNnbMsrSIT3Q&h=AT3p1K5xM6962YJADaAgltlgXsQNKmtXHzTpNaSwD7g2FxE_XWtjjOGyFDcfj6QnH43dAfBJoxwkHlSuG8TmhsKnFyVg9-ym3tbkcRUL4yUr574AcSp0e14me92OK42E6Xyq0gGr4zsiJNU8ClfN&__tn__=-UK-R&c[0]=AT3vP2KiX-dq7zSOgN06jemoSfhmlroROwvIhbKL3ZFBqFLKKUknoUlBG94pK-R1b8Nhf3zUXRzfYVuf2_CMR-8BJuLN4XYy9L46rncdZuAzJ9Bt-rZEVgo0YDecu374ZWD17aFxf8XPvtXdF4LQZBnthpcS3XN1uMkt41rRowXWYTI",
        "https://m.facebook.com/l.php?u=https%3A%2F%2Fhealthfromherbal.com%2Fmy-wifes-manager-has-a-habit-of-phoning-her-at-6-am-to-see-if-she-can-fill-in-for-ill-colleagues-we-gave-him-a-memorable-teaching-moment%2F%3Ffbclid%3DIwZXh0bgNhZW0CMTAAAR35fNJs9-78cw7uO9adlP4mCvIU41Sh8ZtFRB-3cOVf040MVrdkddBypHo_aem_g0JZHJEk7G8wVhxstMas1Q&h=AT3Xf_HfjVMPNwwm0qducuJUM3dTjCt_7VklPFNdxZxYp3J0c9bjGfrs1ja1uwxlPWRBNkUbnndFQO46KwN4SF5eReR-jsyvrkmGxwtihlju4qYXKGz3SdhHx-z5zzNIK2qR09ZqfNxpNcfnxCOT&__tn__=-UK-R&c[0]=AT3vP2KiX-dq7zSOgN06jemoSfhmlroROwvIhbKL3ZFBqFLKKUknoUlBG94pK-R1b8Nhf3zUXRzfYVuf2_CMR-8BJuLN4XYy9L46rncdZuAzJ9Bt-rZEVgo0YDecu374ZWD17aFxf8XPvtXdF4LQZBnthpcS3XN1uMkt41rRowXWYTI",
        "https://m.facebook.com/l.php?u=https%3A%2F%2Fhealthfromherbal.com%2Fmy-folks-favored-my-sibling-over-me-choosing-his-match-over-my-nuptial-celebration-our-kin-held-them-accountable%2F%3Ffbclid%3DIwZXh0bgNhZW0CMTAAAR0tzN_Js8Yjmfs_yU-PQBscLLk3C3bGDB2hTGV0gasb0BbXBII8hhEBeB4_aem_HJ2vtpjklO3v9WNuJwIVQA&h=AT3uBXFqKlT6Vne0Ft61hBdOdYzMmTPC0GZqfv1HeEAzWQpnYvsXRuRjiOsghuVe-n3OULWnB9M-ylDEHsOEzbULPKFp38lucCh4suXcE2guBgnCY40TTbAfELkbDBYiGX8I8ib_avKidRdyvjy-&__tn__=-UK-R&c[0]=AT3vP2KiX-dq7zSOgN06jemoSfhmlroROwvIhbKL3ZFBqFLKKUknoUlBG94pK-R1b8Nhf3zUXRzfYVuf2_CMR-8BJuLN4XYy9L46rncdZuAzJ9Bt-rZEVgo0YDecu374ZWD17aFxf8XPvtXdF4LQZBnthpcS3XN1uMkt41rRowXWYTI",
        "https://m.facebook.com/l.php?u=https%3A%2F%2Fhealthfromherbal.com%2Fthis-weeks-top-3-stories-with-unexpected-twists%2F%3Ffbclid%3DIwZXh0bgNhZW0CMTAAAR3zPS7BdhfxiS96n0KVLlI0oQdJR41hVdeMcaShfsab4G4AOJPB6afvh18_aem_hDJu-BFil1pDL1GZDDNmUg&h=AT3wxIcdMwa0JPs0bLBmaLaqUpZ6hM3iXI4c11mo70PQEc6-_fzU5MRHhjBqmM4D9-9vvBxSNXSMUm9mLWMNPTwgpJvy6U8CZbmwNpdwDuhqkjCsdpb-95FZ5g2ozmxNPKAqAGN5pzoPRZsku6X0&__tn__=-UK-R&c[0]=AT3vP2KiX-dq7zSOgN06jemoSfhmlroROwvIhbKL3ZFBqFLKKUknoUlBG94pK-R1b8Nhf3zUXRzfYVuf2_CMR-8BJuLN4XYy9L46rncdZuAzJ9Bt-rZEVgo0YDecu374ZWD17aFxf8XPvtXdF4LQZBnthpcS3XN1uMkt41rRowXWYTI",
        "https://m.facebook.com/l.php?u=https%3A%2F%2Fhealthfromherbal.com%2Fmy-dearest-elderly-neighbor-assisted-with-my-relocation-subsequently-her-message-in-a-crate-prompted-the-prompt-sale-of-my-property%2F%3Ffbclid%3DIwZXh0bgNhZW0CMTAAAR1UMpr1Fh87p9JqH3l6wh4TQPd3yofSqdY1kxKlX9VtX9IEsEgghu7ISms_aem_gZlAog-QyEReje1x5FzoXQ&h=AT1GI5cRehNnjcmKdRnoLBfzDNmFl_syvJBfV85I91bw015bgVE_qicuPJK3VMJUEfgSE6FONlyEipc5QsedLWKdy0Dinmo2mTMNihU2SHz-Onf_qVTX5Jiy1oIVXsfm0WZTYg-sjk2vIpIf9F60&__tn__=-UK-R&c[0]=AT3vP2KiX-dq7zSOgN06jemoSfhmlroROwvIhbKL3ZFBqFLKKUknoUlBG94pK-R1b8Nhf3zUXRzfYVuf2_CMR-8BJuLN4XYy9L46rncdZuAzJ9Bt-rZEVgo0YDecu374ZWD17aFxf8XPvtXdF4LQZBnthpcS3XN1uMkt41rRowXWYTI",
        "https://m.facebook.com/l.php?u=https%3A%2F%2Fhealthfromherbal.com%2Fmy-63-year-old-neighbor-was-the-catalyst-for-my-separation-from-my-husband%2F%3Ffbclid%3DIwZXh0bgNhZW0CMTAAAR3nqz99L1k9BRKdaCzUED7QxlBmJLsgfLoEwlbkEsndnEg0kdNDSuADJ7Q_aem_0XkP9LMSagMHPMUCCc8a7g&h=AT3hpPrE7QT3uZ8cHQN7VhlwSTIB3YxZqu2YCkCa5xQp1EdzzS5YuBkwulHcS2Ut4mnV8zFTo5YWL1SxkU0UhJsMRqSzgZv1lcAY_AzccYQ-K0ztG--IgqrcRSlD30BbJJNIBOp0Qmc55RA05AIX&__tn__=-UK-R&c[0]=AT3vP2KiX-dq7zSOgN06jemoSfhmlroROwvIhbKL3ZFBqFLKKUknoUlBG94pK-R1b8Nhf3zUXRzfYVuf2_CMR-8BJuLN4XYy9L46rncdZuAzJ9Bt-rZEVgo0YDecu374ZWD17aFxf8XPvtXdF4LQZBnthpcS3XN1uMkt41rRowXWYTI",
        "https://m.facebook.com/l.php?u=https%3A%2F%2Fhealthfromherbal.com%2Fi-arranged-for-a-pretend-boyfriend-to-join-our-family-meal-it-became-the-most-rewarding-choice-i-ever-made%2F%3Ffbclid%3DIwZXh0bgNhZW0CMTAAAR0vOlf9T35mbSIiL5Soh_mQ2mVJSGZHTP9QnDnr9j-k1T7XrBWzp0ncU-Y_aem_z02oO6sYIT3jqfBnMzcS0Q&h=AT3-pJCdn9l0fTf-LX9DyzI3mA3RsxIMhDB6pMAfEvoA3buYmS3PueOtnSJL3l72ZbbgXQHO9CxdmYKV31tMzDF_otHdQcvLDhEmeiAUTMIDmX4uRkzNfD4YyTHxp2D5vzo6CppgEdFATqCBOo73&__tn__=-UK-R&c[0]=AT3vP2KiX-dq7zSOgN06jemoSfhmlroROwvIhbKL3ZFBqFLKKUknoUlBG94pK-R1b8Nhf3zUXRzfYVuf2_CMR-8BJuLN4XYy9L46rncdZuAzJ9Bt-rZEVgo0YDecu374ZWD17aFxf8XPvtXdF4LQZBnthpcS3XN1uMkt41rRowXWYTI",
        "https://m.facebook.com/l.php?u=https%3A%2F%2Fhealthfromherbal.com%2Fmy-son-found-a-girlfriend-online-but-i-decided-to-break-them-up-once-i-discovered-her-identity%2F%3Ffbclid%3DIwZXh0bgNhZW0CMTAAAR1Cy6Dw7T42xng4GKaiMh40HJXZrS1STqphhG6UZEjuTIMXbjnv23-sC_o_aem_7Vh4eLnikrI2qMMM9uy5kQ&h=AT3inCRZ2Cd3Oe0krjaUrpT-hiF0tBD5yiDhZ-flCxhoKbY3dKo9AwBOhinbffoQCnNXUd1vnL2_wkeAH8vvT2F_eQo5Ny6LXq0ZdwMuTyyY-rq1i4V5vJLhgw3IJDJknq6Hw_64rJeCp4URTxCr&__tn__=-UK-R&c[0]=AT3vP2KiX-dq7zSOgN06jemoSfhmlroROwvIhbKL3ZFBqFLKKUknoUlBG94pK-R1b8Nhf3zUXRzfYVuf2_CMR-8BJuLN4XYy9L46rncdZuAzJ9Bt-rZEVgo0YDecu374ZWD17aFxf8XPvtXdF4LQZBnthpcS3XN1uMkt41rRowXWYTI",
        "https://m.facebook.com/l.php?u=https%3A%2F%2Fhealthfromherbal.com%2Four-neighbors-framed-us-to-our-landlord-to-take-over-our-house-we-delivered-their-just-deserts%2F%3Ffbclid%3DIwZXh0bgNhZW0CMTAAAR0NMZT2aNIbfA7BgROGHuSt1rQ91BtU0FkfcmRy668YrBbcbEBIbvhPpSs_aem_PIC3OMg-u85Pv7KFR-8eQQ&h=AT1emj_Ti3Gpy5tZ0q2irmEunf4Ovohh2M5eK3kFesPjFhCfJgCzPiKZwmnBMFSufwR5_s9dR0e-_Sd77ZCh0fHeIwygCTefD4zmckASJEbDV872cCR2B6J3mo33bk-ohrAOvpJl0YkfZrtnRFz1&__tn__=-UK-R&c[0]=AT3vP2KiX-dq7zSOgN06jemoSfhmlroROwvIhbKL3ZFBqFLKKUknoUlBG94pK-R1b8Nhf3zUXRzfYVuf2_CMR-8BJuLN4XYy9L46rncdZuAzJ9Bt-rZEVgo0YDecu374ZWD17aFxf8XPvtXdF4LQZBnthpcS3XN1uMkt41rRowXWYTI",
        "https://m.facebook.com/l.php?u=https%3A%2F%2Fhealthfromherbal.com%2Fi-discovered-my-neighbor-cutting-my-hedge-at-midnight-he-was-unprepared-for-the-severity-of-karmas-retaliation%2F%3Ffbclid%3DIwZXh0bgNhZW0CMTAAAR1ZtlwdunFmRZ4lb8AE3txlYvPhqoD9m8GS2lT6disNnl9lliXbWfkJGos_aem_VgnCZjzqLJ1HrKuuS4Bqzw&h=AT3ZGLXoqWdKTDAjb2jbOU56Avmo3smlOUCQqk_STQGHj90hIZiymx7fOiWMtBY0ki-CTrDD2PIVO2YtT_K4ix1bEXN_Ohz-vizTFCgQF1rn8BrjT-XdL7BynPC4KmeKQWux-O4-3-yOfzPoww6m&__tn__=-UK-R&c[0]=AT3vP2KiX-dq7zSOgN06jemoSfhmlroROwvIhbKL3ZFBqFLKKUknoUlBG94pK-R1b8Nhf3zUXRzfYVuf2_CMR-8BJuLN4XYy9L46rncdZuAzJ9Bt-rZEVgo0YDecu374ZWD17aFxf8XPvtXdF4LQZBnthpcS3XN1uMkt41rRowXWYTI",
        "https://m.facebook.com/l.php?u=https%3A%2F%2Fhealthfromherbal.com%2Fwoman-assembles-local-community-to-determine-apartment-burglar-culprits-true-nature-astonishes-everyone%2F%3Ffbclid%3DIwZXh0bgNhZW0CMTAAAR2LNiXnazKJGYdsOY_AWuTl6vsZwOrNfM3Xcw3Wq0doOtQ4nZRmEtNatiQ_aem_VsOLz54WxuvXhy3y3FpN6w&h=AT0_4zliU92EoFJ4U9g66eUlHynmUC12qqLxRKSFfiQlbbWVNCI5KHPj2sPGFRtBc5jLXwYn69Guvv7j_RUSMvzAV1Qp2i4oAvX5H3yMTyIsbmiNbRvhgYxmqOeq6PYjXBK4eyjeBZ3kA8RwNS55&__tn__=-UK-R&c[0]=AT3vP2KiX-dq7zSOgN06jemoSfhmlroROwvIhbKL3ZFBqFLKKUknoUlBG94pK-R1b8Nhf3zUXRzfYVuf2_CMR-8BJuLN4XYy9L46rncdZuAzJ9Bt-rZEVgo0YDecu374ZWD17aFxf8XPvtXdF4LQZBnthpcS3XN1uMkt41rRowXWYTI",
        "https://m.facebook.com/l.php?u=https%3A%2F%2Fhealthfromherbal.com%2Farrogant-neighbor-fills-in-my-pond-my-clever-retaliation-teaches-him-not-to-underestimate-an-elderly-lady%2F%3Ffbclid%3DIwZXh0bgNhZW0CMTAAAR2O_rdVSuMhCxIW_WGBYSEfQ_8KH6u0PLXU1niehvYXmaEJ4cC0u5hhYX8_aem_F2NUNklp3gZZNFIsZiq_fg&h=AT2cPd8UVGvWMr5rwtHpAU1JG5z_AdrkW6q46OWHfaNuO23Dp3pNnob-UEvRDnsVunPm-uspY2fcuZSXEy4GKCjfecN6522JPyixE3mnEW3j4kEJYHf-HBQy1B_oln5RY1C3insFondJnmwN3uB6&__tn__=-UK-R&c[0]=AT3vP2KiX-dq7zSOgN06jemoSfhmlroROwvIhbKL3ZFBqFLKKUknoUlBG94pK-R1b8Nhf3zUXRzfYVuf2_CMR-8BJuLN4XYy9L46rncdZuAzJ9Bt-rZEVgo0YDecu374ZWD17aFxf8XPvtXdF4LQZBnthpcS3XN1uMkt41rRowXWYTI",
        "https://m.facebook.com/l.php?u=https%3A%2F%2Fhealthfromherbal.com%2Fprivileged-lady-douses-my-waitress-mother-with-coffee-my-response-makes-her-deeply-rue-her-actions%2F%3Ffbclid%3DIwZXh0bgNhZW0CMTAAAR19MKO3A7Ld9ZKJYFAnP57cVx81WBRLchtyKc7hCFfIMexQyDvDnhV7byw_aem_gTGIaDRz0Jo-n1xikUfvIw&h=AT3pvZ-1X6v5MPNObJAl4p_aeQKMHRCamN_zsKlmQ_tlD5Rg20phRltYglRUkjXWTOwL37H1qr0_xGrJ9rYnIBpyhJDen7RbQ0-ZMvuvN_fTAKNQBNf4WNmKNhr5fBdVvXZB6dRy_HvBvYiHXmWR&__tn__=-UK-R&c[0]=AT3vP2KiX-dq7zSOgN06jemoSfhmlroROwvIhbKL3ZFBqFLKKUknoUlBG94pK-R1b8Nhf3zUXRzfYVuf2_CMR-8BJuLN4XYy9L46rncdZuAzJ9Bt-rZEVgo0YDecu374ZWD17aFxf8XPvtXdF4LQZBnthpcS3XN1uMkt41rRowXWYTI",
        "https://m.facebook.com/l.php?u=https%3A%2F%2Fhealthfromherbal.com%2Fmy-neighbor-persistently-took-my-detergent-and-tossed-my-freshly-washed-clothes-onto-the-ground-so-i-delivered-a-memorable-retribution%2F%3Ffbclid%3DIwZXh0bgNhZW0CMTAAAR0JUoAVBCMaz4E79A9pyr9vKbHcfNLwW6Xud25gbq1eu8sxOJuHrQgHeZ4_aem_ngUk0ObXVrL98Ow_HVlqHQ&h=AT2nPZUHY8ulI3o_NCAQxnNc_M-7jQDF5EF5KNeuhf-QfHJixxYDU62NMpSMQfDMql2iTCwhfUEUfMtxbmi9Q0hlYGULGqaw8540_r28MAlQ_lLTqO2PhEmIC-CR7e64ddt1rRJN5ghCgFaUJpYU&__tn__=-UK-R&c[0]=AT3vP2KiX-dq7zSOgN06jemoSfhmlroROwvIhbKL3ZFBqFLKKUknoUlBG94pK-R1b8Nhf3zUXRzfYVuf2_CMR-8BJuLN4XYy9L46rncdZuAzJ9Bt-rZEVgo0YDecu374ZWD17aFxf8XPvtXdF4LQZBnthpcS3XN1uMkt41rRowXWYTI",
        "https://m.facebook.com/l.php?u=https%3A%2F%2Fhealthfromherbal.com%2Fmy-landlord-clandestinely-held-a-key-to-my-apartment-and-entered-during-my-work-hours-karma-swiftly-taught-him-a-lesson%2F%3Ffbclid%3DIwZXh0bgNhZW0CMTAAAR1Cy6Dw7T42xng4GKaiMh40HJXZrS1STqphhG6UZEjuTIMXbjnv23-sC_o_aem_7Vh4eLnikrI2qMMM9uy5kQ&h=AT3ze-3b1thENOLThJCCEMVFRTVptrJkKCWJLvpUpZ8QiIfRvp0sgImu07nV0Fckepc8mLNmDJoqmOkbQI1mcUM5bR39YndAVF3NupZSKDVjKwxFgI49fTUg7GZzh7A9BOYtYJihDMhz6ZZQr0IQ&__tn__=-UK-R&c[0]=AT3vP2KiX-dq7zSOgN06jemoSfhmlroROwvIhbKL3ZFBqFLKKUknoUlBG94pK-R1b8Nhf3zUXRzfYVuf2_CMR-8BJuLN4XYy9L46rncdZuAzJ9Bt-rZEVgo0YDecu374ZWD17aFxf8XPvtXdF4LQZBnthpcS3XN1uMkt41rRowXWYTI",
        "https://m.facebook.com/l.php?u=https%3A%2F%2Fhealthfromherbal.com%2Fmy-wifes-closest-confidante-slandered-her-behind-her-back-so-i-orchestrated-an-elaborate-retaliation%2F%3Ffbclid%3DIwZXh0bgNhZW0CMTAAAR26FoIoIBHlFGLJbpj2fjvNZ9T377-yiQfxpobCABdzyFe91mDVVJ3SRWo_aem_ODmGsHCES099LnqQWdBiZg&h=AT2Vz6Ukne54uVx8aWasA2I8oGXSW-BmQwLc6avOJZfNWKwr4eAFEYPjoVaziShkkdJeE0y32Qfu9bKaOK3kcLiVA5ACiCSoFOiVqRa1coiTzsGGqIywp6gzZkSqGUC7BqpbBSDy6d28qmca2v63&__tn__=-UK-R&c[0]=AT3vP2KiX-dq7zSOgN06jemoSfhmlroROwvIhbKL3ZFBqFLKKUknoUlBG94pK-R1b8Nhf3zUXRzfYVuf2_CMR-8BJuLN4XYy9L46rncdZuAzJ9Bt-rZEVgo0YDecu374ZWD17aFxf8XPvtXdF4LQZBnthpcS3XN1uMkt41rRowXWYTI",
        "https://m.facebook.com/l.php?u=https%3A%2F%2Fhealthfromherbal.com%2Fi-sought-retribution-against-my-unfaithful-fiance-by-leaving-surprises-in-his-house-before-departing-now-hes-desperately-texting-me-to-make-it-stop%2F%3Ffbclid%3DIwZXh0bgNhZW0CMTAAAR1lAp83eAqeZbWmATkzemxAK5lHXG3fgntSDc4Khymolqvw0OcViXU_3bg_aem_MYKcjd8_YpOFlNqiWzO4Ng&h=AT2GPbnTpwiq5cu05NBttf9EhqIm0izTbYvt63Xl-879CwVH98dbmju_QCbgS6tRAX1Bwl07yuizwSEoUEB2hJrZhGmbGrVfSqCky0rUo4G325ln69bF9b77pumz81V2CSAfywppk3y0HBxKmvQP&__tn__=-UK-R&c[0]=AT3vP2KiX-dq7zSOgN06jemoSfhmlroROwvIhbKL3ZFBqFLKKUknoUlBG94pK-R1b8Nhf3zUXRzfYVuf2_CMR-8BJuLN4XYy9L46rncdZuAzJ9Bt-rZEVgo0YDecu374ZWD17aFxf8XPvtXdF4LQZBnthpcS3XN1uMkt41rRowXWYTI",
        "https://m.facebook.com/l.php?u=https%3A%2F%2Fhealthfromherbal.com%2Fi-believed-i-was-experiencing-a-fairy-tale-with-my-ideal-fiance-but-i-uncovered-a-horror-hidden-beneath-his-mattress%2F%3Ffbclid%3DIwZXh0bgNhZW0CMTAAAR3mvlfvfelgQmwAAz2rLNlsdq1K55eFDARiddN1YI-6UhgmjUYlyOMgNI8_aem_vT5rNR7wnk4e6MSXyF8BDQ&h=AT3yAMDZFNRGODSMhFJjG4X_nMd3sps1BDlfqMZ6-g2LrYXCjw73u-dktCCsrVQGh7B3RYHPMLWvHVAaTvIBJPq-U8es7SORWtVUBRWpAfs0le0ytWTrYeVO5D9C9pneG-p9W3uMRW7_yu_j9B1F&__tn__=-UK-R&c[0]=AT3vP2KiX-dq7zSOgN06jemoSfhmlroROwvIhbKL3ZFBqFLKKUknoUlBG94pK-R1b8Nhf3zUXRzfYVuf2_CMR-8BJuLN4XYy9L46rncdZuAzJ9Bt-rZEVgo0YDecu374ZWD17aFxf8XPvtXdF4LQZBnthpcS3XN1uMkt41rRowXWYTI",
        "https://m.facebook.com/l.php?u=https%3A%2F%2Fhealthfromherbal.com%2Fmy-feisty-mother-in-law-blamed-me-for-hair-found-in-food-she-didnt-foresee-the-lengths-id-go-to-clear-my-name%2F%3Ffbclid%3DIwZXh0bgNhZW0CMTAAAR1f-AKLsjrpboZ4pzq3gQjQM90kCCe2wDmZeef0NYMUYSeppDuiSZeSTzs_aem_4hC0WffS8qoBc2K54YbVJg&h=AT2wCLoBnIpB3O99e_Vlgy9p9V_49l6hLgdiVhCiNQUNScqdcQ5X2c46FpOOz2pMitqC6XYsgrChEM4CnGnZjoRwSI_xF7HbKiTK9jA-HjaL7Y_7V_-Vy4jOIHAlJMlTBwVMHsYFNKxif44FASPZ&__tn__=-UK-R&c[0]=AT3vP2KiX-dq7zSOgN06jemoSfhmlroROwvIhbKL3ZFBqFLKKUknoUlBG94pK-R1b8Nhf3zUXRzfYVuf2_CMR-8BJuLN4XYy9L46rncdZuAzJ9Bt-rZEVgo0YDecu374ZWD17aFxf8XPvtXdF4LQZBnthpcS3XN1uMkt41rRowXWYTI",
        "https://m.facebook.com/l.php?u=https%3A%2F%2Fhealthfromherbal.com%2Fairport-custodian-shares-sandwich-with-stray-child-who-pleads-save-my-mommy-from-that-monster%2F%3Ffbclid%3DIwZXh0bgNhZW0CMTAAAR021cMVGYQBP4JOD5hNWs5xFpcJ1i49csGtMXHlMEH_ryYkbFPEIjUD5UU_aem_-ow51J9WoZx8OTuYmKcUdw&h=AT13Wgac24z_s9hZZHZN8OPWpoDJKNNlk96N5vkckwYrHLBPgvzZ_q7C4MI8r2fP4VFEMtxigJUEtip2aUCGoZc5P7oZzuscJkEaXhMj8t0E8LQVXjtqDF5TB1TNv25Tiu7gApj38Q19DZDd8row&__tn__=-UK-R&c[0]=AT3vP2KiX-dq7zSOgN06jemoSfhmlroROwvIhbKL3ZFBqFLKKUknoUlBG94pK-R1b8Nhf3zUXRzfYVuf2_CMR-8BJuLN4XYy9L46rncdZuAzJ9Bt-rZEVgo0YDecu374ZWD17aFxf8XPvtXdF4LQZBnthpcS3XN1uMkt41rRowXWYTI",
        "https://m.facebook.com/l.php?u=https%3A%2F%2Fhealthfromherbal.com%2Fi-spotted-my-husbands-picture-in-a-newspaper-now-im-initiating-a-divorce%2F%3Ffbclid%3DIwZXh0bgNhZW0CMTAAAR3mvlfvfelgQmwAAz2rLNlsdq1K55eFDARiddN1YI-6UhgmjUYlyOMgNI8_aem_vT5rNR7wnk4e6MSXyF8BDQ&h=AT3i4tlq-ok0SAFG42AxjxSm2Q2oB9yp_ApFL8-_mF91bDgDhwgLI6blV_V71JS3fI-fF6s7RwX3ssNgStWAnF6le4azLu3BiI5coN6C2u7AoCFEzh7INJbHrMInIlPE0vD1wln1CU-8J9ocVAw8&__tn__=-UK-R&c[0]=AT3vP2KiX-dq7zSOgN06jemoSfhmlroROwvIhbKL3ZFBqFLKKUknoUlBG94pK-R1b8Nhf3zUXRzfYVuf2_CMR-8BJuLN4XYy9L46rncdZuAzJ9Bt-rZEVgo0YDecu374ZWD17aFxf8XPvtXdF4LQZBnthpcS3XN1uMkt41rRowXWYTI",
        "https://m.facebook.com/l.php?u=https%3A%2F%2Fhealthfromherbal.com%2Fmy-overbearing-neighbor-demanded-i-remove-my-old-fence-the-way-karma-retaliated-is-astounding-2%2F%3Ffbclid%3DIwZXh0bgNhZW0CMTAAAR1UMpr1Fh87p9JqH3l6wh4TQPd3yofSqdY1kxKlX9VtX9IEsEgghu7ISms_aem_gZlAog-QyEReje1x5FzoXQ&h=AT2DAOVKfCXLI48N7nwvYpJNhEkUMjZJY8ZYfHPDRROBMX1NNJgXzuSrO4ae872TYhaMO7HPaeXpCd-kTL4sasDxiYvaeTXMdzoGfVNxnvJtL7kCsay3APL2V2tEuQjqnXXFlUMBiEMZbkd7Gqyo&__tn__=-UK-R&c[0]=AT3vP2KiX-dq7zSOgN06jemoSfhmlroROwvIhbKL3ZFBqFLKKUknoUlBG94pK-R1b8Nhf3zUXRzfYVuf2_CMR-8BJuLN4XYy9L46rncdZuAzJ9Bt-rZEVgo0YDecu374ZWD17aFxf8XPvtXdF4LQZBnthpcS3XN1uMkt41rRowXWYTI",
        "https://m.facebook.com/l.php?u=https%3A%2F%2Fhealthfromherbal.com%2Fmy-neighbor-ruined-my-yard-in-retaliation-but-my-response-was-far-more-severe%2F%3Ffbclid%3DIwZXh0bgNhZW0CMTAAAR19KHuWD5hM2knRCqVGuv5lS9XM9SJthZxG73atLZHt62uYREVTwk157ok_aem_3zLRHRyy8MCuDzpcCmjNCw&h=AT2WouZhXOtzr6uOauHSDUFp_8m41TA37n7H-NyC4P93Z_dlkDPSNqNQP5qdsA5Yc2nO76Sm7_TEw1fxhnemPimO13kFPli--TKPsHOVZ57Nsz5ktS6YjKJ0ftlmsN2leL95L5nhfUeGOi-XCd9H&__tn__=-UK-R&c[0]=AT3vP2KiX-dq7zSOgN06jemoSfhmlroROwvIhbKL3ZFBqFLKKUknoUlBG94pK-R1b8Nhf3zUXRzfYVuf2_CMR-8BJuLN4XYy9L46rncdZuAzJ9Bt-rZEVgo0YDecu374ZWD17aFxf8XPvtXdF4LQZBnthpcS3XN1uMkt41rRowXWYTI",
        "https://m.facebook.com/l.php?u=https%3A%2F%2Fhealthfromherbal.com%2Fi-committed-to-assisting-my-younger-sister-with-her-wedding-arrangements-and-discovered-she-was-engaged-to-the-man-i-had-dreamed-about-a-tale-from-today%2F%3Ffbclid%3DIwZXh0bgNhZW0CMTAAAR1lAp83eAqeZbWmATkzemxAK5lHXG3fgntSDc4Khymolqvw0OcViXU_3bg_aem_MYKcjd8_YpOFlNqiWzO4Ng&h=AT051RWfsHfEUpQO95G9ypbElhzWHVPJ3ImMsz_Ay8c-03KuwYwn0y_Pq8g6qsCQn6gAig15wfjy5VtHhE9hSr-z_uqbz8IgABXnIGIr_IeNy6aRyHcnoioA7aE2Y8i4DfdFEOdFw9NZ5RtW0Kw5&__tn__=-UK-R&c[0]=AT3vP2KiX-dq7zSOgN06jemoSfhmlroROwvIhbKL3ZFBqFLKKUknoUlBG94pK-R1b8Nhf3zUXRzfYVuf2_CMR-8BJuLN4XYy9L46rncdZuAzJ9Bt-rZEVgo0YDecu374ZWD17aFxf8XPvtXdF4LQZBnthpcS3XN1uMkt41rRowXWYTI",
        "https://m.facebook.com/l.php?u=https%3A%2F%2Fhealthfromherbal.com%2Fmy-former-husband-gave-me-a-flash-drive-before-his-passing-now-i-regret-our-divorce%2F%3Ffbclid%3DIwZXh0bgNhZW0CMTAAAR2O_rdVSuMhCxIW_WGBYSEfQ_8KH6u0PLXU1niehvYXmaEJ4cC0u5hhYX8_aem_F2NUNklp3gZZNFIsZiq_fg&h=AT1lF2CxENYDBqlR8aqCPXffdKnUpwj6IDvjbFPZ3yLYnjEbpcF-ZYpzGKcJ3JFdSjDIk1iDdqXuO9QKH8_LM8trw3GLaFnAHX2hAbHVyqPVBTTKE0-fZDcw-pxNOMsuA7aQI41-uUCPITGoj7y4&__tn__=-UK-R&c[0]=AT3vP2KiX-dq7zSOgN06jemoSfhmlroROwvIhbKL3ZFBqFLKKUknoUlBG94pK-R1b8Nhf3zUXRzfYVuf2_CMR-8BJuLN4XYy9L46rncdZuAzJ9Bt-rZEVgo0YDecu374ZWD17aFxf8XPvtXdF4LQZBnthpcS3XN1uMkt41rRowXWYTI",
        "https://m.facebook.com/l.php?u=https%3A%2F%2Fhealthfromherbal.com%2Fmy-mum-spent-2-weeks-putting-up-wallpaper-in-a-luxury-house-but-spoiled-owners-tricked-her-refused-to-pay%2F%3Ffbclid%3DIwZXh0bgNhZW0CMTAAAR1UMpr1Fh87p9JqH3l6wh4TQPd3yofSqdY1kxKlX9VtX9IEsEgghu7ISms_aem_gZlAog-QyEReje1x5FzoXQ&h=AT0nIuLE3u2loz_BtuTeyYWaOuOK7FNM_hgQff9XWuHWlGEjYRAJ08mDDVds-Po0Zg81ZTcGTsampOIA_UM-OdU7CedC5HLb-hMXLdHFJAzCx_23hZWUYPwrsRPS0BHuI9lMCRZnxfh91sDf1kPo&__tn__=-UK-R&c[0]=AT3vP2KiX-dq7zSOgN06jemoSfhmlroROwvIhbKL3ZFBqFLKKUknoUlBG94pK-R1b8Nhf3zUXRzfYVuf2_CMR-8BJuLN4XYy9L46rncdZuAzJ9Bt-rZEVgo0YDecu374ZWD17aFxf8XPvtXdF4LQZBnthpcS3XN1uMkt41rRowXWYTI",
        "https://m.facebook.com/l.php?u=https%3A%2F%2Fhealthfromherbal.com%2Fdaughter-upset-at-mom-for-slowness-on-hike-uncovers-sad-truth-and-ends-up-carrying-her%2F%3Ffbclid%3DIwZXh0bgNhZW0CMTAAAR3mvlfvfelgQmwAAz2rLNlsdq1K55eFDARiddN1YI-6UhgmjUYlyOMgNI8_aem_vT5rNR7wnk4e6MSXyF8BDQ&h=AT1EY7AVz8KujEMzzgLrrOZ0G2mUraRdmF80zbwBCKZYUT9UUtpYqb5mnwvtv19echZvbUq2UvzRls4YVG9q9VETPFsH4ZzrjlpJqAjEDD6_YDKfaB8jP-0PuvajNT9EBBMKSxVohggat4pinbP6&__tn__=-UK-R&c[0]=AT3vP2KiX-dq7zSOgN06jemoSfhmlroROwvIhbKL3ZFBqFLKKUknoUlBG94pK-R1b8Nhf3zUXRzfYVuf2_CMR-8BJuLN4XYy9L46rncdZuAzJ9Bt-rZEVgo0YDecu374ZWD17aFxf8XPvtXdF4LQZBnthpcS3XN1uMkt41rRowXWYTI",
        "https://m.facebook.com/l.php?u=https%3A%2F%2Fhealthfromherbal.com%2Fi-discovered-my-daughter-in-law-uses-visits-to-me-as-punishment-for-her-children-so-i-convinced-them-to-join-my-scheme%2F%3Ffbclid%3DIwZXh0bgNhZW0CMTAAAR0tzN_Js8Yjmfs_yU-PQBscLLk3C3bGDB2hTGV0gasb0BbXBII8hhEBeB4_aem_HJ2vtpjklO3v9WNuJwIVQA&h=AT28cl2uAUpJ1k420gwY9qgfpLcXea6IxEd24OakU89KIwXZmXazon-9Sffyb3-dBt2TGoCNRCPVY-PIMRL_z2ulQwXsYn_DMcRIYTnotd0Bomm2pT1Ivy_1Oye6wkNUuELZUiQZ2rik0YC2FYD9&__tn__=-UK-R&c[0]=AT3vP2KiX-dq7zSOgN06jemoSfhmlroROwvIhbKL3ZFBqFLKKUknoUlBG94pK-R1b8Nhf3zUXRzfYVuf2_CMR-8BJuLN4XYy9L46rncdZuAzJ9Bt-rZEVgo0YDecu374ZWD17aFxf8XPvtXdF4LQZBnthpcS3XN1uMkt41rRowXWYTI",
        "https://m.facebook.com/l.php?u=https%3A%2F%2Fhealthfromherbal.com%2Fmechanic-attempts-to-cheat-me-and-quickly-learns-a-lasting-lesson%2F%3Ffbclid%3DIwZXh0bgNhZW0CMTAAAR2NUYICALmJshSW7sJ-49wxrXgu5NT-LGJ0J74Vvua7QUbVBS9krPeDN-4_aem_QFfOftGTCBbivZEEJ6zDcw&h=AT1eNBdSOx3iAQPRC73Nm10R1JPzntm-GFm8RhsCwbS8blYiXOR60Jb2Wr-cLq2_02p78RUpJvA29ygcVU5v6_7kcSgKJypk8JHXNpr4BtWu0JgJveh4HMNljp8hNhzFarIDfrtPzWfMskHKkiY8&__tn__=-UK-R&c[0]=AT3vP2KiX-dq7zSOgN06jemoSfhmlroROwvIhbKL3ZFBqFLKKUknoUlBG94pK-R1b8Nhf3zUXRzfYVuf2_CMR-8BJuLN4XYy9L46rncdZuAzJ9Bt-rZEVgo0YDecu374ZWD17aFxf8XPvtXdF4LQZBnthpcS3XN1uMkt41rRowXWYTI",
        "https://m.facebook.com/l.php?u=https%3A%2F%2Fhealthfromherbal.com%2Fmy-brother-in-law-requested-i-dress-in-all-white-for-his-gender-reveal-party-the-reason-left-me-astonished-3%2F%3Ffbclid%3DIwZXh0bgNhZW0CMTAAAR3VDqjM7QLXi82PDIL43Qyc9o2XColbxIs4lhhR1MorvKEEYq1VAPqZXoY_aem_6c6Wtpy9S6fuSPJj_z1Wmg&h=AT0IDAH4PC-9fmb4HPcnhwZYbCGlvprJdv82VxDkEnQvOwCdwOm9iMe4bmD_Pv9pr05F77_wKxNdRrYGFks1syweuWGRW2G5HIeHTfFWSj9lM14ZGqQzOQyDte1YIJjnsb5vcrV_tyCdIJXtzlPa&__tn__=-UK-R&c[0]=AT3vP2KiX-dq7zSOgN06jemoSfhmlroROwvIhbKL3ZFBqFLKKUknoUlBG94pK-R1b8Nhf3zUXRzfYVuf2_CMR-8BJuLN4XYy9L46rncdZuAzJ9Bt-rZEVgo0YDecu374ZWD17aFxf8XPvtXdF4LQZBnthpcS3XN1uMkt41rRowXWYTI",
        "https://m.facebook.com/l.php?u=https%3A%2F%2Fhealthfromherbal.com%2Fneighbors-young-daughter-left-an-odd-present-under-the-fence-my-discovery-inside-left-me-shocked%2F%3Ffbclid%3DIwZXh0bgNhZW0CMTAAAR1f-AKLsjrpboZ4pzq3gQjQM90kCCe2wDmZeef0NYMUYSeppDuiSZeSTzs_aem_4hC0WffS8qoBc2K54YbVJg&h=AT2ZOoIWeM9tA67iXkeECZW5upXLpBCW1zRSV32sPZdp40Uok0muUm7Aqvt_Oxp7hANNdy6RA-OOw94NfK6W7SPK6fV6pD-3rQf0qj5sMx6L5BY0EiItneTit-c92oWV234exAm08q0TavwkqhGR&__tn__=-UK-R&c[0]=AT3vP2KiX-dq7zSOgN06jemoSfhmlroROwvIhbKL3ZFBqFLKKUknoUlBG94pK-R1b8Nhf3zUXRzfYVuf2_CMR-8BJuLN4XYy9L46rncdZuAzJ9Bt-rZEVgo0YDecu374ZWD17aFxf8XPvtXdF4LQZBnthpcS3XN1uMkt41rRowXWYTI",
        "https://m.facebook.com/l.php?u=https%3A%2F%2Fhealthfromherbal.com%2Fwoman-on-flight-rests-feet-on-my-husbands-seat-i-couldnt-tolerate-it-devised-a-petty-retaliation%2F%3Ffbclid%3DIwZXh0bgNhZW0CMTAAAR0ulIwBelDLBvXOH7tqeODOst0AZX3sgioVHexExHpchO93SpJgYgingns_aem_lD1KYhr-Pa8-TYipTq1eTw&h=AT3kCKlMjWzpq1Vc6_tG9ZY8z1bS7-h7AO01fKZdBByJJHozKEs-c4qldWeDsJV4KZitVJVZAuQannR27-pabJqAqrUjDOwSZQQgxQ7BdADRqcf5L_E-ZXOYUre0K8LxjIpW4x6wXLZ-AObr-kbD&__tn__=-UK-R&c[0]=AT3vP2KiX-dq7zSOgN06jemoSfhmlroROwvIhbKL3ZFBqFLKKUknoUlBG94pK-R1b8Nhf3zUXRzfYVuf2_CMR-8BJuLN4XYy9L46rncdZuAzJ9Bt-rZEVgo0YDecu374ZWD17aFxf8XPvtXdF4LQZBnthpcS3XN1uMkt41rRowXWYTI",
        "https://m.facebook.com/l.php?u=https%3A%2F%2Fhealthfromherbal.com%2Fprivileged-woman-allows-her-dog-to-defecate-on-the-airport-floor-and-demands-staff-clean-it-up-i-gave-her-a-memorable-lesson%2F%3Ffbclid%3DIwZXh0bgNhZW0CMTAAAR2Y9Dm9qT2gZP6uXvmjHaCoRVpiyEyA6cZtgitrSOS37p7weIkH6w43myE_aem_ax9SSfkL63QC74mcDu949Q&h=AT3bQEUtkmObwFiOZiOLLMgVabILs9ETe0TCUgsHzYnFhE8cGW-9W2nL1ouUw_rvhffA261pnw3nhvVhmHLelFSTqFNp4kFY7zq1-KLQhwEUqMcgjOguSILuIvERJ-OicamghQxLE97Exb4UKXpd&__tn__=-UK-R&c[0]=AT3vP2KiX-dq7zSOgN06jemoSfhmlroROwvIhbKL3ZFBqFLKKUknoUlBG94pK-R1b8Nhf3zUXRzfYVuf2_CMR-8BJuLN4XYy9L46rncdZuAzJ9Bt-rZEVgo0YDecu374ZWD17aFxf8XPvtXdF4LQZBnthpcS3XN1uMkt41rRowXWYTI",
        "https://m.facebook.com/l.php?u=https%3A%2F%2Fhealthfromherbal.com%2Fnewlyweds-attempted-to-ruin-my-flight-as-retaliation-i-quickly-put-them-in-their-place-3%2F%3Ffbclid%3DIwZXh0bgNhZW0CMTAAAR1f-AKLsjrpboZ4pzq3gQjQM90kCCe2wDmZeef0NYMUYSeppDuiSZeSTzs_aem_4hC0WffS8qoBc2K54YbVJg&h=AT1S8qAODvmB-XPVEA0OYEM1oVPnsSSQgPhVLooHJ0nkACiyWFa0u5w9wqUV-hnDSCb0645TglFOIWxG9eGYzdOFp0e5uUw73q_2SFZLzrDULg-trVxmksph78pt2UwMw9IHUNRL3l_Ee_k1n8j6&__tn__=-UK-R&c[0]=AT3vP2KiX-dq7zSOgN06jemoSfhmlroROwvIhbKL3ZFBqFLKKUknoUlBG94pK-R1b8Nhf3zUXRzfYVuf2_CMR-8BJuLN4XYy9L46rncdZuAzJ9Bt-rZEVgo0YDecu374ZWD17aFxf8XPvtXdF4LQZBnthpcS3XN1uMkt41rRowXWYTI",
        "https://m.facebook.com/l.php?u=https%3A%2F%2Fhealthfromherbal.com%2Fmy-stepson-mistreats-my-children-and-clutters-our-house-while-my-husband-remains-quiet-i-showed-him-how-to-behave-properly%2F%3Ffbclid%3DIwZXh0bgNhZW0CMTAAAR2LNiXnazKJGYdsOY_AWuTl6vsZwOrNfM3Xcw3Wq0doOtQ4nZRmEtNatiQ_aem_VsOLz54WxuvXhy3y3FpN6w&h=AT3N5nEb0bW2i9rBF1ol-l166FRCzfJIXFKhswLmLOposCU7lfrGhvaqCbgU5uSldu1wRQ5yREe7jrlCdMYEj-1cfU5fkdEHywgSZ78mHN7gOfTp5-lK9NnmaxyYr0Sh4ux0aSyOMLEnP-f_dzvt&__tn__=-UK-R&c[0]=AT3vP2KiX-dq7zSOgN06jemoSfhmlroROwvIhbKL3ZFBqFLKKUknoUlBG94pK-R1b8Nhf3zUXRzfYVuf2_CMR-8BJuLN4XYy9L46rncdZuAzJ9Bt-rZEVgo0YDecu374ZWD17aFxf8XPvtXdF4LQZBnthpcS3XN1uMkt41rRowXWYTI",
        "https://m.facebook.com/l.php?u=https%3A%2F%2Fhealthfromherbal.com%2Fi-did-a-genetic-test-after-a-man-knocked-on-my-door-claiming-to-be-my-twins-real-father%2F%3Ffbclid%3DIwZXh0bgNhZW0CMTAAAR3mvlfvfelgQmwAAz2rLNlsdq1K55eFDARiddN1YI-6UhgmjUYlyOMgNI8_aem_vT5rNR7wnk4e6MSXyF8BDQ&h=AT0iB5cCFaDtmx-v5uFJOHefSzickbroZnm1SH65GP6iD7uNk1LmCaWYcAjDlUCdELwG93PJy3dNhrDE1ZWrSl0wroV5DSVEEgSdipuR_Pgy_iZ9NPZ8qCJeU7vdz3YjgYtqNXwkcFS4H4HyDKnT&__tn__=-UK-R&c[0]=AT3vP2KiX-dq7zSOgN06jemoSfhmlroROwvIhbKL3ZFBqFLKKUknoUlBG94pK-R1b8Nhf3zUXRzfYVuf2_CMR-8BJuLN4XYy9L46rncdZuAzJ9Bt-rZEVgo0YDecu374ZWD17aFxf8XPvtXdF4LQZBnthpcS3XN1uMkt41rRowXWYTI",
        "https://m.facebook.com/l.php?u=https%3A%2F%2Fhealthfromherbal.com%2Fmy-father-in-law-gifted-me-a-weight-loss-machine-on-my-birthday-and-remarked-you-need-it-so-i-immediately-set-him-straight%2F%3Ffbclid%3DIwZXh0bgNhZW0CMTAAAR22-lpdfzXkqdaRjeGISZJxGhmqi6Kh0csO3QuS9nJHYkIkmp1vLvNbmZE_aem_uE4o4190MYqSEySAaFjaQg&h=AT0fMdB5gDoz-R0jZhnMxUMK8c_yiiI8M9DlwCkmZzM7RwlcGyQS6FvyxLMtshRxRLscs8dqchmjRAOPxuOhOs7AT_MA5ZeCqQLiGeSYcI3CXfr8uUWoBtcjtPe0XHIfOI1HeMgYlBt2pejSm-M5&__tn__=-UK-R&c[0]=AT3vP2KiX-dq7zSOgN06jemoSfhmlroROwvIhbKL3ZFBqFLKKUknoUlBG94pK-R1b8Nhf3zUXRzfYVuf2_CMR-8BJuLN4XYy9L46rncdZuAzJ9Bt-rZEVgo0YDecu374ZWD17aFxf8XPvtXdF4LQZBnthpcS3XN1uMkt41rRowXWYTI",
        "https://m.facebook.com/l.php?u=https%3A%2F%2Fhealthfromherbal.com%2Fa-bank-employee-insulted-my-postpartum-wife-based-on-her-id-photo-i-returned-later-to-give-him-a-memorable-lesson%2F%3Ffbclid%3DIwZXh0bgNhZW0CMTAAAR26FoIoIBHlFGLJbpj2fjvNZ9T377-yiQfxpobCABdzyFe91mDVVJ3SRWo_aem_ODmGsHCES099LnqQWdBiZg&h=AT03aVppbpURbmXMcgi5WrsmTaVU8ywdt6o2qK0uvyDY6u8yLzwsUeNTVswBb_soZ6PT_hVoBC4lOMQ5KFAyDUSWGZzgDlQbGm_PZREmVZ61lrOraWyP66oiEu11xDG86WwOg_Athkw8hThxHqdw&__tn__=-UK-R&c[0]=AT3vP2KiX-dq7zSOgN06jemoSfhmlroROwvIhbKL3ZFBqFLKKUknoUlBG94pK-R1b8Nhf3zUXRzfYVuf2_CMR-8BJuLN4XYy9L46rncdZuAzJ9Bt-rZEVgo0YDecu374ZWD17aFxf8XPvtXdF4LQZBnthpcS3XN1uMkt41rRowXWYTI",
        "https://m.facebook.com/l.php?u=https%3A%2F%2Fhealthfromherbal.com%2Fat-our-wedding-we-received-anonymous-counterfeit-100-bills-i-uncovered-the-culprit-and-delivered-a-fitting-retribution%2F%3Ffbclid%3DIwZXh0bgNhZW0CMTAAAR2O_rdVSuMhCxIW_WGBYSEfQ_8KH6u0PLXU1niehvYXmaEJ4cC0u5hhYX8_aem_F2NUNklp3gZZNFIsZiq_fg&h=AT1m32qij9_hiAcapqs_MaAqFxhZPJA4mmP4zW8CAyKEDXQGtSc_P0DiXbukc5e-a4bILPso1WhBNf5PfJ_-ikIeylUR8Zd6WDoMcafnnmPNJVrqTtYsBsLDMnr-5yHfxQqPbTUfE-FqLuSk21jq&__tn__=-UK-R&c[0]=AT3vP2KiX-dq7zSOgN06jemoSfhmlroROwvIhbKL3ZFBqFLKKUknoUlBG94pK-R1b8Nhf3zUXRzfYVuf2_CMR-8BJuLN4XYy9L46rncdZuAzJ9Bt-rZEVgo0YDecu374ZWD17aFxf8XPvtXdF4LQZBnthpcS3XN1uMkt41rRowXWYTI",
        "https://m.facebook.com/l.php?u=https%3A%2F%2Fhealthfromherbal.com%2Fmy-overbearing-neighbor-demanded-i-remove-my-old-fence-the-way-karma-retaliated-is-astounding%2F%3Ffbclid%3DIwZXh0bgNhZW0CMTAAAR3mJQyPOkl0WRUY3xrf01uPeULCgeNTGX-wwP39X_hNOrLODrBbSmr6uNQ_aem_Rr0ZdeO6JEnnG9rG-B2sUA&h=AT0YdOcGL0S2-FASj6Yj5-F9PlmMxrohCyLJrtnNlkt7aze0gyLpQS1bySjFt6j8ZjjY8oPgf_uAZKlMEojII24xW3WoSq-mKZyU7N92gg6LvIum-9eMbPs_R29jmxqUtpoI452NbJ1HUlLpjGCp&__tn__=-UK-R&c[0]=AT3vP2KiX-dq7zSOgN06jemoSfhmlroROwvIhbKL3ZFBqFLKKUknoUlBG94pK-R1b8Nhf3zUXRzfYVuf2_CMR-8BJuLN4XYy9L46rncdZuAzJ9Bt-rZEVgo0YDecu374ZWD17aFxf8XPvtXdF4LQZBnthpcS3XN1uMkt41rRowXWYTI",
        "https://m.facebook.com/l.php?u=https%3A%2F%2Fhealthfromherbal.com%2Fwhile-relaxing-on-the-beach-with-my-husband-a-woman-approached-knelt-down-and-spoke-his-name%2F%3Ffbclid%3DIwZXh0bgNhZW0CMTAAAR35fNJs9-78cw7uO9adlP4mCvIU41Sh8ZtFRB-3cOVf040MVrdkddBypHo_aem_g0JZHJEk7G8wVhxstMas1Q&h=AT3MlTufk6gR5iixBS0pwNPR3oURHuavX3e5u0MLQFFTVcXYYl0MZNp6cw7SyAUxDzGNTwqlplQbYBjpGjmIJU0WjeweuWWYbtrmgX7d1baarhsdKMMzJsm0Qae0K8FjZvJnKrhNjcm6_naHGLaW&__tn__=-UK-R&c[0]=AT3vP2KiX-dq7zSOgN06jemoSfhmlroROwvIhbKL3ZFBqFLKKUknoUlBG94pK-R1b8Nhf3zUXRzfYVuf2_CMR-8BJuLN4XYy9L46rncdZuAzJ9Bt-rZEVgo0YDecu374ZWD17aFxf8XPvtXdF4LQZBnthpcS3XN1uMkt41rRowXWYTI",
        "https://m.facebook.com/l.php?u=https%3A%2F%2Fhealthfromherbal.com%2Fmy-mother-in-law-presented-us-with-a-silver-tea-set-at-our-wedding-the-reason-behind-it-left-me-astonished%2F%3Ffbclid%3DIwZXh0bgNhZW0CMTAAAR0j5zG-EVVDrjNOFkRM7c8KPF60bf8psXWK9iDnLel6vzp5l-Dp2qVAaM8_aem_klefghYoGr_sfzghttSK-w&h=AT2uNx_fpAbqaNBsKnbJA-aBVwDms1Y5jxMc1g9yHCPygjwD842inoCOVbsvCuouOzeMuMfP69rMH0bI2wFnLZ3rgofWqd_yyOKRQx21EmQRGzDg5OHXvdgKl7cmX3CYhG7skEiBXkZci_bA7pIJ&__tn__=-UK-R&c[0]=AT3vP2KiX-dq7zSOgN06jemoSfhmlroROwvIhbKL3ZFBqFLKKUknoUlBG94pK-R1b8Nhf3zUXRzfYVuf2_CMR-8BJuLN4XYy9L46rncdZuAzJ9Bt-rZEVgo0YDecu374ZWD17aFxf8XPvtXdF4LQZBnthpcS3XN1uMkt41rRowXWYTI",
        "https://m.facebook.com/l.php?u=https%3A%2F%2Fhealthfromherbal.com%2Fnewlyweds-attempted-to-ruin-my-flight-as-retaliation-i-quickly-put-them-in-their-place-2%2F%3Ffbclid%3DIwZXh0bgNhZW0CMTAAAR3mJQyPOkl0WRUY3xrf01uPeULCgeNTGX-wwP39X_hNOrLODrBbSmr6uNQ_aem_Rr0ZdeO6JEnnG9rG-B2sUA&h=AT3TvOWe_51hYYg-LE0N7aD-MiYXzOUwmrQwqTqIM-9IC9e0bFCZYEby6-3madSgyHcwUlLzu_ko0-df7Y2YdgHOsFeHDuthkNIdtpgSqCDT_dPOboAggEnOysy3TEWd2j6wOjj6hC08xXcTC_pL&__tn__=-UK-R&c[0]=AT3vP2KiX-dq7zSOgN06jemoSfhmlroROwvIhbKL3ZFBqFLKKUknoUlBG94pK-R1b8Nhf3zUXRzfYVuf2_CMR-8BJuLN4XYy9L46rncdZuAzJ9Bt-rZEVgo0YDecu374ZWD17aFxf8XPvtXdF4LQZBnthpcS3XN1uMkt41rRowXWYTI",
        "https://m.facebook.com/l.php?u=https%3A%2F%2Fhealthfromherbal.com%2Fmy-sister-in-law-gifted-me-a-lawn-dwarf-for-my-birthday-shortly-after-a-woman-alleged-it-was-pilfered-from-her-property%2F%3Ffbclid%3DIwZXh0bgNhZW0CMTAAAR19KHuWD5hM2knRCqVGuv5lS9XM9SJthZxG73atLZHt62uYREVTwk157ok_aem_3zLRHRyy8MCuDzpcCmjNCw&h=AT0RhwmumglQiu9YXkjfemwp7fTqEURUMajM6yEmRXG4jLHL2OcUq_I4U29yIfTmhxcQGub2IHaJWw9eKpVaoBYGoKIcW-Bx67N83ZdoHEg4heW4P3Innve7_NReoc6RsARu3husPQzfsTpWbrAe&__tn__=-UK-R&c[0]=AT3vP2KiX-dq7zSOgN06jemoSfhmlroROwvIhbKL3ZFBqFLKKUknoUlBG94pK-R1b8Nhf3zUXRzfYVuf2_CMR-8BJuLN4XYy9L46rncdZuAzJ9Bt-rZEVgo0YDecu374ZWD17aFxf8XPvtXdF4LQZBnthpcS3XN1uMkt41rRowXWYTI",
        "https://m.facebook.com/l.php?u=https%3A%2F%2Fhealthfromherbal.com%2Fwoman-unintentionally-struck-a-man-in-the-nose-in-an-elevator-later-realizing-he-was-her-new-supervisor%2F%3Ffbclid%3DIwZXh0bgNhZW0CMTAAAR2NUYICALmJshSW7sJ-49wxrXgu5NT-LGJ0J74Vvua7QUbVBS9krPeDN-4_aem_QFfOftGTCBbivZEEJ6zDcw&h=AT1O7EJu0Iv-scdDc_Au2vDJuQhcDdpkwmdolEN5lpVTk9QwiJmRLTHjmO5YzabDMB5F5afVrjENzuX2xo_MSKLoMeymmu-_xPRjSK0q7exo7ETbFSAWWC6zcwEXtUTZDgjOeE84cZyCih9c7TvM&__tn__=-UK-R&c[0]=AT3vP2KiX-dq7zSOgN06jemoSfhmlroROwvIhbKL3ZFBqFLKKUknoUlBG94pK-R1b8Nhf3zUXRzfYVuf2_CMR-8BJuLN4XYy9L46rncdZuAzJ9Bt-rZEVgo0YDecu374ZWD17aFxf8XPvtXdF4LQZBnthpcS3XN1uMkt41rRowXWYTI",
        "https://m.facebook.com/l.php?u=https%3A%2F%2Fhealthfromherbal.com%2Fmy-stepmother-sabotaged-my-graduation-celebration-because-she-refused-to-share-a-photo-opportunity-with-my-mom-and-her-husband%2F%3Ffbclid%3DIwZXh0bgNhZW0CMTAAAR3aYIxRCIRHxm3-WvoXG8gnuvepc-jsLYyyY1l8EvKSH-tWDLANlKbTcS0_aem_n3ZktowcvcmIy2SLCMbmrQ&h=AT15T14Oq9GKNLCVssRfgAa6JUiNYTY-haD26AamMRkEFW_TJ9DTg72I_8L7zi-cwZxgRgoLMl3QTJnuykzaR8upJhIBmSb0XvasFCmlqlCIVk_7U3-_P7EttpI4nq083R6S8PY_YaJBBpjaHBUL&__tn__=-UK-R&c[0]=AT3vP2KiX-dq7zSOgN06jemoSfhmlroROwvIhbKL3ZFBqFLKKUknoUlBG94pK-R1b8Nhf3zUXRzfYVuf2_CMR-8BJuLN4XYy9L46rncdZuAzJ9Bt-rZEVgo0YDecu374ZWD17aFxf8XPvtXdF4LQZBnthpcS3XN1uMkt41rRowXWYTI",
        "https://m.facebook.com/l.php?u=https%3A%2F%2Fhealthfromherbal.com%2Fmy-neighbor-ruined-my-backyard-out-of-spite-but-my-retaliation-was-even-more-severe%2F%3Ffbclid%3DIwZXh0bgNhZW0CMTAAAR021cMVGYQBP4JOD5hNWs5xFpcJ1i49csGtMXHlMEH_ryYkbFPEIjUD5UU_aem_-ow51J9WoZx8OTuYmKcUdw&h=AT3K1ylzGt3zKivTdr-7w2PrFGc5YclpC7VQVT9G4jha-YWtfTk2jgDOKCGweCnRrQ7Q8QPmiH0fZ00fsEVBPWp058TF7rZ0MdcYQJRXIipcsBkCzGOgADRDIu557OL-46LYcn1JnK6kriCEoauy&__tn__=-UK-R&c[0]=AT3vP2KiX-dq7zSOgN06jemoSfhmlroROwvIhbKL3ZFBqFLKKUknoUlBG94pK-R1b8Nhf3zUXRzfYVuf2_CMR-8BJuLN4XYy9L46rncdZuAzJ9Bt-rZEVgo0YDecu374ZWD17aFxf8XPvtXdF4LQZBnthpcS3XN1uMkt41rRowXWYTI",
        "https://m.facebook.com/l.php?u=https%3A%2F%2Fhealthfromherbal.com%2Fwithout-asking-my-father-in-law-destroyed-my-cherished-flower-garden-to-install-his-own-swimming-pool-fate-dealt-him-a-harsh-blow-in-return%2F%3Ffbclid%3DIwZXh0bgNhZW0CMTAAAR3mJQyPOkl0WRUY3xrf01uPeULCgeNTGX-wwP39X_hNOrLODrBbSmr6uNQ_aem_Rr0ZdeO6JEnnG9rG-B2sUA&h=AT3iX_jRjC6N8WL9lVl282Cuhjm_arP0cNwc1usKfFLvOyioQCxtrr8VZu_r18MtfBoIJg3EnFWak45dfSqyIZ357aBhSWYFLYuX9Is0T5JlZjQRVHGWcB3oPfCy4i1fm1_u7ikObq4zmCc9Sn6T&__tn__=-UK-R&c[0]=AT3vP2KiX-dq7zSOgN06jemoSfhmlroROwvIhbKL3ZFBqFLKKUknoUlBG94pK-R1b8Nhf3zUXRzfYVuf2_CMR-8BJuLN4XYy9L46rncdZuAzJ9Bt-rZEVgo0YDecu374ZWD17aFxf8XPvtXdF4LQZBnthpcS3XN1uMkt41rRowXWYTI",
        "https://m.facebook.com/l.php?u=https%3A%2F%2Fhealthfromherbal.com%2Fmy-mother-in-law-joined-our-honeymoon-to-torment-me-i-didnt-stand-for-it-and-executed-the-perfect-retaliation-2%2F%3Ffbclid%3DIwZXh0bgNhZW0CMTAAAR2Y9Dm9qT2gZP6uXvmjHaCoRVpiyEyA6cZtgitrSOS37p7weIkH6w43myE_aem_ax9SSfkL63QC74mcDu949Q&h=AT3uRInjQs2EK6fmsckQsHk10blPR4kgMQgQs9PGF-A_38w3NOvspQu3HE9DTC8U5cjaEvBVXQUftI9vri6Gj_v3osg_0aXq87vYC0CdIoaATjsOxrFXvGwOMlshrX9fU-hsmJAhSMDoC_gYaRgc&__tn__=-UK-R&c[0]=AT3vP2KiX-dq7zSOgN06jemoSfhmlroROwvIhbKL3ZFBqFLKKUknoUlBG94pK-R1b8Nhf3zUXRzfYVuf2_CMR-8BJuLN4XYy9L46rncdZuAzJ9Bt-rZEVgo0YDecu374ZWD17aFxf8XPvtXdF4LQZBnthpcS3XN1uMkt41rRowXWYTI",
        "https://m.facebook.com/l.php?u=https%3A%2F%2Fhealthfromherbal.com%2Fmy-boyfriend-carried-his-mothers-homemade-meal-to-my-birthday-celebration-2%2F%3Ffbclid%3DIwZXh0bgNhZW0CMTAAAR0j5zG-EVVDrjNOFkRM7c8KPF60bf8psXWK9iDnLel6vzp5l-Dp2qVAaM8_aem_klefghYoGr_sfzghttSK-w&h=AT3TqXFD0A7BDfS0Y40QyzsLHISXhrkD7wr9u3eZoSD_MQvnI8hoSBwlx-EoTz4rDEdIX63P6X_1QEAJWT44KO9R-RQOMtAt-xyF9moZHgzW7b99Lrzn4EEOiEi_5g1hn0lsLCkKTgvpBiEwG2GC&__tn__=-UK-R&c[0]=AT3vP2KiX-dq7zSOgN06jemoSfhmlroROwvIhbKL3ZFBqFLKKUknoUlBG94pK-R1b8Nhf3zUXRzfYVuf2_CMR-8BJuLN4XYy9L46rncdZuAzJ9Bt-rZEVgo0YDecu374ZWD17aFxf8XPvtXdF4LQZBnthpcS3XN1uMkt41rRowXWYTI",
        "https://m.facebook.com/l.php?u=https%3A%2F%2Fhealthfromherbal.com%2Ffor-years-my-neighbor-has-been-returning-home-for-15-minutes-midday-i-finally-mustered-the-courage-to-sneak-a-look-3%2F%3Ffbclid%3DIwZXh0bgNhZW0CMTAAAR3mvlfvfelgQmwAAz2rLNlsdq1K55eFDARiddN1YI-6UhgmjUYlyOMgNI8_aem_vT5rNR7wnk4e6MSXyF8BDQ&h=AT0nBGQMY7XhwIV72rhAMAONL_ayW4SmFkguxZDhQdU9_mQgCepW1tG-CMgjNuvAmWstul1rDivAqV-yegckHrWh-Ivy_FYKJ2fOSeT6YA4lR3cr-pd1uJAdMxfjp4dp731lIiMV_Mu4hmKk92Uc&__tn__=-UK-R&c[0]=AT3vP2KiX-dq7zSOgN06jemoSfhmlroROwvIhbKL3ZFBqFLKKUknoUlBG94pK-R1b8Nhf3zUXRzfYVuf2_CMR-8BJuLN4XYy9L46rncdZuAzJ9Bt-rZEVgo0YDecu374ZWD17aFxf8XPvtXdF4LQZBnthpcS3XN1uMkt41rRowXWYTI",
        "https://m.facebook.com/l.php?u=https%3A%2F%2Fhealthfromherbal.com%2Fi-discovered-a-dubious-plot-after-a-mysterious-woman-greeted-me-nightly-now-i-wish-i-had-engaged-with-her-earlier%2F%3Ffbclid%3DIwZXh0bgNhZW0CMTAAAR3nqz99L1k9BRKdaCzUED7QxlBmJLsgfLoEwlbkEsndnEg0kdNDSuADJ7Q_aem_0XkP9LMSagMHPMUCCc8a7g&h=AT3bgKxFSrHcMg1NC1rjVK_6JthULa3ou3AADzbVb-p30ghlkwFTEMUSQLwWQOnjBTocvf8ZFtgloFwIVDvSj4VWGM011wYnI7KXkt2Z5lhU1AJWzgna-5pb9kqqGwNeiRudjqVIskVTmfa_-IgP&__tn__=-UK-R&c[0]=AT3vP2KiX-dq7zSOgN06jemoSfhmlroROwvIhbKL3ZFBqFLKKUknoUlBG94pK-R1b8Nhf3zUXRzfYVuf2_CMR-8BJuLN4XYy9L46rncdZuAzJ9Bt-rZEVgo0YDecu374ZWD17aFxf8XPvtXdF4LQZBnthpcS3XN1uMkt41rRowXWYTI",
        "https://m.facebook.com/l.php?u=https%3A%2F%2Fhealthfromherbal.com%2Fi-discovered-my-husband-was-getting-regular-payments-from-my-dad-upon-learning-the-reason-i-insisted-he-double-the-amount%2F%3Ffbclid%3DIwZXh0bgNhZW0CMTAAAR0NMZT2aNIbfA7BgROGHuSt1rQ91BtU0FkfcmRy668YrBbcbEBIbvhPpSs_aem_PIC3OMg-u85Pv7KFR-8eQQ&h=AT1bmw8hmV_RXbHWmkOEQkBwJvFuhYdWBQQJE5x1QdqNcq0sL97kEUSKy1rae2JvAWcxeNo9kwQM9QjtYUPmX2Vy6eCGfNHrkVCNHt35n6YXnt3OyEwuL3NUCAmsXiRmzVNhJz9VBi8-u_fjfor3&__tn__=-UK-R&c[0]=AT3vP2KiX-dq7zSOgN06jemoSfhmlroROwvIhbKL3ZFBqFLKKUknoUlBG94pK-R1b8Nhf3zUXRzfYVuf2_CMR-8BJuLN4XYy9L46rncdZuAzJ9Bt-rZEVgo0YDecu374ZWD17aFxf8XPvtXdF4LQZBnthpcS3XN1uMkt41rRowXWYTI",
        "https://m.facebook.com/l.php?u=https%3A%2F%2Fhealthfromherbal.com%2Fneighbors-persistently-pilfered-from-my-moms-garden-i-retaliated-and-it-became-a-local-sensation%2F%3Ffbclid%3DIwZXh0bgNhZW0CMTAAAR0ulIwBelDLBvXOH7tqeODOst0AZX3sgioVHexExHpchO93SpJgYgingns_aem_lD1KYhr-Pa8-TYipTq1eTw&h=AT21XhPO8KTZAX5T94R-9u_XN_HpxKXTkKziqA392j8zWpYb-ymmID5u0wFLUiKv2zPDxbgEJjaiAbYobbMBs4tIRbALvjQFNYjG9vHq_bc8AivfPUItwprcQjw8dlA8dPx4TUdyK5XEp_FbIvpu&__tn__=-UK-R&c[0]=AT3vP2KiX-dq7zSOgN06jemoSfhmlroROwvIhbKL3ZFBqFLKKUknoUlBG94pK-R1b8Nhf3zUXRzfYVuf2_CMR-8BJuLN4XYy9L46rncdZuAzJ9Bt-rZEVgo0YDecu374ZWD17aFxf8XPvtXdF4LQZBnthpcS3XN1uMkt41rRowXWYTI",
        "https://m.facebook.com/l.php?u=https%3A%2F%2Fhealthfromherbal.com%2Fmy-husband-failed-to-pick-us-up-from-the-hospital-after-our-baby-was-born-his-excuse-left-me-shocked%2F%3Ffbclid%3DIwZXh0bgNhZW0CMTAAAR37w5hNfDMRYDa8_gfyyHc0tnQgvByHksI1i1Cetr3UzXRO9wBVJ3TOJIM_aem_mgDfgvK179dzS2glbcMc5A&h=AT2BgZ2XAnEl2wBk4wlJYNhM3-O3Ske87WBFP0N4z2rMzTmInRdaTPL0wWGTswuTsLvXyOxf5jLq_MNO3qEcX_2JwiTQTRHh2BUnRbnAhEZds_a06CT4lpjKiIefLZeNefnMbbYxererJYvmVaMC&__tn__=-UK-R&c[0]=AT3vP2KiX-dq7zSOgN06jemoSfhmlroROwvIhbKL3ZFBqFLKKUknoUlBG94pK-R1b8Nhf3zUXRzfYVuf2_CMR-8BJuLN4XYy9L46rncdZuAzJ9Bt-rZEVgo0YDecu374ZWD17aFxf8XPvtXdF4LQZBnthpcS3XN1uMkt41rRowXWYTI",
        "https://m.facebook.com/l.php?u=https%3A%2F%2Fhealthfromherbal.com%2Fmy-in-laws-bribed-me-to-leave-their-daughter-because-they-considered-me-unworthy-of-her-they-were-astonished-by-the-results-of-their-scheme%2F%3Ffbclid%3DIwZXh0bgNhZW0CMTAAAR2NUYICALmJshSW7sJ-49wxrXgu5NT-LGJ0J74Vvua7QUbVBS9krPeDN-4_aem_QFfOftGTCBbivZEEJ6zDcw&h=AT13K2k1d8aGeRmzdfxq0Ck9Rs3LlHCxPqKpX1Bde30gSckQmfCp-ywLBjPxM4H8JhQUCA37wq770AvohIFwGiYwtE0nMQpP3M3YJzykEpJ5SkaPJYCEsuh-4CQF3fsACCZzWFKczdzoLk7igsXK&__tn__=-UK-R&c[0]=AT3vP2KiX-dq7zSOgN06jemoSfhmlroROwvIhbKL3ZFBqFLKKUknoUlBG94pK-R1b8Nhf3zUXRzfYVuf2_CMR-8BJuLN4XYy9L46rncdZuAzJ9Bt-rZEVgo0YDecu374ZWD17aFxf8XPvtXdF4LQZBnthpcS3XN1uMkt41rRowXWYTI",
        "https://m.facebook.com/l.php?u=https%3A%2F%2Fhealthfromherbal.com%2Fmy-in-laws-bribed-me-to-leave-their-daughter-because-they-considered-me-unworthy-of-her-they-were-astonished-by-the-results-of-their-scheme%2F%3Ffbclid%3DIwZXh0bgNhZW0CMTAAAR2NUYICALmJshSW7sJ-49wxrXgu5NT-LGJ0J74Vvua7QUbVBS9krPeDN-4_aem_QFfOftGTCBbivZEEJ6zDcw&h=AT13K2k1d8aGeRmzdfxq0Ck9Rs3LlHCxPqKpX1Bde30gSckQmfCp-ywLBjPxM4H8JhQUCA37wq770AvohIFwGiYwtE0nMQpP3M3YJzykEpJ5SkaPJYCEsuh-4CQF3fsACCZzWFKczdzoLk7igsXK&__tn__=-UK-R&c[0]=AT3vP2KiX-dq7zSOgN06jemoSfhmlroROwvIhbKL3ZFBqFLKKUknoUlBG94pK-R1b8Nhf3zUXRzfYVuf2_CMR-8BJuLN4XYy9L46rncdZuAzJ9Bt-rZEVgo0YDecu374ZWD17aFxf8XPvtXdF4LQZBnthpcS3XN1uMkt41rRowXWYTI",
        "https://m.facebook.com/l.php?u=https%3A%2F%2Fhealthfromherbal.com%2Fi-discovered-my-neighbors-had-been-covertly-using-my-hot-tub-for-a-year-i-gave-them-a-memorable-lesson%2F%3Ffbclid%3DIwZXh0bgNhZW0CMTAAAR19KHuWD5hM2knRCqVGuv5lS9XM9SJthZxG73atLZHt62uYREVTwk157ok_aem_3zLRHRyy8MCuDzpcCmjNCw&h=AT3Npzqyp8BpnNdCH85BMnOvKh3_1M-Hqv3K4HbdrMhKhe_xW-D9zJMaNCWtYGmoYTvqnY-MCDA3jIumDwGNPhWL6FS8OJ7fgOZCxJiMmT-nzT8B6IyHlxw5h3_Z_mCw8A_0ZVLMxda7eNPctqr_&__tn__=-UK-R&c[0]=AT3vP2KiX-dq7zSOgN06jemoSfhmlroROwvIhbKL3ZFBqFLKKUknoUlBG94pK-R1b8Nhf3zUXRzfYVuf2_CMR-8BJuLN4XYy9L46rncdZuAzJ9Bt-rZEVgo0YDecu374ZWD17aFxf8XPvtXdF4LQZBnthpcS3XN1uMkt41rRowXWYTI",
        "https://m.facebook.com/l.php?u=https%3A%2F%2Fhealthfromherbal.com%2Fdemanding-parents-expect-nanny-to-pay-1000-for-vacation-flights-their-harsh-reality-check-4%2F%3Ffbclid%3DIwZXh0bgNhZW0CMTAAAR1f-AKLsjrpboZ4pzq3gQjQM90kCCe2wDmZeef0NYMUYSeppDuiSZeSTzs_aem_4hC0WffS8qoBc2K54YbVJg&h=AT36CeHw5bk4yxNaP0vRDLeptGmmMb5TyqclFw6xnKaCiJQEMaWX_ctfYYClEAxQCpqcG_A-TDigV3bKXBDuTmC86H1_Jv73k0Rt4m6KnBB1YVoYpiBpLj8Agnqs_2tLEo3LtFmNT3AavDvsZ3FU&__tn__=-UK-R&c[0]=AT3vP2KiX-dq7zSOgN06jemoSfhmlroROwvIhbKL3ZFBqFLKKUknoUlBG94pK-R1b8Nhf3zUXRzfYVuf2_CMR-8BJuLN4XYy9L46rncdZuAzJ9Bt-rZEVgo0YDecu374ZWD17aFxf8XPvtXdF4LQZBnthpcS3XN1uMkt41rRowXWYTI",
        "https://m.facebook.com/l.php?u=https%3A%2F%2Fhealthfromherbal.com%2Fhusband-declined-to-have-biological-children-and-suggested-adoption-i-was-stunned-by-his-conversation-with-his-mother%2F%3Ffbclid%3DIwZXh0bgNhZW0CMTAAAR2JvZPD9T8qLzZegN9y1bGLHPjAobf6JbFj3heLYOobLIcdv-gRBLXzOJo_aem_qRkdZXoRfI-C-BUUoMpRlw&h=AT1MvYlrdHU97k8cD9v56KAikXGMeSF6RrgbUSqb-7oo1GL2gu_79Y-pEIURbCEkiq3jfK11qojXt_sm6O2Nbm6GhTz-dorc9ncaQSZVC4_T5u2UlD0tM2gtqJYZPV-ZJyRP8X5mel-LmdmqRA0t&__tn__=-UK-R&c[0]=AT3vP2KiX-dq7zSOgN06jemoSfhmlroROwvIhbKL3ZFBqFLKKUknoUlBG94pK-R1b8Nhf3zUXRzfYVuf2_CMR-8BJuLN4XYy9L46rncdZuAzJ9Bt-rZEVgo0YDecu374ZWD17aFxf8XPvtXdF4LQZBnthpcS3XN1uMkt41rRowXWYTI",
        "https://m.facebook.com/l.php?u=https%3A%2F%2Fhealthfromherbal.com%2Fethans-return-from-a-business-trip-takes-a-shocking-turn-at-the-er-discovers-another-man-by-his-wifes-side%2F%3Ffbclid%3DIwZXh0bgNhZW0CMTAAAR37w5hNfDMRYDa8_gfyyHc0tnQgvByHksI1i1Cetr3UzXRO9wBVJ3TOJIM_aem_mgDfgvK179dzS2glbcMc5A&h=AT1cxNBKy0uJiTP-_L3KMoz-m1E662CeSPi_sNs1gszKZWGEFP5OlvYuU21A3AQnn9Jfc-YEGzuPmkOZYj4FxTqNyl2Rw7JQc3_wDOR7186H8589Wk6JXbLIVKxEVJMIAyCZpF_CJwg5TVejCfuP&__tn__=-UK-R&c[0]=AT3vP2KiX-dq7zSOgN06jemoSfhmlroROwvIhbKL3ZFBqFLKKUknoUlBG94pK-R1b8Nhf3zUXRzfYVuf2_CMR-8BJuLN4XYy9L46rncdZuAzJ9Bt-rZEVgo0YDecu374ZWD17aFxf8XPvtXdF4LQZBnthpcS3XN1uMkt41rRowXWYTI",
        "https://m.facebook.com/l.php?u=https%3A%2F%2Fhealthfromherbal.com%2Fdelivery-man-left-a-note-on-my-pizza-box-it-ended-up-saving-me-from-a-catastrophic-engagement%2F%3Ffbclid%3DIwZXh0bgNhZW0CMTAAAR3mJQyPOkl0WRUY3xrf01uPeULCgeNTGX-wwP39X_hNOrLODrBbSmr6uNQ_aem_Rr0ZdeO6JEnnG9rG-B2sUA&h=AT0qZs8IDe6VQUqk47H8gMOdrarzAyzG-fMSFolIacqxBI84UZoB2I_E0LVzxyDikfrCvyzHf4-A0E57vV4sonPPmhy-a5BT7pAortHXNqRXxUWVFYrtgGVfPavxM9EkkMK9QoZBg2ODiyPBVX0y&__tn__=-UK-R&c[0]=AT3vP2KiX-dq7zSOgN06jemoSfhmlroROwvIhbKL3ZFBqFLKKUknoUlBG94pK-R1b8Nhf3zUXRzfYVuf2_CMR-8BJuLN4XYy9L46rncdZuAzJ9Bt-rZEVgo0YDecu374ZWD17aFxf8XPvtXdF4LQZBnthpcS3XN1uMkt41rRowXWYTI",
        "https://m.facebook.com/l.php?u=https%3A%2F%2Fhealthfromherbal.com%2Fmy-brother-had-our-grandmother-overburdened-with-housework-when-i-witnessed-her-scrubbing-the-floors-i-decided-to-teach-him-a-lesson%2F%3Ffbclid%3DIwZXh0bgNhZW0CMTAAAR1JFuqwEokWKHNEyxenLKtrda1StKDsSS-YkYHN8_haWJK8DygOJimjvz0_aem_JvaS4kATwD-lBdr4vMFj3A&h=AT17dF6QE_wi1X2jrAoaQT3tZ2GitLuz4vybngK5pzXjTL6glgJeFlYEHLM35Yk_MqTCnkn3l0w9iCO-xdpFxpaLOyhB8pr54oOjv2pJhMhflN0myHO5qzlwCB5MV2eqjKK8aOlNrXR2OVsskAjD&__tn__=-UK-R&c[0]=AT3vP2KiX-dq7zSOgN06jemoSfhmlroROwvIhbKL3ZFBqFLKKUknoUlBG94pK-R1b8Nhf3zUXRzfYVuf2_CMR-8BJuLN4XYy9L46rncdZuAzJ9Bt-rZEVgo0YDecu374ZWD17aFxf8XPvtXdF4LQZBnthpcS3XN1uMkt41rRowXWYTI",
        "https://m.facebook.com/l.php?u=https%3A%2F%2Fhealthfromherbal.com%2Fmy-mother-in-law-insists-i-pay-her-over-200-for-house-cleaning-services-i-never-requested%2F%3Ffbclid%3DIwZXh0bgNhZW0CMTAAAR3mvlfvfelgQmwAAz2rLNlsdq1K55eFDARiddN1YI-6UhgmjUYlyOMgNI8_aem_vT5rNR7wnk4e6MSXyF8BDQ&h=AT00mdpXT3qF2c9rwkQAqv-uaT6lejo46v-8Z9JbwVemoy6t74mXXb2RdCLgmUnEU4HlXWRYoWxWdQHD8Lt-fGKwnQ8aS8OY-RrvxVEicDZ9mZ4TnsJKXDQckBIwcRGvIRWZTglJ0s4H6KwdVOiJ&__tn__=-UK-R&c[0]=AT3vP2KiX-dq7zSOgN06jemoSfhmlroROwvIhbKL3ZFBqFLKKUknoUlBG94pK-R1b8Nhf3zUXRzfYVuf2_CMR-8BJuLN4XYy9L46rncdZuAzJ9Bt-rZEVgo0YDecu374ZWD17aFxf8XPvtXdF4LQZBnthpcS3XN1uMkt41rRowXWYTI",
        "https://m.facebook.com/l.php?u=https%3A%2F%2Fhealthfromherbal.com%2Fentitled-maitre-d-scrapped-my-booking-for-my-in-laws-birthdays-over-our-appearance-quickly-rectified%2F%3Ffbclid%3DIwZXh0bgNhZW0CMTAAAR3zPS7BdhfxiS96n0KVLlI0oQdJR41hVdeMcaShfsab4G4AOJPB6afvh18_aem_hDJu-BFil1pDL1GZDDNmUg&h=AT2tpx-GM3tANMlhjBcHKr4_zP8dghsG5qjpuK3uhU0Kia64h1iOeux88M3CwcBUksO46cSWnQnjzD_L2pJfmW46-ZfAgGG2kJzc9ibmogFNhPhJAvO9MmqgTUlVRREuFashT2B5B2b1CmWmI8vn&__tn__=-UK-R&c[0]=AT3vP2KiX-dq7zSOgN06jemoSfhmlroROwvIhbKL3ZFBqFLKKUknoUlBG94pK-R1b8Nhf3zUXRzfYVuf2_CMR-8BJuLN4XYy9L46rncdZuAzJ9Bt-rZEVgo0YDecu374ZWD17aFxf8XPvtXdF4LQZBnthpcS3XN1uMkt41rRowXWYTI",
        "https://m.facebook.com/l.php?u=https%3A%2F%2Fhealthfromherbal.com%2Fmy-former-partners-new-love-reached-out-to-ask-a-single-pivotal-question-the-message-absolutely-floored-me%2F%3Ffbclid%3DIwZXh0bgNhZW0CMTAAAR35fNJs9-78cw7uO9adlP4mCvIU41Sh8ZtFRB-3cOVf040MVrdkddBypHo_aem_g0JZHJEk7G8wVhxstMas1Q&h=AT3Y12cqnWJKSMkZU8viHP6NiTGHhzEG2gZ_SWGvzMMcmTUDYn-deJ6WgyTQ8hdsNQUJsFNWRBH-oJjfLCTlDkkpXyNlVSMdLDd384gmOBi9vyxqVAD0ySnTpvlMRUfx3L49KCRO3Q3bEYLZUFmK&__tn__=-UK-R&c[0]=AT3vP2KiX-dq7zSOgN06jemoSfhmlroROwvIhbKL3ZFBqFLKKUknoUlBG94pK-R1b8Nhf3zUXRzfYVuf2_CMR-8BJuLN4XYy9L46rncdZuAzJ9Bt-rZEVgo0YDecu374ZWD17aFxf8XPvtXdF4LQZBnthpcS3XN1uMkt41rRowXWYTI",
        "https://m.facebook.com/l.php?u=https%3A%2F%2Fhealthfromherbal.com%2Fmy-neighbor-ruinously-splashed-my-windows-with-paint-after-i-declined-to-shell-out-2000-for-her-canines-care%2F%3Ffbclid%3DIwZXh0bgNhZW0CMTAAAR3wkRKK6OMxXRvXyu47k8QsBygeI-GGUNYt24x5ZQP05BfFElUEitonT2E_aem_yDNuUKYg7HjT6hZXgg3Npg&h=AT1Cfjsg0zmKKY_0q765KcfkvcLWUYJJVEOwoBQC4oOHxLMUsq-wWi6DXaxZwSjFf5e-MJHwZgEZKM6reL9CH4reetcmV4umdP3YS3N958xM7Kscj92g96uP2uK2dG6kmLG4mWPrLtniYXRplHkD&__tn__=-UK-R&c[0]=AT3vP2KiX-dq7zSOgN06jemoSfhmlroROwvIhbKL3ZFBqFLKKUknoUlBG94pK-R1b8Nhf3zUXRzfYVuf2_CMR-8BJuLN4XYy9L46rncdZuAzJ9Bt-rZEVgo0YDecu374ZWD17aFxf8XPvtXdF4LQZBnthpcS3XN1uMkt41rRowXWYTI",
        "https://m.facebook.com/l.php?u=https%3A%2F%2Fhealthfromherbal.com%2Fboy-rescues-millionaires-granddaughter-and-brings-her-to-her-house-the-revelations-inside-their-estate-stun-him%2F%3Ffbclid%3DIwZXh0bgNhZW0CMTAAAR1RoB76CCl6EAitBNJjns5Phub8-5FY4sAsS_-ABs06J-mXMWcWVxCp39k_aem_TTv1Ut8WtpYoBBfGjA_Arg&h=AT0KqWzWas4IGODdqK4lXxjiUv-RZojfZPg9mPihQS0VzuiXEUcjLKASHZwGwHgdMelI_DXK7TpIfUb8wDMwY6S4gnyfW9lGwMCyX-bTiYvgyzSkYA4TkjxO0-R_-fdrvHr9i53ng4xUldvre98d&__tn__=-UK-R&c[0]=AT3vP2KiX-dq7zSOgN06jemoSfhmlroROwvIhbKL3ZFBqFLKKUknoUlBG94pK-R1b8Nhf3zUXRzfYVuf2_CMR-8BJuLN4XYy9L46rncdZuAzJ9Bt-rZEVgo0YDecu374ZWD17aFxf8XPvtXdF4LQZBnthpcS3XN1uMkt41rRowXWYTI",
        "https://m.facebook.com/l.php?u=https%3A%2F%2Fhealthfromherbal.com%2Fmy-husband-and-his-mom-ate-all-the-food-i-had-prepared-for-the-kids-and-myself%2F%3Ffbclid%3DIwZXh0bgNhZW0CMTAAAR0kb22W_lfHUDIUJpmvcK0_xcTGNn5P8J_7A6lwrqnYRymixkF_gVFKoCA_aem_kRFJ19yerHfy4vlkkOMF8Q&h=AT2sMLY1MlSWECFvAJBYmWe3TB_Vd5ayKsTd5SfjZ1yAPDb72BJCF7rce2RXkH9q507F69m51WUGsXYNju3KlKDU9l0k-Mex0rmbUzj-Cw2FKnz9ZZ1B2taPhrlkzXhNpTf3FVgX3_1SenAIKKJd&__tn__=-UK-R&c[0]=AT3vP2KiX-dq7zSOgN06jemoSfhmlroROwvIhbKL3ZFBqFLKKUknoUlBG94pK-R1b8Nhf3zUXRzfYVuf2_CMR-8BJuLN4XYy9L46rncdZuAzJ9Bt-rZEVgo0YDecu374ZWD17aFxf8XPvtXdF4LQZBnthpcS3XN1uMkt41rRowXWYTI",
        "https://m.facebook.com/l.php?u=https%3A%2F%2Fhealthfromherbal.com%2Fwoman-turns-down-her-sisters-wealthy-fiances-job-proposal-the-outcome-flips-her-life-upside-down%2F%3Ffbclid%3DIwZXh0bgNhZW0CMTAAAR0tzN_Js8Yjmfs_yU-PQBscLLk3C3bGDB2hTGV0gasb0BbXBII8hhEBeB4_aem_HJ2vtpjklO3v9WNuJwIVQA&h=AT1QKb926tqCKMCBmi3DgLm8rCsGfIwk9GLML_EF2aAM4C_QOD8rx9iuCPHb88WAzal9hFMtvRaKYg_NNsYj4c2sjKeBp_F3dBJjlayUkcKPY8pAuH8jBK-vz6A1d66s63OndlUnSS1cduS-3Cys&__tn__=-UK-R&c[0]=AT3vP2KiX-dq7zSOgN06jemoSfhmlroROwvIhbKL3ZFBqFLKKUknoUlBG94pK-R1b8Nhf3zUXRzfYVuf2_CMR-8BJuLN4XYy9L46rncdZuAzJ9Bt-rZEVgo0YDecu374ZWD17aFxf8XPvtXdF4LQZBnthpcS3XN1uMkt41rRowXWYTI",
        "https://m.facebook.com/l.php?u=https%3A%2F%2Fhealthfromherbal.com%2Fmy-parents-insisted-i-give-back-my-new-bed-to-provide-them-with-funds-for-my-half-sisters-car-acquisition%2F%3Ffbclid%3DIwZXh0bgNhZW0CMTAAAR1F4P_uD7ipYHSWXFqKJudSXAd3Y9HmD4izE1EIX3FBdvjT_54Q1F3uSUo_aem_QuJW1RJmEWbNnbMsrSIT3Q&h=AT3YQV3z1H5szv32mNdLBX2Q_LJbt80zVDZjXfzk_eeGJeAxx76bDwafKWm09kj50HkF0YdpjZryDSLd2vcSbM9RD1pEIKLjTR7lr4NA64sHNDs4Z7skGCnYpaisyh4oju7P2Jqpl4Mjps_g-PlX&__tn__=-UK-R&c[0]=AT3vP2KiX-dq7zSOgN06jemoSfhmlroROwvIhbKL3ZFBqFLKKUknoUlBG94pK-R1b8Nhf3zUXRzfYVuf2_CMR-8BJuLN4XYy9L46rncdZuAzJ9Bt-rZEVgo0YDecu374ZWD17aFxf8XPvtXdF4LQZBnthpcS3XN1uMkt41rRowXWYTI",
        "https://m.facebook.com/l.php?u=https%3A%2F%2Fhealthfromherbal.com%2Fmy-former-spouse-requested-i-serve-as-a-surrogate-for-him-and-his-new-partner-the-outcome-was-unexpected-for-him%2F%3Ffbclid%3DIwZXh0bgNhZW0CMTAAAR2O_rdVSuMhCxIW_WGBYSEfQ_8KH6u0PLXU1niehvYXmaEJ4cC0u5hhYX8_aem_F2NUNklp3gZZNFIsZiq_fg&h=AT07M80yTU3NTKGRnkOl4i3VGbzrKm5aXPAqwvZOXgeZjQNLkYTY-jyC-cIXBp88knyv1GtxoFEVGTytLhhjlNoaf5XEKjQllwVPaclJeUU2cLnLpy5tbjDXYVgNo5mJU8SNpR8su4vqRG_YazL3&__tn__=-UK-R&c[0]=AT3vP2KiX-dq7zSOgN06jemoSfhmlroROwvIhbKL3ZFBqFLKKUknoUlBG94pK-R1b8Nhf3zUXRzfYVuf2_CMR-8BJuLN4XYy9L46rncdZuAzJ9Bt-rZEVgo0YDecu374ZWD17aFxf8XPvtXdF4LQZBnthpcS3XN1uMkt41rRowXWYTI",
        "https://m.facebook.com/l.php?u=https%3A%2F%2Fhealthfromherbal.com%2Fhusband-who-abandoned-his-spouse-of-nearly-half-a-century-pleads-for-forgiveness-on-his-knees-after-several-months-3%2F%3Ffbclid%3DIwZXh0bgNhZW0CMTAAAR0j5zG-EVVDrjNOFkRM7c8KPF60bf8psXWK9iDnLel6vzp5l-Dp2qVAaM8_aem_klefghYoGr_sfzghttSK-w&h=AT3W-GMOszDoD-LSBA1mcztLFKy3hA9GfNpNMOfHkcZhHw722_xwhpfv_7rGRQkgJpsGojO3Jeo-bDFqNN2zR_JbT5CG3YGWBAFY9jHNegbbkaYivcZgUKwVUOXkWdw6qxIGyYmzxwO-lXO0vlw-&__tn__=-UK-R&c[0]=AT3vP2KiX-dq7zSOgN06jemoSfhmlroROwvIhbKL3ZFBqFLKKUknoUlBG94pK-R1b8Nhf3zUXRzfYVuf2_CMR-8BJuLN4XYy9L46rncdZuAzJ9Bt-rZEVgo0YDecu374ZWD17aFxf8XPvtXdF4LQZBnthpcS3XN1uMkt41rRowXWYTI",
        "https://m.facebook.com/l.php?u=https%3A%2F%2Fhealthfromherbal.com%2Fwoman-attends-dinner-to-meet-her-fiances-parents-and-discovers-another-woman-impersonating-her%2F%3Ffbclid%3DIwZXh0bgNhZW0CMTAAAR22-lpdfzXkqdaRjeGISZJxGhmqi6Kh0csO3QuS9nJHYkIkmp1vLvNbmZE_aem_uE4o4190MYqSEySAaFjaQg&h=AT1t61ky-BmHjeIcpssHIHTIkXqo43AoEvSWSZElldjz65iCUDWbkTKQQ7WA5LvHy8sUJWfkhzpYD9g4JHkYIKQM347slPeOLVPfg34xtwPO9p3qGN2RKzmo9m-e1D2YPvlRVd0bSqNUUP6PMf1c&__tn__=-UK-R&c[0]=AT3vP2KiX-dq7zSOgN06jemoSfhmlroROwvIhbKL3ZFBqFLKKUknoUlBG94pK-R1b8Nhf3zUXRzfYVuf2_CMR-8BJuLN4XYy9L46rncdZuAzJ9Bt-rZEVgo0YDecu374ZWD17aFxf8XPvtXdF4LQZBnthpcS3XN1uMkt41rRowXWYTI",
        "https://m.facebook.com/l.php?u=https%3A%2F%2Fhealthfromherbal.com%2Fmy-mother-in-law-booked-the-adjacent-room-during-our-honeymoon-she-aimed-to-disrupt-our-trip-but-fate-had-other-plans%2F%3Ffbclid%3DIwZXh0bgNhZW0CMTAAAR3jIjUHnYoUXEcG4yAeEftVarWXR5O_nJfJZ9JR_tjfml5c5CduSeyeQT4_aem_m0o8ERVJI9pQdC9jFd3C8w&h=AT2dixpZ9o6psAOmDr4oKItLP1f4SJqngdsEub3d7hhsgCA3Ta8Au_A6w4bI4Hb5U9NMR5XDjkRPZY9wVojPw3gW9I4hR47aDXu89guN4seeihiPKU5JxE_xu6LhfP_KhfuQtdSegj_6Nh7Ipiy1&__tn__=-UK-R&c[0]=AT3vP2KiX-dq7zSOgN06jemoSfhmlroROwvIhbKL3ZFBqFLKKUknoUlBG94pK-R1b8Nhf3zUXRzfYVuf2_CMR-8BJuLN4XYy9L46rncdZuAzJ9Bt-rZEVgo0YDecu374ZWD17aFxf8XPvtXdF4LQZBnthpcS3XN1uMkt41rRowXWYTI",
        "https://m.facebook.com/l.php?u=https%3A%2F%2Fhealthfromherbal.com%2Fmy-father-brought-me-to-his-workplace-and-left-me-in-a-lounge-soon-after-his-employer-entered-and-drove-me-to-tears%2F%3Ffbclid%3DIwZXh0bgNhZW0CMTAAAR35fNJs9-78cw7uO9adlP4mCvIU41Sh8ZtFRB-3cOVf040MVrdkddBypHo_aem_g0JZHJEk7G8wVhxstMas1Q&h=AT1-cDPCFN2_G9_iYj3Kj0oG9s8TsclWKkqvK3wucjwHwdwGC0Nm8iY5o6F6-qKlXdnpk44wrvaQhtWFKfUsN6a5fsWcpdherQuaiDG9JOI4BDkKPJcLMsLHXUEVr-cyQwkky-kVkp1Z68M2PFBz&__tn__=-UK-R&c[0]=AT3vP2KiX-dq7zSOgN06jemoSfhmlroROwvIhbKL3ZFBqFLKKUknoUlBG94pK-R1b8Nhf3zUXRzfYVuf2_CMR-8BJuLN4XYy9L46rncdZuAzJ9Bt-rZEVgo0YDecu374ZWD17aFxf8XPvtXdF4LQZBnthpcS3XN1uMkt41rRowXWYTI",
        "https://m.facebook.com/l.php?u=https%3A%2F%2Fhealthfromherbal.com%2Fwoman-unearths-astonishing-secret-after-tracking-twin-girls-who-sit-unaccompanied-in-park-each-night%2F%3Ffbclid%3DIwZXh0bgNhZW0CMTAAAR2Y9Dm9qT2gZP6uXvmjHaCoRVpiyEyA6cZtgitrSOS37p7weIkH6w43myE_aem_ax9SSfkL63QC74mcDu949Q&h=AT3goCqqfMnUvpTXosadJbitovah8fIP7-wo55iYZ5M9r-olPfM4o4I1ysjCU67kU_kIeYhYLM7KElaSfZ9GGxGFvdS7XPxVNTZzqr5-QWd45INrYXL-agchx9tuXzU32X6gw5cvxBJiahrc00Vc&__tn__=-UK-R&c[0]=AT3vP2KiX-dq7zSOgN06jemoSfhmlroROwvIhbKL3ZFBqFLKKUknoUlBG94pK-R1b8Nhf3zUXRzfYVuf2_CMR-8BJuLN4XYy9L46rncdZuAzJ9Bt-rZEVgo0YDecu374ZWD17aFxf8XPvtXdF4LQZBnthpcS3XN1uMkt41rRowXWYTI",
        "https://m.facebook.com/l.php?u=https%3A%2F%2Fhealthfromherbal.com%2Fmy-former-spouse-who-abandoned-me-with-an-infant-contacted-me-after-12-years-insisting-on-talking-to-his-daughter-his-motive-astounded-me%2F%3Ffbclid%3DIwZXh0bgNhZW0CMTAAAR0a9fGKqWMRwiQ0Y4FW11vrJAUk9hgBSDdFWD4pjmaFOImvXawxt7Li_98_aem_1ypt1h25HaGCP6hNI6PpPg&h=AT3h3Hpgy0cur85pU2jDZeH8oI0oBKbbfg4iLoNikVjKQ5zMue75UdVPZnzXx1wCN6OfkctpQ3nmYvNK_j9LcTKlzVf4eM40g09EA6VpVsywP-9vc_rqi6nOsZPnGdvHLplGA24BuXVo1ZzUjSig&__tn__=-UK-R&c[0]=AT3vP2KiX-dq7zSOgN06jemoSfhmlroROwvIhbKL3ZFBqFLKKUknoUlBG94pK-R1b8Nhf3zUXRzfYVuf2_CMR-8BJuLN4XYy9L46rncdZuAzJ9Bt-rZEVgo0YDecu374ZWD17aFxf8XPvtXdF4LQZBnthpcS3XN1uMkt41rRowXWYTI",
        "https://m.facebook.com/l.php?u=https%3A%2F%2Fhealthfromherbal.com%2Fi-caught-my-husband-using-my-college-savings-to-buy-a-new-tv-and-playstation-he-was-sorely-mistaken%2F%3Ffbclid%3DIwZXh0bgNhZW0CMTAAAR0kb22W_lfHUDIUJpmvcK0_xcTGNn5P8J_7A6lwrqnYRymixkF_gVFKoCA_aem_kRFJ19yerHfy4vlkkOMF8Q&h=AT0zBjLZ57ie-Lor7JLcGj-Im8BmWNfO8lix8991Dd5mRsj-uSZY1lMpqifxA07qYa-XKwMzn12wogFO6oO94TfjtyMvyKxL2s1BHKIqOnqQVNC_jUsf62Qg9pCGz2gdfcyGemEFBa4xzeJlUJYp&__tn__=-UK-R&c[0]=AT3vP2KiX-dq7zSOgN06jemoSfhmlroROwvIhbKL3ZFBqFLKKUknoUlBG94pK-R1b8Nhf3zUXRzfYVuf2_CMR-8BJuLN4XYy9L46rncdZuAzJ9Bt-rZEVgo0YDecu374ZWD17aFxf8XPvtXdF4LQZBnthpcS3XN1uMkt41rRowXWYTI",
        "https://m.facebook.com/l.php?u=https%3A%2F%2Fhealthfromherbal.com%2Fwhere-did-you-acquire-that-locket-a-veteran-custodian-exclaimed-at-me-my-existence-transformed-after-a-brief-conversation-with-him%2F%3Ffbclid%3DIwZXh0bgNhZW0CMTAAAR2aW9aWkQ3e6oZRLY1ycxE9LG3gm6ZQ-eVtDeikSlLSZamCNWvZAC-FgX0_aem_fpsAqH-vuGAfjVf1eNz1MQ&h=AT2fHPG_JYM567jksnamMF4_GQBU5YH0vXqc-UXzg42LkdjySLXy5HWDsKHZnqw4aLgpq2Zoe3wD-iJ8Vip1JvHdUlBPhXDpDZSrXUJPguHyJoeryWnL9vXetXMKjXXDlMD-f2nJPXqVElm0zLEn&__tn__=-UK-R&c[0]=AT3vP2KiX-dq7zSOgN06jemoSfhmlroROwvIhbKL3ZFBqFLKKUknoUlBG94pK-R1b8Nhf3zUXRzfYVuf2_CMR-8BJuLN4XYy9L46rncdZuAzJ9Bt-rZEVgo0YDecu374ZWD17aFxf8XPvtXdF4LQZBnthpcS3XN1uMkt41rRowXWYTI",
        "https://m.facebook.com/l.php?u=https%3A%2F%2Fhealthfromherbal.com%2Fmy-husband-made-a-menu-and-demands-that-i-cook-with-it-every-day%2F%3Ffbclid%3DIwZXh0bgNhZW0CMTAAAR1m1xqeVt0bKZpmHJH9bAru12OgYm70MHi0GLmnlS8pjTKY9ljisVxNAoI_aem_k96ffPebsHWA6t064fF4mQ&h=AT0y1r1bYruVldUIMcwRi6FpCCwt18jzLocVdbVq40cJrQgwS2x8LIjdwzkbTTyeNOoLZlVvidbEmGer15_C1-ihlbue3tujfGlG3y_iFKB9ydzaQGM0ZtOv--RZXexhijK8Y-_5TfJNd5r7-047&__tn__=-UK-R&c[0]=AT3vP2KiX-dq7zSOgN06jemoSfhmlroROwvIhbKL3ZFBqFLKKUknoUlBG94pK-R1b8Nhf3zUXRzfYVuf2_CMR-8BJuLN4XYy9L46rncdZuAzJ9Bt-rZEVgo0YDecu374ZWD17aFxf8XPvtXdF4LQZBnthpcS3XN1uMkt41rRowXWYTI",
        "https://m.facebook.com/l.php?u=https%3A%2F%2Fhealthfromherbal.com%2Fi-walked-up-to-my-groom-at-the-altar-all-of-a-sudden-a-woman-in-white-dress-appeared-behind-his-back%2F%3Ffbclid%3DIwZXh0bgNhZW0CMTAAAR1m1xqeVt0bKZpmHJH9bAru12OgYm70MHi0GLmnlS8pjTKY9ljisVxNAoI_aem_k96ffPebsHWA6t064fF4mQ&h=AT1TfC5GLYoacjc3rPKZqvO8yNhYi_lsCi3lcBKy7CHLRFNPIzbspa7_wkMW7AXHsDivfy4ge0raML6eTJbArSsUD-faqDHtljRKv-t1FrinCjK9c7B_1pHMfPeboPjFZeZ83ERuAVLVzDB4BlS_&__tn__=-UK-R&c[0]=AT3vP2KiX-dq7zSOgN06jemoSfhmlroROwvIhbKL3ZFBqFLKKUknoUlBG94pK-R1b8Nhf3zUXRzfYVuf2_CMR-8BJuLN4XYy9L46rncdZuAzJ9Bt-rZEVgo0YDecu374ZWD17aFxf8XPvtXdF4LQZBnthpcS3XN1uMkt41rRowXWYTI",
        "https://m.facebook.com/l.php?u=https%3A%2F%2Fhealthfromherbal.com%2Fmy-daughter-called-me-telling-about-a-screaming-woman-in-my-bedroom-i-rushed-home-but-was-not-ready-to-see-this%2F%3Ffbclid%3DIwZXh0bgNhZW0CMTAAAR19KHuWD5hM2knRCqVGuv5lS9XM9SJthZxG73atLZHt62uYREVTwk157ok_aem_3zLRHRyy8MCuDzpcCmjNCw&h=AT1iofar5R7115VGY_AEyzjsl-0m0dwKhOVbrmsD9jRyBZGJWkrFcMVhpb4EABFXL4-CiQ39aE_HYCnl3XPXnP47-Zhf2MFq5_vjFIOrkvmj3_wfaWRywBdthIrUGZPlBP_kacwWY3AXUDilFgZO&__tn__=-UK-R&c[0]=AT3vP2KiX-dq7zSOgN06jemoSfhmlroROwvIhbKL3ZFBqFLKKUknoUlBG94pK-R1b8Nhf3zUXRzfYVuf2_CMR-8BJuLN4XYy9L46rncdZuAzJ9Bt-rZEVgo0YDecu374ZWD17aFxf8XPvtXdF4LQZBnthpcS3XN1uMkt41rRowXWYTI"
    ]
}