{
    "browser_testing":{
        "test_api":"https://jsonplaceholder.typicode.com/todos/1",
        "keyword_contain":"userId"
    },
    "random_range":"9:14",
    "work_urls":[
        "https://m.facebook.com/l.php?u=https%3A%2F%2Finsurancetutorial.site%2F7-healthy-chicken-recipes-for-dinner%2F%3Ffbclid%3DIwZXh0bgNhZW0CMTAAAR398mQ9MGEkzUqHsHjd6ArvMkTbE0pPOX1p6CQMMfV-LacMmGtdElEBL5o_aem_Z-fM9GgfymUk6mPvR2olZA&h=AT39bnawVIoseMgW1q_ouzYWJ_ZT2cxtDg3rAixClui2DR1ol1P88cs33FLF1X0EffKBINXSJoAj2dEujf4NYyx_ImKzUa1wk_RUaGY6nTT3Yn5C65AhekRONDnzRNLW16JtG0fwsqSziGO-XnoG&__tn__=-UK-R&c[0]=AT2Xo9I3xocIJ1fhf_Zq0TLf_AVWp6An1BJ5lhfUGp3y1JouacjPFO3LYtiJo-etzoXXZDyZ1JZgI6CWKMEZ3FFTys8CG9IQBJwjOuDdI7s7rjCTecHln3vSh0hwJg0r-EULh2e-5lGHo0iLVPrCU0JvcdngUbZXZCzefMUpjc756Mo",
"https://m.facebook.com/l.php?u=https%3A%2F%2Finsurancetutorial.site%2F8-delicious-jowar-recipes-for-weight-loss%2F%3Ffbclid%3DIwZXh0bgNhZW0CMTAAAR398mQ9MGEkzUqHsHjd6ArvMkTbE0pPOX1p6CQMMfV-LacMmGtdElEBL5o_aem_Z-fM9GgfymUk6mPvR2olZA&h=AT2mgMDJ0szr2CMzNMnzonfmQC2HEKSJrzf8XtjxR83ULj05bplKMjgNwuM2Nj-DJa7cSP2oHMi5Hnx_Ll_YhTad8AyWeCUBMwRT_QCNGsEnXiLpR6rHHv4hnxh8WjInxiNhpQrl348krfYLoPmF&__tn__=-UK-R&c[0]=AT2Xo9I3xocIJ1fhf_Zq0TLf_AVWp6An1BJ5lhfUGp3y1JouacjPFO3LYtiJo-etzoXXZDyZ1JZgI6CWKMEZ3FFTys8CG9IQBJwjOuDdI7s7rjCTecHln3vSh0hwJg0r-EULh2e-5lGHo0iLVPrCU0JvcdngUbZXZCzefMUpjc756Mo",
"https://m.facebook.com/l.php?u=https%3A%2F%2Finsurancetutorial.site%2F7-low-carb-smoothies-for-weight-loss%2F%3Ffbclid%3DIwZXh0bgNhZW0CMTAAAR3Bz4ftV6LcoJTltD21-3QaZuiQyCv-XiNtnPDdocHNcUMYyTw1Cj75I8s_aem_31h0z8uzj9XD-rPnte3vYw&h=AT2qL52p0gXZDmTnfxbiknvmq5Z4I-1sTscRLPjyuZanA5OESKRTuhW95NfpNrP0DAtzwgRVC3kVrwiO5Rq2w1vmPzN4zjuAAr9m5jw_kgPe_zQ61M1eNiMn0V2fuFP0y1UVQXjCIOyrVuvNrHlj&__tn__=-UK-R&c[0]=AT2Xo9I3xocIJ1fhf_Zq0TLf_AVWp6An1BJ5lhfUGp3y1JouacjPFO3LYtiJo-etzoXXZDyZ1JZgI6CWKMEZ3FFTys8CG9IQBJwjOuDdI7s7rjCTecHln3vSh0hwJg0r-EULh2e-5lGHo0iLVPrCU0JvcdngUbZXZCzefMUpjc756Mo",
"https://m.facebook.com/l.php?u=https%3A%2F%2Finsurancetutorial.site%2Fhow-to-make-tofu-at-home%2F%3Ffbclid%3DIwZXh0bgNhZW0CMTAAAR3Bz4ftV6LcoJTltD21-3QaZuiQyCv-XiNtnPDdocHNcUMYyTw1Cj75I8s_aem_31h0z8uzj9XD-rPnte3vYw&h=AT0Skyd-7wMzTViEddDQ8F4Yi5szyxJifHWk1rGU1b4hWpX3Ef8k3B6QgMQ_ax1ZbIf6C2G5qCKtx0EoNBYSOgf7x0sresLgFPhS7Ku9kmtGkOecUandZUBu8I8hlGJVIOcRD-AR-zSZpM7xpqkB&__tn__=-UK-R&c[0]=AT2Xo9I3xocIJ1fhf_Zq0TLf_AVWp6An1BJ5lhfUGp3y1JouacjPFO3LYtiJo-etzoXXZDyZ1JZgI6CWKMEZ3FFTys8CG9IQBJwjOuDdI7s7rjCTecHln3vSh0hwJg0r-EULh2e-5lGHo0iLVPrCU0JvcdngUbZXZCzefMUpjc756Mo",
"https://m.facebook.com/l.php?u=https%3A%2F%2Finsurancetutorial.site%2F8-healthy-asparagus-recipes-for-weight-loss%2F%3Ffbclid%3DIwZXh0bgNhZW0CMTAAAR3yG27GTxBmLa0i16frtMlIQLoAMqHqVZrFYScUEoHlMq6F70D6lqez1nk_aem_2rbDvqripHv0ls4O5Z_zHQ&h=AT3bQPqnYr7CUPv1hqhCz8J9ZlRunvtDX46TeDqMo3USpwPJ1R9EdcMtjZTo3iAfEZsl-UTF3u3nkxexhd45ZkxRKy6Z_aD6xb29dkEzoko-k7BvHLl7ObNZZgPOirYoIy4WdC9GRTuwToSDXrC6&__tn__=-UK-R&c[0]=AT2Xo9I3xocIJ1fhf_Zq0TLf_AVWp6An1BJ5lhfUGp3y1JouacjPFO3LYtiJo-etzoXXZDyZ1JZgI6CWKMEZ3FFTys8CG9IQBJwjOuDdI7s7rjCTecHln3vSh0hwJg0r-EULh2e-5lGHo0iLVPrCU0JvcdngUbZXZCzefMUpjc756Mo",
"https://m.facebook.com/l.php?u=https%3A%2F%2Finsurancetutorial.site%2F7-high-protein-recipes-for-weight-loss%2F%3Ffbclid%3DIwZXh0bgNhZW0CMTAAAR10IodMNbvsxULjqVcCPIv-6w-N9tLAqLHQEFSZ-k-ijHqkPFcm_FdX7aY_aem__Uf1Opd82wJki-mq9jzogg&h=AT1pw6YWoxNyNHINrfwBSQjneoSgi8niFaV05B2IEynw105gBiQVXqlfOHuwfs4SqnYuvGkQY1Jy5rlM_tTIpgE7m7NOdYv3sVb-kAfDf6vXOFzL6qVWvRkePU4Qq_Bhx9Do0TR_-19GUM-RWYvR&__tn__=-UK-R&c[0]=AT2Xo9I3xocIJ1fhf_Zq0TLf_AVWp6An1BJ5lhfUGp3y1JouacjPFO3LYtiJo-etzoXXZDyZ1JZgI6CWKMEZ3FFTys8CG9IQBJwjOuDdI7s7rjCTecHln3vSh0hwJg0r-EULh2e-5lGHo0iLVPrCU0JvcdngUbZXZCzefMUpjc756Mo",
"https://m.facebook.com/l.php?u=https%3A%2F%2Finsurancetutorial.site%2Findependence-day-2024-healthy-tricolour-recipes-for-kids%2F%3Ffbclid%3DIwZXh0bgNhZW0CMTAAAR1wpCptbc1XPptLns20qfVRAFxgGaKIN1Psriua0e9LmHsPwlQSkpVttqM_aem_JcQ9ehMoehEYlN17NMGqeg&h=AT0GoYAaanc3bCICJvhdgmStG_FqKrevMC3nBpnv-XOFR2-N76GOWbCUgO7PXNFlrj3shVUjf5FmDNiJN1rw1cAqGF16GuKxLlt5ZkjFO3Zfh5IRJrKVks-Jdl0U_C3tPF-InfJoLaSBsi9ejhEg&__tn__=-UK-R&c[0]=AT2Xo9I3xocIJ1fhf_Zq0TLf_AVWp6An1BJ5lhfUGp3y1JouacjPFO3LYtiJo-etzoXXZDyZ1JZgI6CWKMEZ3FFTys8CG9IQBJwjOuDdI7s7rjCTecHln3vSh0hwJg0r-EULh2e-5lGHo0iLVPrCU0JvcdngUbZXZCzefMUpjc756Mo",
"https://m.facebook.com/l.php?u=https%3A%2F%2Finsurancetutorial.site%2Fquinoa-for-diabetes-benefits-and-best-way-to-eat-it%2F%3Ffbclid%3DIwZXh0bgNhZW0CMTAAAR3Bz4ftV6LcoJTltD21-3QaZuiQyCv-XiNtnPDdocHNcUMYyTw1Cj75I8s_aem_31h0z8uzj9XD-rPnte3vYw&h=AT3joKyt7ZXlZH-riyKbUnd0qONvWxsLuwfBjwo0hFxSw0TubhkYWO7LSkEaizq1ztEIZdZTbsVoVrxCpIS5pLu8KLxQEAEMm5uHkyUaqxSEX0XDKm191RTAL7jN5gvMwgEgQp6SrVekA63pYQDm&__tn__=-UK-R&c[0]=AT2Xo9I3xocIJ1fhf_Zq0TLf_AVWp6An1BJ5lhfUGp3y1JouacjPFO3LYtiJo-etzoXXZDyZ1JZgI6CWKMEZ3FFTys8CG9IQBJwjOuDdI7s7rjCTecHln3vSh0hwJg0r-EULh2e-5lGHo0iLVPrCU0JvcdngUbZXZCzefMUpjc756Mo",
"https://m.facebook.com/l.php?u=https%3A%2F%2Finsurancetutorial.site%2F8-heart-healthy-recipes-for-weight-loss%2F%3Ffbclid%3DIwZXh0bgNhZW0CMTAAAR1EoGIle5VxGJ9WCZCJg1Usd1CywF5n1dolZZbQXk2Ou3isHBDMXJIFkh4_aem_ZZ4Wep22ABzZ8HTAkkUrKg&h=AT1xAgvpVuDKykFaAp6rczgcn5d8wJP1qjv9qZA19_aqg-9OsClmwj42tppp_EFR73V_699gIWoKzCvaRjs7oAulj1QSvTC6Fblj3YtF3STGYQqQ_F6rG_LHo7wFxGo7vN4DHCnpEQLHWvvDSISd&__tn__=-UK-R&c[0]=AT2Xo9I3xocIJ1fhf_Zq0TLf_AVWp6An1BJ5lhfUGp3y1JouacjPFO3LYtiJo-etzoXXZDyZ1JZgI6CWKMEZ3FFTys8CG9IQBJwjOuDdI7s7rjCTecHln3vSh0hwJg0r-EULh2e-5lGHo0iLVPrCU0JvcdngUbZXZCzefMUpjc756Mo",
"https://m.facebook.com/l.php?u=https%3A%2F%2Finsurancetutorial.site%2F6-banana-recipes-for-weight-loss%2F%3Ffbclid%3DIwZXh0bgNhZW0CMTAAAR3yG27GTxBmLa0i16frtMlIQLoAMqHqVZrFYScUEoHlMq6F70D6lqez1nk_aem_2rbDvqripHv0ls4O5Z_zHQ&h=AT0LW2IHlOPdEpri7i87r2qxCSJpBT2OrWQxQzBCW64eMdaze0bduxRQ0PpId_qgbe7iLj5soIhwmYa5iAnaEsrWcIbZDyAjJqXZVzp97CeVVJMR-VrEMGRd4ISbfNM-qglQL8U2o2_pmYEZgk-u&__tn__=-UK-R&c[0]=AT2Xo9I3xocIJ1fhf_Zq0TLf_AVWp6An1BJ5lhfUGp3y1JouacjPFO3LYtiJo-etzoXXZDyZ1JZgI6CWKMEZ3FFTys8CG9IQBJwjOuDdI7s7rjCTecHln3vSh0hwJg0r-EULh2e-5lGHo0iLVPrCU0JvcdngUbZXZCzefMUpjc756Mo",
"https://m.facebook.com/l.php?u=https%3A%2F%2Finsurancetutorial.site%2Fwhat-not-to-mix-with-honey-6-things-to-avoid%2F%3Ffbclid%3DIwZXh0bgNhZW0CMTAAAR0RuyJBLL_828obU7hmJCj6UHPoR4i9b947MtDbVNGmQ_qFXZKABYzYnlU_aem_olp6iYyB1bQ6_qiK9-K5fg&h=AT1uiwhwCXCSy_DU-iVenSStJoG6dIvXAWDqfj9LZb5cKZt0LO8JsgUPdXNk8gitjDUg5W5qLClASViSOrCCSNizvGJpMfV2zteUOWFNlbsJtXXR3VJye4_PAyOkBuh045rGLaj6Q99_htgfwjoZ&__tn__=-UK-R&c[0]=AT2Xo9I3xocIJ1fhf_Zq0TLf_AVWp6An1BJ5lhfUGp3y1JouacjPFO3LYtiJo-etzoXXZDyZ1JZgI6CWKMEZ3FFTys8CG9IQBJwjOuDdI7s7rjCTecHln3vSh0hwJg0r-EULh2e-5lGHo0iLVPrCU0JvcdngUbZXZCzefMUpjc756Mo",
"https://m.facebook.com/l.php?u=https%3A%2F%2Finsurancetutorial.site%2F10-benefits-of-black-rice%2F%3Ffbclid%3DIwZXh0bgNhZW0CMTAAAR1EixuMDmP3FM9rC2rABhcAJ4eyXICyEKdthPpJ8QAPijpAGI3xUUcVaVc_aem__XquFRVki2rM3hg55bD5Pw&h=AT0hc2qYbMB1BW7w8P7Et1bPGItdPoWVtIQDa1q5hR4bENisJ4WFjAwG6epdwSWDn2LTsfwPrWv90f4MtgbnsMv0deEzzxr4Bzf1pfGWVPd-XhtPslV_X9V-clnIJ1tS2uBUG9UpSIxFlGNyQKgb&__tn__=-UK-R&c[0]=AT2Xo9I3xocIJ1fhf_Zq0TLf_AVWp6An1BJ5lhfUGp3y1JouacjPFO3LYtiJo-etzoXXZDyZ1JZgI6CWKMEZ3FFTys8CG9IQBJwjOuDdI7s7rjCTecHln3vSh0hwJg0r-EULh2e-5lGHo0iLVPrCU0JvcdngUbZXZCzefMUpjc756Mo",
"https://m.facebook.com/l.php?u=https%3A%2F%2Finsurancetutorial.site%2F7-tasty-vegan-smoothies-for-weight-loss%2F%3Ffbclid%3DIwZXh0bgNhZW0CMTAAAR1EoGIle5VxGJ9WCZCJg1Usd1CywF5n1dolZZbQXk2Ou3isHBDMXJIFkh4_aem_ZZ4Wep22ABzZ8HTAkkUrKg&h=AT0FY2W-vE-j4C4Iq_n4MgziKJMa7H4bTvPopn1ORvz--ESrXgv_ytQc3zG7MS5HPV_86dkYlcd2otEFGSoC2B6-vjb_DZ-cfzHw7HnSVJtyqPULkvCEKSSLdK860WmIalNTJ4oHaMAlAuHToJdD&__tn__=-UK-R&c[0]=AT2Xo9I3xocIJ1fhf_Zq0TLf_AVWp6An1BJ5lhfUGp3y1JouacjPFO3LYtiJo-etzoXXZDyZ1JZgI6CWKMEZ3FFTys8CG9IQBJwjOuDdI7s7rjCTecHln3vSh0hwJg0r-EULh2e-5lGHo0iLVPrCU0JvcdngUbZXZCzefMUpjc756Mo",
"https://m.facebook.com/l.php?u=https%3A%2F%2Finsurancetutorial.site%2Fwatermelon-juice-recipe-benefits-and-steps%2F%3Ffbclid%3DIwZXh0bgNhZW0CMTAAAR0DHQGoDhvmHhsPdNLh5_W2Zm2zTp3GeWhZZkWVDiw7lRq2KfdNQbK9gNU_aem_y4hSbnYA1_n8S02EE61QFw&h=AT19VmzB5urWfoGt1id-KUI3FfxImF_jff69xcaBK6Lxsyoe3Nl95YANxiQ1YisWZKmrN87zlBpaPJi6VJyHHC4sSV6hM9bupNIvQV3Tj0Vvpyp30vbTIHFlqBefjXwr-4xn6QaSZBU4LHXzUN2T&__tn__=-UK-R&c[0]=AT2Xo9I3xocIJ1fhf_Zq0TLf_AVWp6An1BJ5lhfUGp3y1JouacjPFO3LYtiJo-etzoXXZDyZ1JZgI6CWKMEZ3FFTys8CG9IQBJwjOuDdI7s7rjCTecHln3vSh0hwJg0r-EULh2e-5lGHo0iLVPrCU0JvcdngUbZXZCzefMUpjc756Mo",
"https://m.facebook.com/l.php?u=https%3A%2F%2Finsurancetutorial.site%2Fhow-to-make-muesli-a-quick-diy-recipe%2F%3Ffbclid%3DIwZXh0bgNhZW0CMTAAAR1EoGIle5VxGJ9WCZCJg1Usd1CywF5n1dolZZbQXk2Ou3isHBDMXJIFkh4_aem_ZZ4Wep22ABzZ8HTAkkUrKg&h=AT3Fpua-uG8q3dCjhKmVD6gu5Wcgao2FraCucwnNtxrT65eR6QljYUe3xchzRPzNfpVTPOD-3izFml5vrf8B19dR3FCKzSyU725H6aUGvkOm0crTzFxlIJxLZrB8HjC_THTGt-smJktJEriKyRkC&__tn__=-UK-R&c[0]=AT2Xo9I3xocIJ1fhf_Zq0TLf_AVWp6An1BJ5lhfUGp3y1JouacjPFO3LYtiJo-etzoXXZDyZ1JZgI6CWKMEZ3FFTys8CG9IQBJwjOuDdI7s7rjCTecHln3vSh0hwJg0r-EULh2e-5lGHo0iLVPrCU0JvcdngUbZXZCzefMUpjc756Mo",
"https://m.facebook.com/l.php?u=https%3A%2F%2Finsurancetutorial.site%2Fmanuka-honey-benefits-and-side-effects%2F%3Ffbclid%3DIwZXh0bgNhZW0CMTAAAR3Bz4ftV6LcoJTltD21-3QaZuiQyCv-XiNtnPDdocHNcUMYyTw1Cj75I8s_aem_31h0z8uzj9XD-rPnte3vYw&h=AT0NU06jl7jyWJOpchhwDMVVg3JhB4mgW0h1DWy7RUn5jweVGqLMrDRcOyOPCSA0uVtLFYnyp3Amxo5FyxSDJjmA11dL9GZGHDqOSrK7Cfginf7NQqKo3zuICjEWC8_L7prF3ChXQ21uS_i_hTsz&__tn__=-UK-R&c[0]=AT2Xo9I3xocIJ1fhf_Zq0TLf_AVWp6An1BJ5lhfUGp3y1JouacjPFO3LYtiJo-etzoXXZDyZ1JZgI6CWKMEZ3FFTys8CG9IQBJwjOuDdI7s7rjCTecHln3vSh0hwJg0r-EULh2e-5lGHo0iLVPrCU0JvcdngUbZXZCzefMUpjc756Mo",
"https://m.facebook.com/l.php?u=https%3A%2F%2Finsurancetutorial.site%2Feggs-for-weight-loss-know-5-benefits%2F%3Ffbclid%3DIwZXh0bgNhZW0CMTAAAR0RuyJBLL_828obU7hmJCj6UHPoR4i9b947MtDbVNGmQ_qFXZKABYzYnlU_aem_olp6iYyB1bQ6_qiK9-K5fg&h=AT3v4-36-rcJzEA-vtjW5cdFXg4KFRmplW6cW9uZPxLIj03iKUw7gx1R7e5lc9apNn0b4o5yHl5u8U56YkbZzIVVClNa1qfPRyFpoQM2q3c8R63Dyq_25smPBZDCKktimuzhXTGXlVbFNUG_tQBo&__tn__=-UK-R&c[0]=AT2Xo9I3xocIJ1fhf_Zq0TLf_AVWp6An1BJ5lhfUGp3y1JouacjPFO3LYtiJo-etzoXXZDyZ1JZgI6CWKMEZ3FFTys8CG9IQBJwjOuDdI7s7rjCTecHln3vSh0hwJg0r-EULh2e-5lGHo0iLVPrCU0JvcdngUbZXZCzefMUpjc756Mo",
"https://m.facebook.com/l.php?u=https%3A%2F%2Finsurancetutorial.site%2Fgreen-tea-vs-green-coffee-which-one-is-better-for-weight-loss%2F%3Ffbclid%3DIwZXh0bgNhZW0CMTAAAR398mQ9MGEkzUqHsHjd6ArvMkTbE0pPOX1p6CQMMfV-LacMmGtdElEBL5o_aem_Z-fM9GgfymUk6mPvR2olZA&h=AT0ZkKezPyIPZ996D3cCMzFltXOgZCGBDw4mA_nRyunEBRN5JJku-s8qXwS4HzsjuvnJFMjtSTTnLTofPJxgccuxzxBnqmFh7OvflNhA-RwRH2BLY_njdnHvJkov4bQ2mPffhTyqf6v3eu-P8nBW&__tn__=-UK-R&c[0]=AT2Xo9I3xocIJ1fhf_Zq0TLf_AVWp6An1BJ5lhfUGp3y1JouacjPFO3LYtiJo-etzoXXZDyZ1JZgI6CWKMEZ3FFTys8CG9IQBJwjOuDdI7s7rjCTecHln3vSh0hwJg0r-EULh2e-5lGHo0iLVPrCU0JvcdngUbZXZCzefMUpjc756Mo",
"https://m.facebook.com/l.php?u=https%3A%2F%2Finsurancetutorial.site%2Fgreen-red-and-yellow-know-the-best-bell-pepper%2F%3Ffbclid%3DIwZXh0bgNhZW0CMTAAAR10IodMNbvsxULjqVcCPIv-6w-N9tLAqLHQEFSZ-k-ijHqkPFcm_FdX7aY_aem__Uf1Opd82wJki-mq9jzogg&h=AT3ScdPryTDRAyQCq0TJPVU_BqJmBkPfEAs4xGS1HSr9u2BfL6cfWcsDrmFX9OcXZ3yj-EOVL-VBQkcHBakBS1lNHyMJLTNyx9TQDj0nLt_v8_rUSO3crSZLX8fTToPXeDdt3n2h7CbfYM6yOQmH&__tn__=-UK-R&c[0]=AT2Xo9I3xocIJ1fhf_Zq0TLf_AVWp6An1BJ5lhfUGp3y1JouacjPFO3LYtiJo-etzoXXZDyZ1JZgI6CWKMEZ3FFTys8CG9IQBJwjOuDdI7s7rjCTecHln3vSh0hwJg0r-EULh2e-5lGHo0iLVPrCU0JvcdngUbZXZCzefMUpjc756Mo",
"https://m.facebook.com/l.php?u=https%3A%2F%2Finsurancetutorial.site%2F7-zucchini-recipes-for-weight-loss%2F%3Ffbclid%3DIwZXh0bgNhZW0CMTAAAR0RuyJBLL_828obU7hmJCj6UHPoR4i9b947MtDbVNGmQ_qFXZKABYzYnlU_aem_olp6iYyB1bQ6_qiK9-K5fg&h=AT0ZJtQb42aThjix1U17y8t6e3mA5w7zWo6SiQpDB9Bf0TuCkTaQEOvHLWVm6K3NbjkM3h17M09L7HeYSbEG6vqTabuTijqBPfc2D7GwGaS1jb_10J4ztMICEfK11Y4nVgYxaY3MDuaNu01oEPxE&__tn__=-UK-R&c[0]=AT2Xo9I3xocIJ1fhf_Zq0TLf_AVWp6An1BJ5lhfUGp3y1JouacjPFO3LYtiJo-etzoXXZDyZ1JZgI6CWKMEZ3FFTys8CG9IQBJwjOuDdI7s7rjCTecHln3vSh0hwJg0r-EULh2e-5lGHo0iLVPrCU0JvcdngUbZXZCzefMUpjc756Mo",
"https://m.facebook.com/l.php?u=https%3A%2F%2Finsurancetutorial.site%2Fcold-soups-for-weight-loss-7-tasty-and-healthy-recipes%2F%3Ffbclid%3DIwZXh0bgNhZW0CMTAAAR0DHQGoDhvmHhsPdNLh5_W2Zm2zTp3GeWhZZkWVDiw7lRq2KfdNQbK9gNU_aem_y4hSbnYA1_n8S02EE61QFw&h=AT3pi5zNF9g4LoDHH2J0ARsi_8rVG0qTzZq6TCQNwkSiuuBcDXZ5OpBJuF8Gx4AsLcp7HGQDqIctSZK7XWhP8W4d3lZLeeS2qdyDlK6nyMPumJFg4wgdw6MBvH9pgWrhpweLYGQQ0OcJRtmlrz0q&__tn__=-UK-R&c[0]=AT2Xo9I3xocIJ1fhf_Zq0TLf_AVWp6An1BJ5lhfUGp3y1JouacjPFO3LYtiJo-etzoXXZDyZ1JZgI6CWKMEZ3FFTys8CG9IQBJwjOuDdI7s7rjCTecHln3vSh0hwJg0r-EULh2e-5lGHo0iLVPrCU0JvcdngUbZXZCzefMUpjc756Mo",
"https://m.facebook.com/l.php?u=https%3A%2F%2Finsurancetutorial.site%2Fworld-brain-health-day-10-best-juices-for-brain-health%2F%3Ffbclid%3DIwZXh0bgNhZW0CMTAAAR3Bz4ftV6LcoJTltD21-3QaZuiQyCv-XiNtnPDdocHNcUMYyTw1Cj75I8s_aem_31h0z8uzj9XD-rPnte3vYw&h=AT10At8SwcFBjR4LKtAnXH-Du3nCVQz9MFcqVnZ7NS_mhv-v1ViVvp-ApzEIDwnZS6RtW624qCMJASluu7_pwRBrztQePwsr-e5VycGNMQeCtGQrVAt6eCHDhCoI6QN-NValYP0UDSglwFtCLjSz&__tn__=-UK-R&c[0]=AT2Xo9I3xocIJ1fhf_Zq0TLf_AVWp6An1BJ5lhfUGp3y1JouacjPFO3LYtiJo-etzoXXZDyZ1JZgI6CWKMEZ3FFTys8CG9IQBJwjOuDdI7s7rjCTecHln3vSh0hwJg0r-EULh2e-5lGHo0iLVPrCU0JvcdngUbZXZCzefMUpjc756Mo",
"https://m.facebook.com/l.php?u=https%3A%2F%2Finsurancetutorial.site%2F6-vegan-mango-dessert-recipes%2F%3Ffbclid%3DIwZXh0bgNhZW0CMTAAAR0RuyJBLL_828obU7hmJCj6UHPoR4i9b947MtDbVNGmQ_qFXZKABYzYnlU_aem_olp6iYyB1bQ6_qiK9-K5fg&h=AT0RrJwVxht_L91CVBn7DAzFo_VPGjjtoMlKaxrq0n5NS3cTpgLZJTz3q2FfoXbE1gxtNQpY9-sRrihUt_9dAjnmCNhvDvg9gxPurjgmz8o4D71pAXDp3anDbqOwtaWgs7uYnDDo9kFJyuhLhlLd&__tn__=-UK-R&c[0]=AT2Xo9I3xocIJ1fhf_Zq0TLf_AVWp6An1BJ5lhfUGp3y1JouacjPFO3LYtiJo-etzoXXZDyZ1JZgI6CWKMEZ3FFTys8CG9IQBJwjOuDdI7s7rjCTecHln3vSh0hwJg0r-EULh2e-5lGHo0iLVPrCU0JvcdngUbZXZCzefMUpjc756Mo",
"https://m.facebook.com/l.php?u=https%3A%2F%2Finsurancetutorial.site%2Favocado-ice-cream-recipe-know-how-to-make-this-healthy-dessert%2F%3Ffbclid%3DIwZXh0bgNhZW0CMTAAAR398mQ9MGEkzUqHsHjd6ArvMkTbE0pPOX1p6CQMMfV-LacMmGtdElEBL5o_aem_Z-fM9GgfymUk6mPvR2olZA&h=AT3ra26ZafbpkfQOPUS3Uv9n7Aoi8rMMdlKGdCB4_9nKMM26JKu-aVwag8vljOgXOA05bPGYzajZ83WAwfZ8oMcpi0EtHUbz6kE9fsFfU17q89jZmG_iGlf9KPfUmk7xjOM7_A8nbERWdrldmciw&__tn__=-UK-R&c[0]=AT2Xo9I3xocIJ1fhf_Zq0TLf_AVWp6An1BJ5lhfUGp3y1JouacjPFO3LYtiJo-etzoXXZDyZ1JZgI6CWKMEZ3FFTys8CG9IQBJwjOuDdI7s7rjCTecHln3vSh0hwJg0r-EULh2e-5lGHo0iLVPrCU0JvcdngUbZXZCzefMUpjc756Mo",
"https://m.facebook.com/l.php?u=https%3A%2F%2Finsurancetutorial.site%2F8-health-benefits-of-blackberries%2F%3Ffbclid%3DIwZXh0bgNhZW0CMTAAAR1EixuMDmP3FM9rC2rABhcAJ4eyXICyEKdthPpJ8QAPijpAGI3xUUcVaVc_aem__XquFRVki2rM3hg55bD5Pw&h=AT3z6Bhs7ydm51crk1hdYNXFG0iBxpZHgy2Qh9mfi5eeAAGW8GN8FIaizIpB1TzdF5L4EHY4GTdGDIU2NjctFb4ca6DV_qYW-zAFd8r9RsjSa5ULAfswFH_TzugyZdt-8_zFOO8eN1rZ8fD-vqPF&__tn__=-UK-R&c[0]=AT2Xo9I3xocIJ1fhf_Zq0TLf_AVWp6An1BJ5lhfUGp3y1JouacjPFO3LYtiJo-etzoXXZDyZ1JZgI6CWKMEZ3FFTys8CG9IQBJwjOuDdI7s7rjCTecHln3vSh0hwJg0r-EULh2e-5lGHo0iLVPrCU0JvcdngUbZXZCzefMUpjc756Mo",
"https://m.facebook.com/l.php?u=https%3A%2F%2Finsurancetutorial.site%2F7-vegan-snack-recipes-for-weight-loss%2F%3Ffbclid%3DIwZXh0bgNhZW0CMTAAAR1iunZVuZj1cO2ba00fQZeSmeJdDsq5D9TPtFFBdXUdtozDbvQZ3fKvDwE_aem_25p5yafbK2JCXGN4qTvZkA&h=AT0-EWeWGrNfnus06e14E8WWU1fyR9GCHur_hIw7qXshfQuCE77BARIm_spg3B01--xrJCzkkpygw6fM8PMFRy4keWYJEXWZxzbJRlc_aHwFQO3VED5CEhMf4kRV-0XgYKlXovTqaNUiv8k-meoa&__tn__=-UK-R&c[0]=AT2Xo9I3xocIJ1fhf_Zq0TLf_AVWp6An1BJ5lhfUGp3y1JouacjPFO3LYtiJo-etzoXXZDyZ1JZgI6CWKMEZ3FFTys8CG9IQBJwjOuDdI7s7rjCTecHln3vSh0hwJg0r-EULh2e-5lGHo0iLVPrCU0JvcdngUbZXZCzefMUpjc756Mo",
"https://m.facebook.com/l.php?u=https%3A%2F%2Finsurancetutorial.site%2Fmoong-dal-soup-recipe-how-to-make-healthy-soup-for-weight-loss%2F%3Ffbclid%3DIwZXh0bgNhZW0CMTAAAR10IodMNbvsxULjqVcCPIv-6w-N9tLAqLHQEFSZ-k-ijHqkPFcm_FdX7aY_aem__Uf1Opd82wJki-mq9jzogg&h=AT3rVcvb6-R_JmXpQwbhyVcCx0xJutfcWhXghBjo8VUuPkSYUCzrEGduHm-cZzkNc2kL1igKbaCe8LNVwQY0OCoKoRfEn5d6gjYNfabXrxdJaSvqB8LORXHIQCVezP0TfOjIChLtb69I_HpUGG0_&__tn__=-UK-R&c[0]=AT2Xo9I3xocIJ1fhf_Zq0TLf_AVWp6An1BJ5lhfUGp3y1JouacjPFO3LYtiJo-etzoXXZDyZ1JZgI6CWKMEZ3FFTys8CG9IQBJwjOuDdI7s7rjCTecHln3vSh0hwJg0r-EULh2e-5lGHo0iLVPrCU0JvcdngUbZXZCzefMUpjc756Mo",
"https://m.facebook.com/l.php?u=https%3A%2F%2Finsurancetutorial.site%2F5-raw-banana-recipes-experiment-from-dosa-to-curry%2F%3Ffbclid%3DIwZXh0bgNhZW0CMTAAAR1EoGIle5VxGJ9WCZCJg1Usd1CywF5n1dolZZbQXk2Ou3isHBDMXJIFkh4_aem_ZZ4Wep22ABzZ8HTAkkUrKg&h=AT0cEDI42QZhDoMsZh-UATC9YSsrJTXU1-xvQqjBazAhTGZfL0V9HZpQHUI2QbwZv2rIZBgH5tDIzRgyxP2sD913vAYVbcGkUf29Xrzt-DfxIvi6scAzEAkYnhH-m0Om8r2NKUnixwwvmVfCWjjd&__tn__=-UK-R&c[0]=AT2Xo9I3xocIJ1fhf_Zq0TLf_AVWp6An1BJ5lhfUGp3y1JouacjPFO3LYtiJo-etzoXXZDyZ1JZgI6CWKMEZ3FFTys8CG9IQBJwjOuDdI7s7rjCTecHln3vSh0hwJg0r-EULh2e-5lGHo0iLVPrCU0JvcdngUbZXZCzefMUpjc756Mo",
"https://m.facebook.com/l.php?u=https%3A%2F%2Finsurancetutorial.site%2Fall-about-olive-health-benefits-nutrition-and-ways-to-eat%2F%3Ffbclid%3DIwZXh0bgNhZW0CMTAAAR3Bz4ftV6LcoJTltD21-3QaZuiQyCv-XiNtnPDdocHNcUMYyTw1Cj75I8s_aem_31h0z8uzj9XD-rPnte3vYw&h=AT19NvVYIVD1tkKrKm31sfvwuziSa1-iGOSFqC-QubyhaqbAkMkND6brOblqIo9M2xkNT50yCllzH1qYAuRHJ7OZw73dey31y4wveL2s-AKNSw8mS_nc5ohzIThJ_F5uTjy_d3cu_Dh9Hr5DhsCg&__tn__=-UK-R&c[0]=AT2Xo9I3xocIJ1fhf_Zq0TLf_AVWp6An1BJ5lhfUGp3y1JouacjPFO3LYtiJo-etzoXXZDyZ1JZgI6CWKMEZ3FFTys8CG9IQBJwjOuDdI7s7rjCTecHln3vSh0hwJg0r-EULh2e-5lGHo0iLVPrCU0JvcdngUbZXZCzefMUpjc756Mo",
"https://m.facebook.com/l.php?u=https%3A%2F%2Finsurancetutorial.site%2F8-breakfast-recipes-to-help-you-poop%2F%3Ffbclid%3DIwZXh0bgNhZW0CMTAAAR1iunZVuZj1cO2ba00fQZeSmeJdDsq5D9TPtFFBdXUdtozDbvQZ3fKvDwE_aem_25p5yafbK2JCXGN4qTvZkA&h=AT0H9j79rmNm3h6Ws7rsUl75iTGaWFI3mnsX_Djp0FJiREAx9u38H3Sn4sZWANHPt0HSykkY5fKzAbODUFfPX6eSYPODSA9RUKoFa8fF-MFFdO81kDkVykRAp0a3ORQA6KJOSNlz0tCerwLBwiUQ&__tn__=-UK-R&c[0]=AT2Xo9I3xocIJ1fhf_Zq0TLf_AVWp6An1BJ5lhfUGp3y1JouacjPFO3LYtiJo-etzoXXZDyZ1JZgI6CWKMEZ3FFTys8CG9IQBJwjOuDdI7s7rjCTecHln3vSh0hwJg0r-EULh2e-5lGHo0iLVPrCU0JvcdngUbZXZCzefMUpjc756Mo",
"https://m.facebook.com/l.php?u=https%3A%2F%2Finsurancetutorial.site%2F7-millet-recipes-for-breakfast-to-help-you-lose-weight%2F%3Ffbclid%3DIwZXh0bgNhZW0CMTAAAR1wpCptbc1XPptLns20qfVRAFxgGaKIN1Psriua0e9LmHsPwlQSkpVttqM_aem_JcQ9ehMoehEYlN17NMGqeg&h=AT25n89DUO32Dr7r6_QX1vYmEsiHKAf7x6KocEwujHQfLnfGKmmT6qXYxyfmO1mp3vx7PZquQ57D9fYFsHCjAKU1ZKyZdlN-WDk4s1p8BfbJyMLY8vP27g2LG4oivQkBKtjw0jSc2S0zdPx8yPVP&__tn__=-UK-R&c[0]=AT2Xo9I3xocIJ1fhf_Zq0TLf_AVWp6An1BJ5lhfUGp3y1JouacjPFO3LYtiJo-etzoXXZDyZ1JZgI6CWKMEZ3FFTys8CG9IQBJwjOuDdI7s7rjCTecHln3vSh0hwJg0r-EULh2e-5lGHo0iLVPrCU0JvcdngUbZXZCzefMUpjc756Mo",
"https://m.facebook.com/l.php?u=https%3A%2F%2Finsurancetutorial.site%2F9-health-benefits-of-cranberries-and-how-to-eat-it%2F%3Ffbclid%3DIwZXh0bgNhZW0CMTAAAR1EoGIle5VxGJ9WCZCJg1Usd1CywF5n1dolZZbQXk2Ou3isHBDMXJIFkh4_aem_ZZ4Wep22ABzZ8HTAkkUrKg&h=AT1tY5VS8WTwSeaKRSaxs_qnenDwdsHhQIO31YXwAmEIYkYv4uPAmLwGz6AZUXwkBtPPpqmBXkfS3ERy2rO2iAxJ6WKgGwReeK9h-KBDaGgw7b_EQLF8Y1s0_HeZrB_PR_qmvpxLfAe2o61DXWU6&__tn__=-UK-R&c[0]=AT2Xo9I3xocIJ1fhf_Zq0TLf_AVWp6An1BJ5lhfUGp3y1JouacjPFO3LYtiJo-etzoXXZDyZ1JZgI6CWKMEZ3FFTys8CG9IQBJwjOuDdI7s7rjCTecHln3vSh0hwJg0r-EULh2e-5lGHo0iLVPrCU0JvcdngUbZXZCzefMUpjc756Mo",
"https://m.facebook.com/l.php?u=https%3A%2F%2Finsurancetutorial.site%2Fchia-seed-water-benefits-is-it-effective-for-weight-loss%2F%3Ffbclid%3DIwZXh0bgNhZW0CMTAAAR0DHQGoDhvmHhsPdNLh5_W2Zm2zTp3GeWhZZkWVDiw7lRq2KfdNQbK9gNU_aem_y4hSbnYA1_n8S02EE61QFw&h=AT1vey1NHKM_7MY2-kSlSKqR_dXKxc5WzxbfFWy2KI9V3sCMaRcrHKfPslx5jMSsBh4Zv9YE9Lp57X3v0S9IWx-i-SDYQERSnVlE6wt_GYJXucuTHTaKDpSfvqsVYOBaT9I1TGs7NadfLZbXWnfK&__tn__=-UK-R&c[0]=AT2Xo9I3xocIJ1fhf_Zq0TLf_AVWp6An1BJ5lhfUGp3y1JouacjPFO3LYtiJo-etzoXXZDyZ1JZgI6CWKMEZ3FFTys8CG9IQBJwjOuDdI7s7rjCTecHln3vSh0hwJg0r-EULh2e-5lGHo0iLVPrCU0JvcdngUbZXZCzefMUpjc756Mo",
"https://m.facebook.com/l.php?u=https%3A%2F%2Finsurancetutorial.site%2Fmillet-mix-types-recipes-and-side-effects%2F%3Ffbclid%3DIwZXh0bgNhZW0CMTAAAR10IodMNbvsxULjqVcCPIv-6w-N9tLAqLHQEFSZ-k-ijHqkPFcm_FdX7aY_aem__Uf1Opd82wJki-mq9jzogg&h=AT2E_3MDJkiXZQDe4kjZ4h5kaWQ6UKJAPDqjSt6_PRUJjPLsIKRzroCXSZDYF383U28iVcVVwWMWy1m_COSGUx-RoaID2BVY5xmk-H0GbwcSVJZlZQnG6tOv_eSGQPfGtJohBw4MG7uOfa_c44P0&__tn__=-UK-R&c[0]=AT2Xo9I3xocIJ1fhf_Zq0TLf_AVWp6An1BJ5lhfUGp3y1JouacjPFO3LYtiJo-etzoXXZDyZ1JZgI6CWKMEZ3FFTys8CG9IQBJwjOuDdI7s7rjCTecHln3vSh0hwJg0r-EULh2e-5lGHo0iLVPrCU0JvcdngUbZXZCzefMUpjc756Mo",
"https://m.facebook.com/l.php?u=https%3A%2F%2Finsurancetutorial.site%2F7-easy-jackfruit-recipes-to-make-it-tasty-and-healthy%2F%3Ffbclid%3DIwZXh0bgNhZW0CMTAAAR1iunZVuZj1cO2ba00fQZeSmeJdDsq5D9TPtFFBdXUdtozDbvQZ3fKvDwE_aem_25p5yafbK2JCXGN4qTvZkA&h=AT3Dk05SGAoh8mvx0QTxEqy5CDs4eMJ4qfYgqIqyEPsZ6wqcs44mif7rX2hQQeg0n-GKmgW6f7JTRubZsKGdJ86MlvXXrOEYWDz1EnO6OcjMar7ta1Nbjg9AJZhdV5DPvijf3zqxoHvl7tyVt4me&__tn__=-UK-R&c[0]=AT2Xo9I3xocIJ1fhf_Zq0TLf_AVWp6An1BJ5lhfUGp3y1JouacjPFO3LYtiJo-etzoXXZDyZ1JZgI6CWKMEZ3FFTys8CG9IQBJwjOuDdI7s7rjCTecHln3vSh0hwJg0r-EULh2e-5lGHo0iLVPrCU0JvcdngUbZXZCzefMUpjc756Mo",
"https://m.facebook.com/l.php?u=https%3A%2F%2Finsurancetutorial.site%2F5-light-breakfast-recipes-for-a-healthy-summer-morning%2F%3Ffbclid%3DIwZXh0bgNhZW0CMTAAAR10IodMNbvsxULjqVcCPIv-6w-N9tLAqLHQEFSZ-k-ijHqkPFcm_FdX7aY_aem__Uf1Opd82wJki-mq9jzogg&h=AT2vD0ymfZ0FNQYT3JoZYN-uU9WDRbDEMFNoayKXLOrkNjTkbMbbMX9nz7LBbimvXBFNSLWzgAHELT1IbIf7wNHrdx0DGSXcKM9WiRBc34cH0WGHyqT-dkYSCPokA_V8k5FnQptTaoNSVz-0LIo_&__tn__=-UK-R&c[0]=AT2Xo9I3xocIJ1fhf_Zq0TLf_AVWp6An1BJ5lhfUGp3y1JouacjPFO3LYtiJo-etzoXXZDyZ1JZgI6CWKMEZ3FFTys8CG9IQBJwjOuDdI7s7rjCTecHln3vSh0hwJg0r-EULh2e-5lGHo0iLVPrCU0JvcdngUbZXZCzefMUpjc756Mo"
    ]
}
