{
    "browser_testing":{
        "test_api":"https://jsonplaceholder.typicode.com/todos/1",
        "keyword_contain":"userId"
    },
    "random_range":"8:14",
    "work_urls":[
        "https://m.facebook.com/l.php?u=https%3A%2F%2Fmoderntech.site%2Funique-japanese-breads-you-cant-miss%2F%3Ffbclid%3DIwZXh0bgNhZW0CMTAAAR25fSQIRVAgHC40CyNKLi7pn_XMlWyJs_wIfv-47izHlzE4_W-P0RtKDe8_aem_Hpfc1N_MZypPqTQSLkzxPg&h=AT2bAvmrFOMHeqNaT_0OZGoS6x3WB1nqtKK8Mb62dUA63YzTiN1vF0jhw5dX63KOkm9GIc4cQ6UTtd7_vWJ3UcWHxz5ces_AkzlO_hJmKOiMNVmleaPPogyNKndiaauGI1FT_8kRYWrg_QJCMTcf&__tn__=-UK-R&c[0]=AT0XBTxHcrAF9QItc9912v_H_C9aVr4KDCp3lEnvYz3hjC3W9gHcduLDexXn4ppdCWZpS1RookBx7qBAgFaHBuc2B-sjHsvjMkzRKGcYKJYRZ57TP3DJvbSnwi2owlR1tBp7vlgKmOpzZrpBsUQbiwgyMj9gyhcpkFAzE82IiTXSzAv1NYE2RQ",
        "https://m.facebook.com/l.php?u=https%3A%2F%2Fmoderntech.site%2Fhealthy-summer-fruits-to-enjoy%2F%3Ffbclid%3DIwZXh0bgNhZW0CMTAAAR2QfPTKMCR0bCfShFWYRrl32jjq4ag1Nk9aC_aHB_4DydA4bkjdgYo-KL0_aem_irsWYE1PX9NIpr_efHhIQA&h=AT2NqZhz5WeeBxcabyyY3e1hALIQ72Hrzqd4izTxihC6UJWsrnYAMiDl7Fm66-S4nN3QB6MrT5KqSPeS2WsRLWpic3lAMuF4vXh1atTcl5lwXx1dqiLl6FGL134dTV6XH0_tVxnIMPei2tcHvHYZ&__tn__=-UK-R&c[0]=AT0XBTxHcrAF9QItc9912v_H_C9aVr4KDCp3lEnvYz3hjC3W9gHcduLDexXn4ppdCWZpS1RookBx7qBAgFaHBuc2B-sjHsvjMkzRKGcYKJYRZ57TP3DJvbSnwi2owlR1tBp7vlgKmOpzZrpBsUQbiwgyMj9gyhcpkFAzE82IiTXSzAv1NYE2RQ",
        "https://m.facebook.com/l.php?u=https%3A%2F%2Fmoderntech.site%2Fdelectable-sri-lankan-specialties-that-define-island-cuisine%2F%3Ffbclid%3DIwZXh0bgNhZW0CMTAAAR3vuUqpi5XrTuugspR28IZtmVnxYLdknIu4GilPHios-J6BUwqCAwqt6kM_aem__hQE58mvVjATtbDowcqVGA&h=AT3QdqzTorE-FxrEratfbycNyZbqcuEfM62cE2ITXO-6CyvNdcc54WadD8nzRnreIzJSnHkKqKiMB7pTAQ7dwfQXim6FQwYN6pz1iGAQLz2O9z9I8CHkRRbh0JgWCPgtwEERamGjCcC8dUNvzHtH&__tn__=-UK-R&c[0]=AT0XBTxHcrAF9QItc9912v_H_C9aVr4KDCp3lEnvYz3hjC3W9gHcduLDexXn4ppdCWZpS1RookBx7qBAgFaHBuc2B-sjHsvjMkzRKGcYKJYRZ57TP3DJvbSnwi2owlR1tBp7vlgKmOpzZrpBsUQbiwgyMj9gyhcpkFAzE82IiTXSzAv1NYE2RQ",
        "https://m.facebook.com/l.php?u=https%3A%2F%2Fmoderntech.site%2Ftasting-poland-at-night-unique-dishes-to-experience%2F%3Ffbclid%3DIwZXh0bgNhZW0CMTAAAR3vuUqpi5XrTuugspR28IZtmVnxYLdknIu4GilPHios-J6BUwqCAwqt6kM_aem__hQE58mvVjATtbDowcqVGA&h=AT1TWINJcAnaHMpX1TkC6BKeiQOYu94j1_K6tauiOAdfEldx63p__okyRqHNtsDwTZxiewQ05hbUypBvy0D4F7Dg9F_hrsiAhh0RUrDh_QsNZKQSPX-LLi7TEvRvF3p5QoSmrt5xJTmKT6_PZP4s&__tn__=-UK-R&c[0]=AT0XBTxHcrAF9QItc9912v_H_C9aVr4KDCp3lEnvYz3hjC3W9gHcduLDexXn4ppdCWZpS1RookBx7qBAgFaHBuc2B-sjHsvjMkzRKGcYKJYRZ57TP3DJvbSnwi2owlR1tBp7vlgKmOpzZrpBsUQbiwgyMj9gyhcpkFAzE82IiTXSzAv1NYE2RQ",
        "https://m.facebook.com/l.php?u=https%3A%2F%2Fmoderntech.site%2Fdelicious-singaporean-dishes-to-impress-your-guests%2F%3Ffbclid%3DIwZXh0bgNhZW0CMTAAAR3HZXt-320-wwR9mu-uNs8ip1Ra8PVxbDJcNWTzeUJTYTNbaaDckcbjUt4_aem_Xh4EpuZuJGUSbjHoVnevMg&h=AT2IVNFB5fP4KNUwwKJQirwrpQNUXDYamkoNuCv6NdxIjFIix_0zUUccQmhlCXjHZLovhvxNB3I6-8ed6lHjP0xASEje5XAIMxw_VuffGsUYYn9UwXfvYDgzBr8B0agZyMci_qqGtq2Rx4EouCRA&__tn__=-UK-R&c[0]=AT0XBTxHcrAF9QItc9912v_H_C9aVr4KDCp3lEnvYz3hjC3W9gHcduLDexXn4ppdCWZpS1RookBx7qBAgFaHBuc2B-sjHsvjMkzRKGcYKJYRZ57TP3DJvbSnwi2owlR1tBp7vlgKmOpzZrpBsUQbiwgyMj9gyhcpkFAzE82IiTXSzAv1NYE2RQ",
        "https://m.facebook.com/l.php?u=https%3A%2F%2Fmoderntech.site%2Fthe-symbolism-behind-mexican-new-year-foods-and-their-meanings%2F%3Ffbclid%3DIwZXh0bgNhZW0CMTAAAR1D9P5sEd7R5Zwv5lxgbDolxvjU5IX4sEL_6Si2rPYdMVGtykIzpu22HHQ_aem_diAH6FPDSd043TWxCQHM9w&h=AT180pyqp5pJFotfSgsX5SolrYcXvICe0mZPd0zecjdXDN-7RW_MNlTNn-nyz7MW6GZP79EQdymHu4-_HmcZcpmFetB2gdAXEYZk68AYoBdhemVtoaj1cFW25ExnEeT6E4yCDA5kxOPOyzsa79SC&__tn__=-UK-R&c[0]=AT0XBTxHcrAF9QItc9912v_H_C9aVr4KDCp3lEnvYz3hjC3W9gHcduLDexXn4ppdCWZpS1RookBx7qBAgFaHBuc2B-sjHsvjMkzRKGcYKJYRZ57TP3DJvbSnwi2owlR1tBp7vlgKmOpzZrpBsUQbiwgyMj9gyhcpkFAzE82IiTXSzAv1NYE2RQ",
        "https://m.facebook.com/l.php?u=https%3A%2F%2Fmoderntech.site%2Ftraditional-hungarian-foods-for-thanksgiving%2F%3Ffbclid%3DIwZXh0bgNhZW0CMTAAAR25fSQIRVAgHC40CyNKLi7pn_XMlWyJs_wIfv-47izHlzE4_W-P0RtKDe8_aem_Hpfc1N_MZypPqTQSLkzxPg&h=AT26zt7xvtTfjIMhLt_pWSDOX_05sdmUnAmPrkZqFdHzMZ6qwGh-ed3hq9e8HD3zNtXEKILQnYNzxAGk9WRP0-kjGTpEwa2WewtO_5f2G9ibM4XXGgFURHGz2iqN3mZKvItQGK21YZE_rMkyQOUh&__tn__=-UK-R&c[0]=AT0XBTxHcrAF9QItc9912v_H_C9aVr4KDCp3lEnvYz3hjC3W9gHcduLDexXn4ppdCWZpS1RookBx7qBAgFaHBuc2B-sjHsvjMkzRKGcYKJYRZ57TP3DJvbSnwi2owlR1tBp7vlgKmOpzZrpBsUQbiwgyMj9gyhcpkFAzE82IiTXSzAv1NYE2RQ",
        "https://m.facebook.com/l.php?u=https%3A%2F%2Fmoderntech.site%2Ffrom-empanadas-to-pastel-de-choclo-chilean-lunch-delicacies%2F%3Ffbclid%3DIwZXh0bgNhZW0CMTAAAR3HZXt-320-wwR9mu-uNs8ip1Ra8PVxbDJcNWTzeUJTYTNbaaDckcbjUt4_aem_Xh4EpuZuJGUSbjHoVnevMg&h=AT22q-AsHqKZmyBy1QibhsUThs_gtGFqVO7_GrMUf4gRMZSOayh5BdKZ6vENWmL84gojlVlLjt2ZiP0EKYiXlWd65JfodQLriwWfjeuhkc5uhwRSfnRM7j11oo8k925R0DGnf_bGutjhozNSthjs&__tn__=-UK-R&c[0]=AT0XBTxHcrAF9QItc9912v_H_C9aVr4KDCp3lEnvYz3hjC3W9gHcduLDexXn4ppdCWZpS1RookBx7qBAgFaHBuc2B-sjHsvjMkzRKGcYKJYRZ57TP3DJvbSnwi2owlR1tBp7vlgKmOpzZrpBsUQbiwgyMj9gyhcpkFAzE82IiTXSzAv1NYE2RQ",
        "https://m.facebook.com/l.php?u=https%3A%2F%2Fmoderntech.site%2Fwhat-to-savor-on-a-weekend-night-in-hong-kong%2F%3Ffbclid%3DIwZXh0bgNhZW0CMTAAAR1D9P5sEd7R5Zwv5lxgbDolxvjU5IX4sEL_6Si2rPYdMVGtykIzpu22HHQ_aem_diAH6FPDSd043TWxCQHM9w&h=AT2j3WMWVnOP1CQYJMigvmzL85fmWJ-WeXV9IjAd0xzS_pHJ9MQ3hYPAqP2KUEEyvEihcVVHVLUIZNMugwlelJFgxtrW0kX6QRPG_Nh-7r6V9ynSXja0gn5GFjlQ57w77rsfDzabYNTvTq6yKOUh&__tn__=-UK-R&c[0]=AT0XBTxHcrAF9QItc9912v_H_C9aVr4KDCp3lEnvYz3hjC3W9gHcduLDexXn4ppdCWZpS1RookBx7qBAgFaHBuc2B-sjHsvjMkzRKGcYKJYRZ57TP3DJvbSnwi2owlR1tBp7vlgKmOpzZrpBsUQbiwgyMj9gyhcpkFAzE82IiTXSzAv1NYE2RQ",
        "https://m.facebook.com/l.php?u=https%3A%2F%2Fmoderntech.site%2Fhow-to-celebrate-special-days-in-brazil-with-traditional-cuisine%2F%3Ffbclid%3DIwZXh0bgNhZW0CMTAAAR1_3XJLnqabDhtEvkhjwGD3PfYluddIJ3AZvoPQAW8ytWcH8Hqp14W3mZY_aem_FPBopoGNELTyZhpR50CvVg&h=AT3yCiesOU2bu0gLAq-J1oBcF7Rknb517jSj76iCbCjOi6zZTk7fADvkqS9qLBHgKybKW_rI2OqQ4cWK7F2EGpKWuG6rlYL1e2frm8kYw1VwcQJ5KdwS-UCcBDBFAjWye29JgdejhLlr8lzPkFNa&__tn__=-UK-R&c[0]=AT0XBTxHcrAF9QItc9912v_H_C9aVr4KDCp3lEnvYz3hjC3W9gHcduLDexXn4ppdCWZpS1RookBx7qBAgFaHBuc2B-sjHsvjMkzRKGcYKJYRZ57TP3DJvbSnwi2owlR1tBp7vlgKmOpzZrpBsUQbiwgyMj9gyhcpkFAzE82IiTXSzAv1NYE2RQ",
        "https://m.facebook.com/l.php?u=https%3A%2F%2Fmoderntech.site%2Fsatisfy-your-late-night-cravings-with-these-italian-delights%2F%3Ffbclid%3DIwZXh0bgNhZW0CMTAAAR25fSQIRVAgHC40CyNKLi7pn_XMlWyJs_wIfv-47izHlzE4_W-P0RtKDe8_aem_Hpfc1N_MZypPqTQSLkzxPg&h=AT0-HHgyVPNmed14MGrkyXOPnRyQpcwGKqGZu6FUwdRpWGI2ehLvjvRrHUxJLPiE9Ot7FEgzmmbhLsAObBBiPNZHKgQu2_tYY7Ef6mFVsksudWYIw6gzJphM-4Rai8ih3hkOAlX_V2W-M2uyab0j&__tn__=-UK-R&c[0]=AT0XBTxHcrAF9QItc9912v_H_C9aVr4KDCp3lEnvYz3hjC3W9gHcduLDexXn4ppdCWZpS1RookBx7qBAgFaHBuc2B-sjHsvjMkzRKGcYKJYRZ57TP3DJvbSnwi2owlR1tBp7vlgKmOpzZrpBsUQbiwgyMj9gyhcpkFAzE82IiTXSzAv1NYE2RQ",
        "https://m.facebook.com/l.php?u=https%3A%2F%2Fmoderntech.site%2Fdiscover-the-best-night-street-food-spots-in-bahrain-a-culinary-adventure%2F%3Ffbclid%3DIwZXh0bgNhZW0CMTAAAR3vuUqpi5XrTuugspR28IZtmVnxYLdknIu4GilPHios-J6BUwqCAwqt6kM_aem__hQE58mvVjATtbDowcqVGA&h=AT1no9wLyxIf3PQq5rfuZuK5w8gcCrywr6xN8BrpNgRTsLsiy3uvKEJFKLp50vdDjLZ8EMnwuXNQoJY7CQfc4k1JHyG6DGAkHFUaD_HjuqVsAGF0GYJkxhLGoUEAB7Q037qQXRvuk9ZNOaVrsuZ4&__tn__=-UK-R&c[0]=AT0XBTxHcrAF9QItc9912v_H_C9aVr4KDCp3lEnvYz3hjC3W9gHcduLDexXn4ppdCWZpS1RookBx7qBAgFaHBuc2B-sjHsvjMkzRKGcYKJYRZ57TP3DJvbSnwi2owlR1tBp7vlgKmOpzZrpBsUQbiwgyMj9gyhcpkFAzE82IiTXSzAv1NYE2RQ",
        "https://m.facebook.com/l.php?u=https%3A%2F%2Fmoderntech.site%2Flate-night-food-crawl-exploring-dhakas-nighttime-eateries%2F%3Ffbclid%3DIwZXh0bgNhZW0CMTAAAR1_3XJLnqabDhtEvkhjwGD3PfYluddIJ3AZvoPQAW8ytWcH8Hqp14W3mZY_aem_FPBopoGNELTyZhpR50CvVg&h=AT3JSWnLQhkFzYmKTKMGpBL8hzOhRIwwApDuqb_L-9SwdZAXnUl_Bkzp2n5-hJKSiQrtxf8RyaktGu4mhu-hG1uRlTWZBGGDcfCA1-oEAJexfZFk8dqGGUEumKYo_hVe4e7tlYgqi7Xnoj6tGIfZ&__tn__=-UK-R&c[0]=AT0XBTxHcrAF9QItc9912v_H_C9aVr4KDCp3lEnvYz3hjC3W9gHcduLDexXn4ppdCWZpS1RookBx7qBAgFaHBuc2B-sjHsvjMkzRKGcYKJYRZ57TP3DJvbSnwi2owlR1tBp7vlgKmOpzZrpBsUQbiwgyMj9gyhcpkFAzE82IiTXSzAv1NYE2RQ",
        "https://m.facebook.com/l.php?u=https%3A%2F%2Fmoderntech.site%2Fexploring-the-authentic-flavors-of-norwegian-cuisine-midnight-delights-edition%2F%3Ffbclid%3DIwZXh0bgNhZW0CMTAAAR1_3XJLnqabDhtEvkhjwGD3PfYluddIJ3AZvoPQAW8ytWcH8Hqp14W3mZY_aem_FPBopoGNELTyZhpR50CvVg&h=AT1ubvpRRbnXmqPbJZWfAPzrosIjOVHYt9ELHfp5_f48NqMKXs3Blj3D0cvs77ZrQyLc8TI0sLEh24dyffjr9ffD3srLbYFI3-r0_uunnjkLFNb6A5QlHfBtOtpdcaAsivYjCtaa7Hil6pyKACNa&__tn__=-UK-R&c[0]=AT0XBTxHcrAF9QItc9912v_H_C9aVr4KDCp3lEnvYz3hjC3W9gHcduLDexXn4ppdCWZpS1RookBx7qBAgFaHBuc2B-sjHsvjMkzRKGcYKJYRZ57TP3DJvbSnwi2owlR1tBp7vlgKmOpzZrpBsUQbiwgyMj9gyhcpkFAzE82IiTXSzAv1NYE2RQ",
        "https://m.facebook.com/l.php?u=https%3A%2F%2Fmoderntech.site%2Fdiscovering-new-flavors-and-classics%2F%3Ffbclid%3DIwZXh0bgNhZW0CMTAAAR2PX8AaC7XCjt8UIGiDr_LOEbX_n7mGynpGzIyQwjmcScb4xk-egTcLQD0_aem_WAp6ibmp73fM9-Bk0WBF8g&h=AT1XN9CvprWsXzgV8blp59osIsM1QjAzkF--_y2j6FF2cxSJ1dKb64p_1B3oaB7zHeek7HJrayvSVVW7HW0urs8QcS6NXqec7TA-w2XPCilVHsT8-en8mkvmgC_Mz-gPG-JpLmexnuuZomH2TaVx&__tn__=-UK-R&c[0]=AT0XBTxHcrAF9QItc9912v_H_C9aVr4KDCp3lEnvYz3hjC3W9gHcduLDexXn4ppdCWZpS1RookBx7qBAgFaHBuc2B-sjHsvjMkzRKGcYKJYRZ57TP3DJvbSnwi2owlR1tBp7vlgKmOpzZrpBsUQbiwgyMj9gyhcpkFAzE82IiTXSzAv1NYE2RQ",
        "https://m.facebook.com/l.php?u=https%3A%2F%2Fmoderntech.site%2Fthe-rise-of-fusion-fast-foods-in-asian-markets-a-culinary-revolution%2F%3Ffbclid%3DIwZXh0bgNhZW0CMTAAAR378QhS_6vfnbGaslrMeV-w0Tdt7ax8dQ2AkToz0qQw3PyB3ryTkA_-4KE_aem_ABqNG27u8NeLsJO2FhgV8g&h=AT2kJWwr5gvdiwYH-lYpK0nbuyL-61lCjCnCi3NLx_OXnPP-8_9L1aomrO4ClNsjpjWNOSGQk3zxZH4aEFNuxxxpg-lPn_pLCmDmZGYx0V0WGpoyBjTEpudKRBikBpqTgzlPexljRl27vCTxCvxJ&__tn__=-UK-R&c[0]=AT0XBTxHcrAF9QItc9912v_H_C9aVr4KDCp3lEnvYz3hjC3W9gHcduLDexXn4ppdCWZpS1RookBx7qBAgFaHBuc2B-sjHsvjMkzRKGcYKJYRZ57TP3DJvbSnwi2owlR1tBp7vlgKmOpzZrpBsUQbiwgyMj9gyhcpkFAzE82IiTXSzAv1NYE2RQ",
        "https://m.facebook.com/l.php?u=https%3A%2F%2Fmoderntech.site%2Fsummer-food-spots-in-london%2F%3Ffbclid%3DIwZXh0bgNhZW0CMTAAAR05Dw7n-aq7Tr_1MD0XPAVXgXBRjcr-948tM8EtwF_oBbpsbgOnkoIPpcU_aem_D2OW9DSot2pACVkA4ny3hA&h=AT1x7TbiKBSKKSx21zY_Zjl3qJ1_GfiRgsfRHWLCDzimAdyScM9A0kSi1bicjml6sCuvxKOfyYZdnMFJFiXEi1q6Pz7jbxjFXnvQKM1xwqw6BiFG6ole2HOHvzskK0U9Yu9EddQavu2H5UG1ZXQ5&__tn__=-UK-R&c[0]=AT0XBTxHcrAF9QItc9912v_H_C9aVr4KDCp3lEnvYz3hjC3W9gHcduLDexXn4ppdCWZpS1RookBx7qBAgFaHBuc2B-sjHsvjMkzRKGcYKJYRZ57TP3DJvbSnwi2owlR1tBp7vlgKmOpzZrpBsUQbiwgyMj9gyhcpkFAzE82IiTXSzAv1NYE2RQ",
        "https://m.facebook.com/l.php?u=https%3A%2F%2Fmoderntech.site%2Fboost-your-health-with-these-picks%2F%3Ffbclid%3DIwZXh0bgNhZW0CMTAAAR3vuUqpi5XrTuugspR28IZtmVnxYLdknIu4GilPHios-J6BUwqCAwqt6kM_aem__hQE58mvVjATtbDowcqVGA&h=AT2tzpFw6ElLlSeGMWEXbU81LfZFBPjvIU4xZOR01IulegVyKyCVCQG_c6-n0wu2rBL_lVOoAE4Tv2iy1MAzTMG8Wd7ZJIjOHfOqfZaKZIeQRnwmnA1wQd0i3IG2hFzTAIvwNgcy5VUXrsUXVMov&__tn__=-UK-R&c[0]=AT0XBTxHcrAF9QItc9912v_H_C9aVr4KDCp3lEnvYz3hjC3W9gHcduLDexXn4ppdCWZpS1RookBx7qBAgFaHBuc2B-sjHsvjMkzRKGcYKJYRZ57TP3DJvbSnwi2owlR1tBp7vlgKmOpzZrpBsUQbiwgyMj9gyhcpkFAzE82IiTXSzAv1NYE2RQ",
        "https://m.facebook.com/l.php?u=https%3A%2F%2Fmoderntech.site%2Fthe-best-healthy-foods-to-eat-before-bed%2F%3Ffbclid%3DIwZXh0bgNhZW0CMTAAAR2QfPTKMCR0bCfShFWYRrl32jjq4ag1Nk9aC_aHB_4DydA4bkjdgYo-KL0_aem_irsWYE1PX9NIpr_efHhIQA&h=AT20oFKrBDceBq3DLt47pA4BZ3LgPJmTZ-M7GUkQRlD_r_6C9gs4jICZvE-kNZDTd_QfLK07cxKmNorii4TPVXJ2aUi_qYWdIPcZ4lIVE6eKdV0YItjVSRau0kxfTeYMHq1ingORyhKdHUqUjSS7&__tn__=-UK-R&c[0]=AT0XBTxHcrAF9QItc9912v_H_C9aVr4KDCp3lEnvYz3hjC3W9gHcduLDexXn4ppdCWZpS1RookBx7qBAgFaHBuc2B-sjHsvjMkzRKGcYKJYRZ57TP3DJvbSnwi2owlR1tBp7vlgKmOpzZrpBsUQbiwgyMj9gyhcpkFAzE82IiTXSzAv1NYE2RQ",
        "https://m.facebook.com/l.php?u=https%3A%2F%2Fmoderntech.site%2Ftop-5-chinese-wedding-desserts-that-will-sweeten-your-special-day%2F%3Ffbclid%3DIwZXh0bgNhZW0CMTAAAR1D9P5sEd7R5Zwv5lxgbDolxvjU5IX4sEL_6Si2rPYdMVGtykIzpu22HHQ_aem_diAH6FPDSd043TWxCQHM9w&h=AT14aJ93WCXeQm5kWkv_9n74_qfR6v5KGlSDnGpWmEMZg-h6TT9eMXLpQWcNW6MU9pQHsPvpN97xziI_cEOJUO8or7DaHlEVmICrFbu7pOl3tbKVsapjvxO7qik9CVcc_KMCxlj_-DWizbEhGZtw&__tn__=-UK-R&c[0]=AT0XBTxHcrAF9QItc9912v_H_C9aVr4KDCp3lEnvYz3hjC3W9gHcduLDexXn4ppdCWZpS1RookBx7qBAgFaHBuc2B-sjHsvjMkzRKGcYKJYRZ57TP3DJvbSnwi2owlR1tBp7vlgKmOpzZrpBsUQbiwgyMj9gyhcpkFAzE82IiTXSzAv1NYE2RQ",
        "https://m.facebook.com/l.php?u=https%3A%2F%2Fmoderntech.site%2Fa-delicious-journey-through-regional-cuisines%2F%3Ffbclid%3DIwZXh0bgNhZW0CMTAAAR1D9P5sEd7R5Zwv5lxgbDolxvjU5IX4sEL_6Si2rPYdMVGtykIzpu22HHQ_aem_diAH6FPDSd043TWxCQHM9w&h=AT07bSO-d5Sc-JuN-hxP29YzMEkQcmSFaie5hXMD4vh1bsVEVihMumGLwfDp7lnx-FnHKsn0l3pYypaV4-VJSF4IxQ4z4KC9BTB6ju7axNEGhNYqe5EC11_B1vpEips3XF1cKYQKQ9Bs4De0XDpq&__tn__=-UK-R&c[0]=AT0XBTxHcrAF9QItc9912v_H_C9aVr4KDCp3lEnvYz3hjC3W9gHcduLDexXn4ppdCWZpS1RookBx7qBAgFaHBuc2B-sjHsvjMkzRKGcYKJYRZ57TP3DJvbSnwi2owlR1tBp7vlgKmOpzZrpBsUQbiwgyMj9gyhcpkFAzE82IiTXSzAv1NYE2RQ",
        "https://m.facebook.com/l.php?u=https%3A%2F%2Fmoderntech.site%2Fculinary-adventures-in-mexico-discovering-unique-flavors%2F%3Ffbclid%3DIwZXh0bgNhZW0CMTAAAR05Dw7n-aq7Tr_1MD0XPAVXgXBRjcr-948tM8EtwF_oBbpsbgOnkoIPpcU_aem_D2OW9DSot2pACVkA4ny3hA&h=AT0IPARgjiXHbIWvQgLzvD9-6QeVuzpyY2aadra4ZfnDlRz6_fAM6mTnZBlEuPgKORzusZtnHMxeQSObLtOtR7_IP6PlL5Jy0fud5xkcyu4rI5tpn1Obb1wXGC3-LXlGrSc5e8c51c0oXyJ9PQWw&__tn__=-UK-R&c[0]=AT0XBTxHcrAF9QItc9912v_H_C9aVr4KDCp3lEnvYz3hjC3W9gHcduLDexXn4ppdCWZpS1RookBx7qBAgFaHBuc2B-sjHsvjMkzRKGcYKJYRZ57TP3DJvbSnwi2owlR1tBp7vlgKmOpzZrpBsUQbiwgyMj9gyhcpkFAzE82IiTXSzAv1NYE2RQ",
        "https://m.facebook.com/l.php?u=https%3A%2F%2Fmoderntech.site%2Fhow-to-create-the-perfect-hungarian-food-spread-for-your-night-event%2F%3Ffbclid%3DIwZXh0bgNhZW0CMTAAAR05Dw7n-aq7Tr_1MD0XPAVXgXBRjcr-948tM8EtwF_oBbpsbgOnkoIPpcU_aem_D2OW9DSot2pACVkA4ny3hA&h=AT2Fyv2-Y-7WdAjbkTRhg1OyN58k3toQ8ACzNApvlatTuDbSqAlQZ-dzyoWrfUbUFUR5QJfTiexGA3fPzpPd_J4fCOAuM062s8CjURamlh_WnZOlZBTrwa14YZMngZG73M3yjRQIa9uQfpSF1jcZ&__tn__=-UK-R&c[0]=AT0XBTxHcrAF9QItc9912v_H_C9aVr4KDCp3lEnvYz3hjC3W9gHcduLDexXn4ppdCWZpS1RookBx7qBAgFaHBuc2B-sjHsvjMkzRKGcYKJYRZ57TP3DJvbSnwi2owlR1tBp7vlgKmOpzZrpBsUQbiwgyMj9gyhcpkFAzE82IiTXSzAv1NYE2RQ",
        "https://m.facebook.com/l.php?u=https%3A%2F%2Fmoderntech.site%2Fexploring-hong-kongs-culinary-scene-top-lunchtime-eateries%2F%3Ffbclid%3DIwZXh0bgNhZW0CMTAAAR2PX8AaC7XCjt8UIGiDr_LOEbX_n7mGynpGzIyQwjmcScb4xk-egTcLQD0_aem_WAp6ibmp73fM9-Bk0WBF8g&h=AT1mV8p-NcsJx1O7jJnpL6b-jNhXN47yQhi6UOREkxatIGJukoS65_lrES1y0GhZQogVVDSfWIgzP7VVlu8okq8EPtU6K7WtVJ2mYZ9QRiheUiJ4RI3fJQxO0GTjFtv8ifl9lPhIHOD7DRwwKanA&__tn__=-UK-R&c[0]=AT0XBTxHcrAF9QItc9912v_H_C9aVr4KDCp3lEnvYz3hjC3W9gHcduLDexXn4ppdCWZpS1RookBx7qBAgFaHBuc2B-sjHsvjMkzRKGcYKJYRZ57TP3DJvbSnwi2owlR1tBp7vlgKmOpzZrpBsUQbiwgyMj9gyhcpkFAzE82IiTXSzAv1NYE2RQ",
        "https://m.facebook.com/l.php?u=https%3A%2F%2Fmoderntech.site%2Fpairing-drinks-with-chilean-bbq-night-barbecue%2F%3Ffbclid%3DIwZXh0bgNhZW0CMTAAAR3HZXt-320-wwR9mu-uNs8ip1Ra8PVxbDJcNWTzeUJTYTNbaaDckcbjUt4_aem_Xh4EpuZuJGUSbjHoVnevMg&h=AT1MKJyDDizBl4ym2VbY07KENOTGkcd8pcKjXS6JArzlwYQOhqhXA_yldZ_raO1Yg4O0MPoJ0ptYfXYY4FAemoggZ5-B8vKjYpsR9Rpy_ikJbHXcGgQESvKZupXud9rYNTkI5pqx54AKjlxarBlZ&__tn__=-UK-R&c[0]=AT0XBTxHcrAF9QItc9912v_H_C9aVr4KDCp3lEnvYz3hjC3W9gHcduLDexXn4ppdCWZpS1RookBx7qBAgFaHBuc2B-sjHsvjMkzRKGcYKJYRZ57TP3DJvbSnwi2owlR1tBp7vlgKmOpzZrpBsUQbiwgyMj9gyhcpkFAzE82IiTXSzAv1NYE2RQ",
        "https://m.facebook.com/l.php?u=https%3A%2F%2Fmoderntech.site%2Fbrazilian-gastronomy-for-your-wedding-night-a-culinary-delight%2F%3Ffbclid%3DIwZXh0bgNhZW0CMTAAAR1D9P5sEd7R5Zwv5lxgbDolxvjU5IX4sEL_6Si2rPYdMVGtykIzpu22HHQ_aem_diAH6FPDSd043TWxCQHM9w&h=AT07ZiCzmPVSsEbYvZhPTRCGbx1a3rQsmTiHt2bzIqHyp4wXCOZZpHNpFOaVSztTXaTo9e62L0h1W_vOhLRbfYZdGoiB3xlitNmiivuXPGSyCr6jhKZt28NxO2I1BUPTWXRKnuCV9JXyfvG4Qrbc&__tn__=-UK-R&c[0]=AT0XBTxHcrAF9QItc9912v_H_C9aVr4KDCp3lEnvYz3hjC3W9gHcduLDexXn4ppdCWZpS1RookBx7qBAgFaHBuc2B-sjHsvjMkzRKGcYKJYRZ57TP3DJvbSnwi2owlR1tBp7vlgKmOpzZrpBsUQbiwgyMj9gyhcpkFAzE82IiTXSzAv1NYE2RQ",
        "https://m.facebook.com/l.php?u=https%3A%2F%2Fmoderntech.site%2Flate-night-food-options-to-elevate-your-bahrain-party-experience%2F%3Ffbclid%3DIwZXh0bgNhZW0CMTAAAR3vuUqpi5XrTuugspR28IZtmVnxYLdknIu4GilPHios-J6BUwqCAwqt6kM_aem__hQE58mvVjATtbDowcqVGA&h=AT3Qba1gVmox4RbXfbz5qQ6TEJAV4phxAnMSEUeeAg4cuWDJo3DdzGM2dyNITlz5ZLb4gjVa63ZW3DZ0qzt6vB5kEpxnTXgVZFbFQOprZPQmba49LYdqKpotj8ARMjuDSlscO264zu8HEopFkkrc&__tn__=-UK-R&c[0]=AT0XBTxHcrAF9QItc9912v_H_C9aVr4KDCp3lEnvYz3hjC3W9gHcduLDexXn4ppdCWZpS1RookBx7qBAgFaHBuc2B-sjHsvjMkzRKGcYKJYRZ57TP3DJvbSnwi2owlR1tBp7vlgKmOpzZrpBsUQbiwgyMj9gyhcpkFAzE82IiTXSzAv1NYE2RQ",
        "https://m.facebook.com/l.php?u=https%3A%2F%2Fmoderntech.site%2Fthe-art-of-pairing-chinese-food-with-local-craft-beers%2F%3Ffbclid%3DIwZXh0bgNhZW0CMTAAAR3vuUqpi5XrTuugspR28IZtmVnxYLdknIu4GilPHios-J6BUwqCAwqt6kM_aem__hQE58mvVjATtbDowcqVGA&h=AT2QAfpK3nqGY1WzD_6np5CtNBSFyw9prJ_0s0brp8-3uK9zrVv3NbXlZrYtQe6UOuSkeK2fFVC3lE73Uu9y0PKiZY7jaLDD9MxqfDvvCD0QXQ--1kBBc6JzFi_ZY8nM4zy_8lDz36cr5Xv2FFsi&__tn__=-UK-R&c[0]=AT0XBTxHcrAF9QItc9912v_H_C9aVr4KDCp3lEnvYz3hjC3W9gHcduLDexXn4ppdCWZpS1RookBx7qBAgFaHBuc2B-sjHsvjMkzRKGcYKJYRZ57TP3DJvbSnwi2owlR1tBp7vlgKmOpzZrpBsUQbiwgyMj9gyhcpkFAzE82IiTXSzAv1NYE2RQ",
        "https://m.facebook.com/l.php?u=https%3A%2F%2Fmoderntech.site%2Fbest-healthy-foods-to-enjoy-in-singapore%2F%3Ffbclid%3DIwZXh0bgNhZW0CMTAAAR05Dw7n-aq7Tr_1MD0XPAVXgXBRjcr-948tM8EtwF_oBbpsbgOnkoIPpcU_aem_D2OW9DSot2pACVkA4ny3hA&h=AT0h-TgHUyR3TVzxPGsez_sBAXpZRlYM3ecxP53f40JptGV1lLcyCuN4IT22kt2hysEklrMw2xZ2LVluVyxEu9z5naoEHQWRHSz31EjHKBW0HEUA2wcyYyEtDD54LeN70dV6XlZaBz9AHCLVZG_l&__tn__=-UK-R&c[0]=AT0XBTxHcrAF9QItc9912v_H_C9aVr4KDCp3lEnvYz3hjC3W9gHcduLDexXn4ppdCWZpS1RookBx7qBAgFaHBuc2B-sjHsvjMkzRKGcYKJYRZ57TP3DJvbSnwi2owlR1tBp7vlgKmOpzZrpBsUQbiwgyMj9gyhcpkFAzE82IiTXSzAv1NYE2RQ",
        "https://m.facebook.com/l.php?u=https%3A%2F%2Fmoderntech.site%2Fhow-vegetables-can-improve-your-well-being%2F%3Ffbclid%3DIwZXh0bgNhZW0CMTAAAR378QhS_6vfnbGaslrMeV-w0Tdt7ax8dQ2AkToz0qQw3PyB3ryTkA_-4KE_aem_ABqNG27u8NeLsJO2FhgV8g&h=AT0mHJIToZ7_OYyvfdbGpKorM-s8Z6W7wG_-TiEm2iuTTxfwX7YwOVSr3W07lATbCZsydXv8wu8TmrkVmn1dyTDoXvMEXDazK_Q8jUsEGdcyF9DeUe_RQbWClpgZmMRd6IxGl3aDIJRXFlbWliv1&__tn__=-UK-R&c[0]=AT0XBTxHcrAF9QItc9912v_H_C9aVr4KDCp3lEnvYz3hjC3W9gHcduLDexXn4ppdCWZpS1RookBx7qBAgFaHBuc2B-sjHsvjMkzRKGcYKJYRZ57TP3DJvbSnwi2owlR1tBp7vlgKmOpzZrpBsUQbiwgyMj9gyhcpkFAzE82IiTXSzAv1NYE2RQ",
        "https://m.facebook.com/l.php?u=https%3A%2F%2Fmoderntech.site%2Fexploring-the-vibrant-flavors-of-rajasthans-summer-cuisine%2F%3Ffbclid%3DIwZXh0bgNhZW0CMTAAAR05Dw7n-aq7Tr_1MD0XPAVXgXBRjcr-948tM8EtwF_oBbpsbgOnkoIPpcU_aem_D2OW9DSot2pACVkA4ny3hA&h=AT1XOGrBMkEmAbMoSlKAfO7UqAkmCGLfUBHM-MLOmf59Pi_1Q5mpjefwlQT8VTy8YNGCrenTMTJo8RwrIQ_cxCehu4v9W_AV-on1JqS3k4E3lA-YgqBhcqHAU37mAr513nc9WSiKQVrP_wegb6v7&__tn__=-UK-R&c[0]=AT0XBTxHcrAF9QItc9912v_H_C9aVr4KDCp3lEnvYz3hjC3W9gHcduLDexXn4ppdCWZpS1RookBx7qBAgFaHBuc2B-sjHsvjMkzRKGcYKJYRZ57TP3DJvbSnwi2owlR1tBp7vlgKmOpzZrpBsUQbiwgyMj9gyhcpkFAzE82IiTXSzAv1NYE2RQ",
        "https://m.facebook.com/l.php?u=https%3A%2F%2Fmoderntech.site%2Frussian-gastronomy-reloaded-trending-flavors%2F%3Ffbclid%3DIwZXh0bgNhZW0CMTAAAR3vuUqpi5XrTuugspR28IZtmVnxYLdknIu4GilPHios-J6BUwqCAwqt6kM_aem__hQE58mvVjATtbDowcqVGA&h=AT3lIg3Q4r0EigjJzD0xA_iPhBw4pwmPMo-Jlf7UpgPXIQ55iFk49fWSACRLGin9Yj6x-AJMxMrJGxEp1M64zv4fOEdvP44M9RvlPDw7qgPHnU2KxczNEkT5xEx0IL1CPihM7K8832xQcWhDA2dw&__tn__=-UK-R&c[0]=AT0XBTxHcrAF9QItc9912v_H_C9aVr4KDCp3lEnvYz3hjC3W9gHcduLDexXn4ppdCWZpS1RookBx7qBAgFaHBuc2B-sjHsvjMkzRKGcYKJYRZ57TP3DJvbSnwi2owlR1tBp7vlgKmOpzZrpBsUQbiwgyMj9gyhcpkFAzE82IiTXSzAv1NYE2RQ",
        "https://m.facebook.com/l.php?u=https%3A%2F%2Fmoderntech.site%2Ftips-and-tricks-from-italian-chefs%2F%3Ffbclid%3DIwZXh0bgNhZW0CMTAAAR2QfPTKMCR0bCfShFWYRrl32jjq4ag1Nk9aC_aHB_4DydA4bkjdgYo-KL0_aem_irsWYE1PX9NIpr_efHhIQA&h=AT1LX820c03Tno6SClda4-_bOzjkVzrS7p8KRcjwEZTDA2Y6sLj0ZQRl5C7F25et3UpGMkK0LznFVTpeRX8uHabxYwhga0wYjNl1HVemHhHSrDMsXYFxp33naOrRfRCfiyk-nth_6QqhqQRH1KZA&__tn__=-UK-R&c[0]=AT0XBTxHcrAF9QItc9912v_H_C9aVr4KDCp3lEnvYz3hjC3W9gHcduLDexXn4ppdCWZpS1RookBx7qBAgFaHBuc2B-sjHsvjMkzRKGcYKJYRZ57TP3DJvbSnwi2owlR1tBp7vlgKmOpzZrpBsUQbiwgyMj9gyhcpkFAzE82IiTXSzAv1NYE2RQ",
        "https://m.facebook.com/l.php?u=https%3A%2F%2Fmoderntech.site%2Fspice-up-your-lunchtime-with-authentic-malaysian-flavors-and-healthy-ingredients%2F%3Ffbclid%3DIwZXh0bgNhZW0CMTAAAR2QfPTKMCR0bCfShFWYRrl32jjq4ag1Nk9aC_aHB_4DydA4bkjdgYo-KL0_aem_irsWYE1PX9NIpr_efHhIQA&h=AT1CT6nJqC5cIEiSCIuGm1Aq-emstXl0a4Fd8HN0BeYp_FJOMGNkufwoauuWNjEjEcniFzgYwvB5QuLdOOUL3us_DjxD6W8MR2_mSeoLo-iYWGuKWxPZahyn-f6o3UXGqO6Tv4X0JujgdSNMYGxn&__tn__=-UK-R&c[0]=AT0XBTxHcrAF9QItc9912v_H_C9aVr4KDCp3lEnvYz3hjC3W9gHcduLDexXn4ppdCWZpS1RookBx7qBAgFaHBuc2B-sjHsvjMkzRKGcYKJYRZ57TP3DJvbSnwi2owlR1tBp7vlgKmOpzZrpBsUQbiwgyMj9gyhcpkFAzE82IiTXSzAv1NYE2RQ",
        "https://m.facebook.com/l.php?u=https%3A%2F%2Fmoderntech.site%2Fexploring-traditional-and-modern-healthy-options%2F%3Ffbclid%3DIwZXh0bgNhZW0CMTAAAR3vuUqpi5XrTuugspR28IZtmVnxYLdknIu4GilPHios-J6BUwqCAwqt6kM_aem__hQE58mvVjATtbDowcqVGA&h=AT0aNoD6Tu_ZGseclIHsk0uAVpdYcwRmpEtjUvIS4c5KkUmamHQCrGDWxIsEFoayFmQ1IeECeb423NDAMcR0uvIMgUzB558o5aAi5NYVyYDOuQLK7xrjvTum_nHTsaUO5QwKSgCQksAaNi87XNED&__tn__=-UK-R&c[0]=AT0XBTxHcrAF9QItc9912v_H_C9aVr4KDCp3lEnvYz3hjC3W9gHcduLDexXn4ppdCWZpS1RookBx7qBAgFaHBuc2B-sjHsvjMkzRKGcYKJYRZ57TP3DJvbSnwi2owlR1tBp7vlgKmOpzZrpBsUQbiwgyMj9gyhcpkFAzE82IiTXSzAv1NYE2RQ",
        "https://m.facebook.com/l.php?u=https%3A%2F%2Fmoderntech.site%2Fdiscovering-the-most-nutrient-dense-options%2F%3Ffbclid%3DIwZXh0bgNhZW0CMTAAAR1D9P5sEd7R5Zwv5lxgbDolxvjU5IX4sEL_6Si2rPYdMVGtykIzpu22HHQ_aem_diAH6FPDSd043TWxCQHM9w&h=AT0VtvDPiTsiJC94FzlS3cMWyBiMrMTtr4kpXw_bnKYyRii0H71i_kGO6rUYJZBNIfy4zCtC9MPXn0jdgXi8aC78rOU676WHaF43jJQNC0E9QE00_Qs8QTQK-1oDW3auUrCJJCOTri4D8rk6iU5B&__tn__=-UK-R&c[0]=AT0XBTxHcrAF9QItc9912v_H_C9aVr4KDCp3lEnvYz3hjC3W9gHcduLDexXn4ppdCWZpS1RookBx7qBAgFaHBuc2B-sjHsvjMkzRKGcYKJYRZ57TP3DJvbSnwi2owlR1tBp7vlgKmOpzZrpBsUQbiwgyMj9gyhcpkFAzE82IiTXSzAv1NYE2RQ",
        "https://m.facebook.com/l.php?u=https%3A%2F%2Fmoderntech.site%2Fnavigating-the-land-of-the-rising-sun%2F%3Ffbclid%3DIwZXh0bgNhZW0CMTAAAR0LFrDu6iBjqKqv3qOikSsJDRfbw1zfuEJETmqcWlyWThKg-ILGltmcLk8_aem_9ZffVsCN8JxQBe7FfB6QbA&h=AT1A2j-kbxeQ7cW6-pO8DqqL4vJLfcFI6Rm5u1V6o4tEI3kHoivbq_eIHMIf3dx5fiT2rwacdXzKWVrpyOO6I9OVOvq4ynWmYoCZoGYoyx4TlGrbqnNC4Uh1mTomt9tYIG8LFk15W-R7YZ_4oEGB&__tn__=-UK-R&c[0]=AT0XBTxHcrAF9QItc9912v_H_C9aVr4KDCp3lEnvYz3hjC3W9gHcduLDexXn4ppdCWZpS1RookBx7qBAgFaHBuc2B-sjHsvjMkzRKGcYKJYRZ57TP3DJvbSnwi2owlR1tBp7vlgKmOpzZrpBsUQbiwgyMj9gyhcpkFAzE82IiTXSzAv1NYE2RQ",
        "https://m.facebook.com/l.php?u=https%3A%2F%2Fmoderntech.site%2Fdelight-your-palate-with-these-unforgettable-dishes%2F%3Ffbclid%3DIwZXh0bgNhZW0CMTAAAR378QhS_6vfnbGaslrMeV-w0Tdt7ax8dQ2AkToz0qQw3PyB3ryTkA_-4KE_aem_ABqNG27u8NeLsJO2FhgV8g&h=AT112gck4dNlteSQKyjaLSG0bKqREQQTMDgpllVNJoVxACEuNNc4km7HIbjdKyokve05ea2iHex69pqgR4mCANFSMkQwMHRZYYpzrW0_A8jEytb9EikFZvYvz8j6bIGIRF8RBAOn-x8cqe_3D8a3&__tn__=-UK-R&c[0]=AT0XBTxHcrAF9QItc9912v_H_C9aVr4KDCp3lEnvYz3hjC3W9gHcduLDexXn4ppdCWZpS1RookBx7qBAgFaHBuc2B-sjHsvjMkzRKGcYKJYRZ57TP3DJvbSnwi2owlR1tBp7vlgKmOpzZrpBsUQbiwgyMj9gyhcpkFAzE82IiTXSzAv1NYE2RQ",
        "https://m.facebook.com/l.php?u=https%3A%2F%2Fmoderntech.site%2Ffood-festivals-in-singapore-dates-locations-and-must-eats%2F%3Ffbclid%3DIwZXh0bgNhZW0CMTAAAR2QfPTKMCR0bCfShFWYRrl32jjq4ag1Nk9aC_aHB_4DydA4bkjdgYo-KL0_aem_irsWYE1PX9NIpr_efHhIQA&h=AT038iDDyljOejxxyokW-Aqia3d7kEzp6UtHZ7S_wMx-VN6KUEO8gwpbzWFwN3TOq-yc8HcMKsaRmxlqt0rdoZu0-tO4cGvsOtYpEYAGNXBj58Zw_Y4fJ_Bb31YN4vCpK1rXXfKAJCVm6a-nfkNB&__tn__=-UK-R&c[0]=AT0XBTxHcrAF9QItc9912v_H_C9aVr4KDCp3lEnvYz3hjC3W9gHcduLDexXn4ppdCWZpS1RookBx7qBAgFaHBuc2B-sjHsvjMkzRKGcYKJYRZ57TP3DJvbSnwi2owlR1tBp7vlgKmOpzZrpBsUQbiwgyMj9gyhcpkFAzE82IiTXSzAv1NYE2RQ",
        "https://m.facebook.com/l.php?u=https%3A%2F%2Fmoderntech.site%2Funique-ingredients-in-polish-cooking%2F%3Ffbclid%3DIwZXh0bgNhZW0CMTAAAR1_3XJLnqabDhtEvkhjwGD3PfYluddIJ3AZvoPQAW8ytWcH8Hqp14W3mZY_aem_FPBopoGNELTyZhpR50CvVg&h=AT1-7LXrcvejLSYtNJaPSKt3VCCtAiQcTEz4YJ65YwKvHMuNgAun4gIVUbD9cxuTnFogTXB-tzAiKYk4Lyyas5Vr94pPyxmWfrD6XIiI_4TYcihQ-LXjwFrK_dwLqsDBLO1CwpCFxtC5pWkGXhMI&__tn__=-UK-R&c[0]=AT0XBTxHcrAF9QItc9912v_H_C9aVr4KDCp3lEnvYz3hjC3W9gHcduLDexXn4ppdCWZpS1RookBx7qBAgFaHBuc2B-sjHsvjMkzRKGcYKJYRZ57TP3DJvbSnwi2owlR1tBp7vlgKmOpzZrpBsUQbiwgyMj9gyhcpkFAzE82IiTXSzAv1NYE2RQ",
        "https://m.facebook.com/l.php?u=https%3A%2F%2Fmoderntech.site%2Fwedding-trends-embracing-mexicos-culinary-heritage%2F%3Ffbclid%3DIwZXh0bgNhZW0CMTAAAR25fSQIRVAgHC40CyNKLi7pn_XMlWyJs_wIfv-47izHlzE4_W-P0RtKDe8_aem_Hpfc1N_MZypPqTQSLkzxPg&h=AT145lq2b-InPRvgjUA9BWiU9cC6LW7SbKuo2z6Qo8o6hzmVTv-S2SzzxWMpQFSc6ydpnP1kGff5FGBmHN8J1XiqVYERcoh4fqBuQOVWc_vGvepu-ztovXlJLnQbJMRVQuJ0HzF-aoG3aPQsNnFX&__tn__=-UK-R&c[0]=AT0XBTxHcrAF9QItc9912v_H_C9aVr4KDCp3lEnvYz3hjC3W9gHcduLDexXn4ppdCWZpS1RookBx7qBAgFaHBuc2B-sjHsvjMkzRKGcYKJYRZ57TP3DJvbSnwi2owlR1tBp7vlgKmOpzZrpBsUQbiwgyMj9gyhcpkFAzE82IiTXSzAv1NYE2RQ",
        "https://m.facebook.com/l.php?u=https%3A%2F%2Fmoderntech.site%2Funcovering-the-rich-flavors-of-hungarian-cuisine%2F%3Ffbclid%3DIwZXh0bgNhZW0CMTAAAR2QfPTKMCR0bCfShFWYRrl32jjq4ag1Nk9aC_aHB_4DydA4bkjdgYo-KL0_aem_irsWYE1PX9NIpr_efHhIQA&h=AT3dm2W3DBfCC5DyaK4WOJOaXFWf6vdyrjFxSBMpwAmdvq8XP6tvG60t8E73WoneCJo3lxRryDhAb4qInh55_zlcfgaOh5cD7LOTw6IcAfERefMp8GVZC9J5_Yrwbwjlov8Xd-9sliKiYQQ6Lfa-&__tn__=-UK-R&c[0]=AT0XBTxHcrAF9QItc9912v_H_C9aVr4KDCp3lEnvYz3hjC3W9gHcduLDexXn4ppdCWZpS1RookBx7qBAgFaHBuc2B-sjHsvjMkzRKGcYKJYRZ57TP3DJvbSnwi2owlR1tBp7vlgKmOpzZrpBsUQbiwgyMj9gyhcpkFAzE82IiTXSzAv1NYE2RQ",
        "https://m.facebook.com/l.php?u=https%3A%2F%2Fmoderntech.site%2Fa-foodies-guide-to-michelin-starred-restaurants-in-hong-kong%2F%3Ffbclid%3DIwZXh0bgNhZW0CMTAAAR05Dw7n-aq7Tr_1MD0XPAVXgXBRjcr-948tM8EtwF_oBbpsbgOnkoIPpcU_aem_D2OW9DSot2pACVkA4ny3hA&h=AT1gKSqgpeho_PXDOMYIpk_vvvu-wntA-JVgNlKlx7UqfBrAEN-wVanHYsMghkhi8WuKP2iTC2CWX_Ti5a6ctQmX3Q-By7nezCHYKop4F8MGCSIkHijABQWHwQf6VCXgPVmka3ADD6SV4gGyRCWE&__tn__=-UK-R&c[0]=AT0XBTxHcrAF9QItc9912v_H_C9aVr4KDCp3lEnvYz3hjC3W9gHcduLDexXn4ppdCWZpS1RookBx7qBAgFaHBuc2B-sjHsvjMkzRKGcYKJYRZ57TP3DJvbSnwi2owlR1tBp7vlgKmOpzZrpBsUQbiwgyMj9gyhcpkFAzE82IiTXSzAv1NYE2RQ",
        "https://m.facebook.com/l.php?u=https%3A%2F%2Fmoderntech.site%2Fa-tour-of-the-best-wine-regions%2F%3Ffbclid%3DIwZXh0bgNhZW0CMTAAAR2QfPTKMCR0bCfShFWYRrl32jjq4ag1Nk9aC_aHB_4DydA4bkjdgYo-KL0_aem_irsWYE1PX9NIpr_efHhIQA&h=AT3z5oncYEXH3V6Z2x4um8uAgQJXW9rVykIJvANZlPRSfT1OuGmkLiVymyE_JqoYAWTHO2JAIC-8ROlBEPgPAos4y1WBdBZrlcfS5f4KMrX2SL7ITuEossobxQbnUHRT7xYRIeMguXQNIsjO_CDq&__tn__=-UK-R&c[0]=AT0XBTxHcrAF9QItc9912v_H_C9aVr4KDCp3lEnvYz3hjC3W9gHcduLDexXn4ppdCWZpS1RookBx7qBAgFaHBuc2B-sjHsvjMkzRKGcYKJYRZ57TP3DJvbSnwi2owlR1tBp7vlgKmOpzZrpBsUQbiwgyMj9gyhcpkFAzE82IiTXSzAv1NYE2RQ",
        "https://m.facebook.com/l.php?u=https%3A%2F%2Fmoderntech.site%2Fgastronomic-delights-at-brazilian-religious-ceremonies%2F%3Ffbclid%3DIwZXh0bgNhZW0CMTAAAR1D9P5sEd7R5Zwv5lxgbDolxvjU5IX4sEL_6Si2rPYdMVGtykIzpu22HHQ_aem_diAH6FPDSd043TWxCQHM9w&h=AT1BXSCWEJrYWoCyfjF3OGngjjAo_YKTrAtZfQtHGuHhc9svQsxMZe-TKv3kJu5ci_2J1uKzmXI3o64CwdMyKwecbv4lQurk85OL6Tft-REYWrV5ktX48ozINuqsTLwY8lChAcs1e6dalupbGhcP&__tn__=-UK-R&c[0]=AT0XBTxHcrAF9QItc9912v_H_C9aVr4KDCp3lEnvYz3hjC3W9gHcduLDexXn4ppdCWZpS1RookBx7qBAgFaHBuc2B-sjHsvjMkzRKGcYKJYRZ57TP3DJvbSnwi2owlR1tBp7vlgKmOpzZrpBsUQbiwgyMj9gyhcpkFAzE82IiTXSzAv1NYE2RQ",
        "https://m.facebook.com/l.php?u=https%3A%2F%2Fmoderntech.site%2Ftraditional-foods-served-at-bahrains-religious-events%2F%3Ffbclid%3DIwZXh0bgNhZW0CMTAAAR25fSQIRVAgHC40CyNKLi7pn_XMlWyJs_wIfv-47izHlzE4_W-P0RtKDe8_aem_Hpfc1N_MZypPqTQSLkzxPg&h=AT0SnIu6mA_eIbaSKLbS7utkWTqqNHAjeTalEyQvXiEqcUoLwFeTIHM-FjDcWCWEMHBGH5kaGULtcurb7-NQ2vBv5_6I-GvQ1eQoayZk5isrKhCcelH25AwK36PAgkqAIEaD87Ur5HGtCpbO94zC&__tn__=-UK-R&c[0]=AT0XBTxHcrAF9QItc9912v_H_C9aVr4KDCp3lEnvYz3hjC3W9gHcduLDexXn4ppdCWZpS1RookBx7qBAgFaHBuc2B-sjHsvjMkzRKGcYKJYRZ57TP3DJvbSnwi2owlR1tBp7vlgKmOpzZrpBsUQbiwgyMj9gyhcpkFAzE82IiTXSzAv1NYE2RQ",
        "https://m.facebook.com/l.php?u=https%3A%2F%2Fmoderntech.site%2Fthe-fast-food-industry-evolution-impact-and-trends%2F%3Ffbclid%3DIwZXh0bgNhZW0CMTAAAR2QfPTKMCR0bCfShFWYRrl32jjq4ag1Nk9aC_aHB_4DydA4bkjdgYo-KL0_aem_irsWYE1PX9NIpr_efHhIQA&h=AT31NXzaJIt7HCS389Y3ygvCVGHNPKQ7YKaF3_8duasHFok4PBASlQ5htWzbP_J_MKfjkJD6Cs3hMQFYPH78GiBjGTQBTaem7RR6GaXXqdPMx5Qu9rhZFJ3rfsA3Naoha3UxPdOvhYmTTVi1Zbbu&__tn__=-UK-R&c[0]=AT0XBTxHcrAF9QItc9912v_H_C9aVr4KDCp3lEnvYz3hjC3W9gHcduLDexXn4ppdCWZpS1RookBx7qBAgFaHBuc2B-sjHsvjMkzRKGcYKJYRZ57TP3DJvbSnwi2owlR1tBp7vlgKmOpzZrpBsUQbiwgyMj9gyhcpkFAzE82IiTXSzAv1NYE2RQ",
        "https://m.facebook.com/l.php?u=https%3A%2F%2Fmoderntech.site%2Fa-culinary-exploration-of-chinese-foods%2F%3Ffbclid%3DIwZXh0bgNhZW0CMTAAAR3HZXt-320-wwR9mu-uNs8ip1Ra8PVxbDJcNWTzeUJTYTNbaaDckcbjUt4_aem_Xh4EpuZuJGUSbjHoVnevMg&h=AT2gRNrcvQ2eyMqKGBYeBzLHRg02DWwSHXzjJ5EN8PznjwUttdjThBOq7985MErQnFMxixOOn7lhgkH5_AaPu4hSBvmNZ9WJLPcTmZv1NaJcYArjPihaOm53CpZ2ye6AvrM1SSlwXFEWby3CuvAz&__tn__=-UK-R&c[0]=AT0XBTxHcrAF9QItc9912v_H_C9aVr4KDCp3lEnvYz3hjC3W9gHcduLDexXn4ppdCWZpS1RookBx7qBAgFaHBuc2B-sjHsvjMkzRKGcYKJYRZ57TP3DJvbSnwi2owlR1tBp7vlgKmOpzZrpBsUQbiwgyMj9gyhcpkFAzE82IiTXSzAv1NYE2RQ",
        "https://m.facebook.com/l.php?u=https%3A%2F%2Fmoderntech.site%2Fhow-to-make-the-best-food-choices-for-your-health%2F%3Ffbclid%3DIwZXh0bgNhZW0CMTAAAR3HZXt-320-wwR9mu-uNs8ip1Ra8PVxbDJcNWTzeUJTYTNbaaDckcbjUt4_aem_Xh4EpuZuJGUSbjHoVnevMg&h=AT29ou7nW1YYS6UPB8r0ni8XSFFVpA6uJvd5DwAVBaSfixXbTdOm5ow-ixRLdY6qLEHrH9j4lQ4lcoavhcmZ3ezpPUcherKfQR_2G7PDBadvVgqCEt5JipWenryMHvM7ZAw33aBV046a1S3T4IEe&__tn__=-UK-R&c[0]=AT0XBTxHcrAF9QItc9912v_H_C9aVr4KDCp3lEnvYz3hjC3W9gHcduLDexXn4ppdCWZpS1RookBx7qBAgFaHBuc2B-sjHsvjMkzRKGcYKJYRZ57TP3DJvbSnwi2owlR1tBp7vlgKmOpzZrpBsUQbiwgyMj9gyhcpkFAzE82IiTXSzAv1NYE2RQ",
        "https://m.facebook.com/l.php?u=https%3A%2F%2Fmoderntech.site%2Fthe-role-of-organic-vegetables-in-enhancing-your-overall-wellness%2F%3Ffbclid%3DIwZXh0bgNhZW0CMTAAAR3vuUqpi5XrTuugspR28IZtmVnxYLdknIu4GilPHios-J6BUwqCAwqt6kM_aem__hQE58mvVjATtbDowcqVGA&h=AT2g2IgWRoLXLMFVTlRhqhjmWb494af_rLK2AqxtGC6QG-wNQxB8r5lFtzksk0iYSo1XybZCzt9cXKgw_lHPhxYC4HVgIfM0IFoPDa4p5H8W5CHQxt7mpUUihCaRAE7Dv_ZzbxmF-pdd5kivcu9V&__tn__=-UK-R&c[0]=AT0XBTxHcrAF9QItc9912v_H_C9aVr4KDCp3lEnvYz3hjC3W9gHcduLDexXn4ppdCWZpS1RookBx7qBAgFaHBuc2B-sjHsvjMkzRKGcYKJYRZ57TP3DJvbSnwi2owlR1tBp7vlgKmOpzZrpBsUQbiwgyMj9gyhcpkFAzE82IiTXSzAv1NYE2RQ",
        "https://m.facebook.com/l.php?u=https%3A%2F%2Fmoderntech.site%2Fcooking-like-a-norwegian-essential-ingredients-and-techniques%2F%3Ffbclid%3DIwZXh0bgNhZW0CMTAAAR25fSQIRVAgHC40CyNKLi7pn_XMlWyJs_wIfv-47izHlzE4_W-P0RtKDe8_aem_Hpfc1N_MZypPqTQSLkzxPg&h=AT3F-wxy8KzphFgyujviMbit1NeZ20uSdolOl6B9o9ZM6nm74hkc8ED_RxCQXH_lGx_qMzM4kzgM5ZjiATkJpXim0geY1rbw0G0wcVWboM1oiT8xOLNaG-i_aQMezttM7a7rMf6UPbhkcU7v7mcU&__tn__=-UK-R&c[0]=AT0XBTxHcrAF9QItc9912v_H_C9aVr4KDCp3lEnvYz3hjC3W9gHcduLDexXn4ppdCWZpS1RookBx7qBAgFaHBuc2B-sjHsvjMkzRKGcYKJYRZ57TP3DJvbSnwi2owlR1tBp7vlgKmOpzZrpBsUQbiwgyMj9gyhcpkFAzE82IiTXSzAv1NYE2RQ",
        "https://m.facebook.com/l.php?u=https%3A%2F%2Fmoderntech.site%2Finsider-tips-for-navigating-chilean-food-markets%2F%3Ffbclid%3DIwZXh0bgNhZW0CMTAAAR3HZXt-320-wwR9mu-uNs8ip1Ra8PVxbDJcNWTzeUJTYTNbaaDckcbjUt4_aem_Xh4EpuZuJGUSbjHoVnevMg&h=AT3eIuIB4srCWo1jzNNLr22pKugFXM47nVjhz2cMhVwxNPVXsqS0mNBH6RTJxY-IZJaBWhjUuCc-uTv8xK6wF8FGAY2rLmzW2ihUDRbUSOLzaR4uubCOynHT4D55-1KfCuLHDwve9vclv6mPNNyk&__tn__=-UK-R&c[0]=AT0XBTxHcrAF9QItc9912v_H_C9aVr4KDCp3lEnvYz3hjC3W9gHcduLDexXn4ppdCWZpS1RookBx7qBAgFaHBuc2B-sjHsvjMkzRKGcYKJYRZ57TP3DJvbSnwi2owlR1tBp7vlgKmOpzZrpBsUQbiwgyMj9gyhcpkFAzE82IiTXSzAv1NYE2RQ",
        "https://m.facebook.com/l.php?u=https%3A%2F%2Fmoderntech.site%2Fwhat-cuisine-does-cambodia-traditionally-eat-what-makes-cuisine-from-cambodia-special%2F%3Ffbclid%3DIwZXh0bgNhZW0CMTAAAR0LFrDu6iBjqKqv3qOikSsJDRfbw1zfuEJETmqcWlyWThKg-ILGltmcLk8_aem_9ZffVsCN8JxQBe7FfB6QbA&h=AT0Y2fpLRMZ-51h3r_isKHuzSAif2ctUIyakA7_QhMZZG6f77zRZLINXF93261hjGzrqBD4s0wUpDsK-RMqHaJDmsKRJdtH53wRUTfmFCuFY2a0S2XRQhN8Ge7wbEHbXCyikwZaBeLCFpHlwzW1H&__tn__=-UK-R&c[0]=AT0XBTxHcrAF9QItc9912v_H_C9aVr4KDCp3lEnvYz3hjC3W9gHcduLDexXn4ppdCWZpS1RookBx7qBAgFaHBuc2B-sjHsvjMkzRKGcYKJYRZ57TP3DJvbSnwi2owlR1tBp7vlgKmOpzZrpBsUQbiwgyMj9gyhcpkFAzE82IiTXSzAv1NYE2RQ",
        "https://m.facebook.com/l.php?u=https%3A%2F%2Fmoderntech.site%2Fromantic-italian-dinner-ideas-for-your-weekends%2F%3Ffbclid%3DIwZXh0bgNhZW0CMTAAAR2PX8AaC7XCjt8UIGiDr_LOEbX_n7mGynpGzIyQwjmcScb4xk-egTcLQD0_aem_WAp6ibmp73fM9-Bk0WBF8g&h=AT2-fiYLctlPLIe2e7bPio9GOYkgt8w2h0JWU2O_LgGKtVNm7_WJYpY3GXcnwHt5D4ZzKlEs-S-v-oHdbhXmtB419RT0RODqKmilo_dzQD2Hg8qLY_4bDcTCBikFRMg8RH-s9Mdydbx0cenikRnW&__tn__=-UK-R&c[0]=AT0XBTxHcrAF9QItc9912v_H_C9aVr4KDCp3lEnvYz3hjC3W9gHcduLDexXn4ppdCWZpS1RookBx7qBAgFaHBuc2B-sjHsvjMkzRKGcYKJYRZ57TP3DJvbSnwi2owlR1tBp7vlgKmOpzZrpBsUQbiwgyMj9gyhcpkFAzE82IiTXSzAv1NYE2RQ",
        "https://m.facebook.com/l.php?u=https%3A%2F%2Fmoderntech.site%2Fhealthy-lunch-ideas-for-a-nutritious-lifestyle-in-saudi-arabia%2F%3Ffbclid%3DIwZXh0bgNhZW0CMTAAAR0LFrDu6iBjqKqv3qOikSsJDRfbw1zfuEJETmqcWlyWThKg-ILGltmcLk8_aem_9ZffVsCN8JxQBe7FfB6QbA&h=AT3HfLCVqUZjRlmdZBIakqBGTBUUH_QtuBkKaYW2b04Mc_kELzNl59eweIJ3mOZbFXRfdh5ea8Ddgxj6vnVHXfz66X4emmt3mx1O96Phv7NjerZVrcVzGJ5klEobX0EUBD_aPEJV3x2WbbznIKCq&__tn__=-UK-R&c[0]=AT0XBTxHcrAF9QItc9912v_H_C9aVr4KDCp3lEnvYz3hjC3W9gHcduLDexXn4ppdCWZpS1RookBx7qBAgFaHBuc2B-sjHsvjMkzRKGcYKJYRZ57TP3DJvbSnwi2owlR1tBp7vlgKmOpzZrpBsUQbiwgyMj9gyhcpkFAzE82IiTXSzAv1NYE2RQ",
        "https://m.facebook.com/l.php?u=https%3A%2F%2Fmoderntech.site%2Fthe-latest-food-trends-at-japanese-festivals%2F%3Ffbclid%3DIwZXh0bgNhZW0CMTAAAR0LFrDu6iBjqKqv3qOikSsJDRfbw1zfuEJETmqcWlyWThKg-ILGltmcLk8_aem_9ZffVsCN8JxQBe7FfB6QbA&h=AT3WtbozOuPKtSokokw915hJYnrDRy9aWhDzpLYhIp6FgAPZ8NUri21KhGitd-U1UT51qxr_CLkqkt0HmupQc31pdrqoVZc_K8ctTn9av8ubq_F2z6HmZIug9vE7oxOcCJvNCz6czyb8-6ZTnSpv&__tn__=-UK-R&c[0]=AT0XBTxHcrAF9QItc9912v_H_C9aVr4KDCp3lEnvYz3hjC3W9gHcduLDexXn4ppdCWZpS1RookBx7qBAgFaHBuc2B-sjHsvjMkzRKGcYKJYRZ57TP3DJvbSnwi2owlR1tBp7vlgKmOpzZrpBsUQbiwgyMj9gyhcpkFAzE82IiTXSzAv1NYE2RQ",
        "https://m.facebook.com/l.php?u=https%3A%2F%2Fmoderntech.site%2Fa-flavorful-introduction-to-sri-lankan-cuisine%2F%3Ffbclid%3DIwZXh0bgNhZW0CMTAAAR2PX8AaC7XCjt8UIGiDr_LOEbX_n7mGynpGzIyQwjmcScb4xk-egTcLQD0_aem_WAp6ibmp73fM9-Bk0WBF8g&h=AT0H4w5MDb_Q5muAjtVmqX9-GtQc-5KZ2moxAG4iCHCfpu3ocyhE8pP3e-vjvgUx8KnrXrGoN_YGoJcFdzO5JELDLXvIRX6kTw5Fl_mzTlJcqC6cIhkxo1UTfzrv2eixKw97X3qhxr_RvajmnMUl&__tn__=-UK-R&c[0]=AT0XBTxHcrAF9QItc9912v_H_C9aVr4KDCp3lEnvYz3hjC3W9gHcduLDexXn4ppdCWZpS1RookBx7qBAgFaHBuc2B-sjHsvjMkzRKGcYKJYRZ57TP3DJvbSnwi2owlR1tBp7vlgKmOpzZrpBsUQbiwgyMj9gyhcpkFAzE82IiTXSzAv1NYE2RQ",
        "https://m.facebook.com/l.php?u=https%3A%2F%2Fmoderntech.site%2Ffeast-for-the-senses-experiencing-singapores-food-markets%2F%3Ffbclid%3DIwZXh0bgNhZW0CMTAAAR3vuUqpi5XrTuugspR28IZtmVnxYLdknIu4GilPHios-J6BUwqCAwqt6kM_aem__hQE58mvVjATtbDowcqVGA&h=AT2EU4N4klHL-1ZyHg_Q8W4oHSbHfc8XIZFcx0YyjsoyrYVs3Sr8ULPBBsSGkUxmFt_32ly3JsXRXmC6p4AVkXUHby0kL2MclMtJHUHfnmBVfoauoyOmW5oekPqM3KvxY1CrWNFGKPDWmUdK1W_J&__tn__=-UK-R&c[0]=AT0XBTxHcrAF9QItc9912v_H_C9aVr4KDCp3lEnvYz3hjC3W9gHcduLDexXn4ppdCWZpS1RookBx7qBAgFaHBuc2B-sjHsvjMkzRKGcYKJYRZ57TP3DJvbSnwi2owlR1tBp7vlgKmOpzZrpBsUQbiwgyMj9gyhcpkFAzE82IiTXSzAv1NYE2RQ",
        "https://m.facebook.com/l.php?u=https%3A%2F%2Fmoderntech.site%2Fa-fresh-perspective-on-sustainable-dining-in-poland%2F%3Ffbclid%3DIwZXh0bgNhZW0CMTAAAR3HZXt-320-wwR9mu-uNs8ip1Ra8PVxbDJcNWTzeUJTYTNbaaDckcbjUt4_aem_Xh4EpuZuJGUSbjHoVnevMg&h=AT2cjicVFnbVtriGvpUIMWUsvovVeqMhd9lznSN7mlY9iLV3Ja_ZSWOo936vv1zEvZq1aEx31tyYYQF33m6YiNrN3XmHElSkrSFcDrVe6uIRA0LyG6iL4bitFBPj9h_fDJmFTaPA5v6FntotN6gZ&__tn__=-UK-R&c[0]=AT0XBTxHcrAF9QItc9912v_H_C9aVr4KDCp3lEnvYz3hjC3W9gHcduLDexXn4ppdCWZpS1RookBx7qBAgFaHBuc2B-sjHsvjMkzRKGcYKJYRZ57TP3DJvbSnwi2owlR1tBp7vlgKmOpzZrpBsUQbiwgyMj9gyhcpkFAzE82IiTXSzAv1NYE2RQ",
        "https://m.facebook.com/l.php?u=https%3A%2F%2Fmoderntech.site%2Fancient-recipes-making-a-comeback%2F%3Ffbclid%3DIwZXh0bgNhZW0CMTAAAR0LFrDu6iBjqKqv3qOikSsJDRfbw1zfuEJETmqcWlyWThKg-ILGltmcLk8_aem_9ZffVsCN8JxQBe7FfB6QbA&h=AT0Pp-_txEA8sc0Ok0z61lOSZuWGYUS0UBBQzyBWdBdZ36T7NS65P1S7Yis7C83prU0i_9f9zuhketwK0G7rTMx7jxh66Qm7eXYuAf3kuzb0r_NqR9es8okIuDWNzY3NZ-gRQ8gYhKIO36xL_ixr&__tn__=-UK-R&c[0]=AT0XBTxHcrAF9QItc9912v_H_C9aVr4KDCp3lEnvYz3hjC3W9gHcduLDexXn4ppdCWZpS1RookBx7qBAgFaHBuc2B-sjHsvjMkzRKGcYKJYRZ57TP3DJvbSnwi2owlR1tBp7vlgKmOpzZrpBsUQbiwgyMj9gyhcpkFAzE82IiTXSzAv1NYE2RQ",
        "https://m.facebook.com/l.php?u=https%3A%2F%2Fmoderntech.site%2Fa-guide-for-plant-based-eaters%2F%3Ffbclid%3DIwZXh0bgNhZW0CMTAAAR05Dw7n-aq7Tr_1MD0XPAVXgXBRjcr-948tM8EtwF_oBbpsbgOnkoIPpcU_aem_D2OW9DSot2pACVkA4ny3hA&h=AT1yPs8LTDKN0j6g0RarOVDbzsnU3iSzph77gn8CrLwrP7A6NhofLRk9dERWz6gj5hF-i6eA-qZuzLvJ_93YmnK1uwvNiOC82hhsV1uhbItBSK11ExmJKF3OadzJE82q_fc-cKKFyb_C6K7EXxyj&__tn__=-UK-R&c[0]=AT0XBTxHcrAF9QItc9912v_H_C9aVr4KDCp3lEnvYz3hjC3W9gHcduLDexXn4ppdCWZpS1RookBx7qBAgFaHBuc2B-sjHsvjMkzRKGcYKJYRZ57TP3DJvbSnwi2owlR1tBp7vlgKmOpzZrpBsUQbiwgyMj9gyhcpkFAzE82IiTXSzAv1NYE2RQ",
        "https://m.facebook.com/l.php?u=https%3A%2F%2Fmoderntech.site%2Finsiders-tips-for-eating-out-in-hong-kong%2F%3Ffbclid%3DIwZXh0bgNhZW0CMTAAAR378QhS_6vfnbGaslrMeV-w0Tdt7ax8dQ2AkToz0qQw3PyB3ryTkA_-4KE_aem_ABqNG27u8NeLsJO2FhgV8g&h=AT0EILrj4m7V06FM4i-9Zc6hM1MKgq8EccoSL7tqGXyN061_rqOI82Y2oYZhjx4at5bZLr-I30unkydT5MrEpSQGTJCrz9hNH2THEixLO57g5p7NSkZXfoUlV_916_P6BnXmZf7_x4r0CvyamNxh&__tn__=-UK-R&c[0]=AT0XBTxHcrAF9QItc9912v_H_C9aVr4KDCp3lEnvYz3hjC3W9gHcduLDexXn4ppdCWZpS1RookBx7qBAgFaHBuc2B-sjHsvjMkzRKGcYKJYRZ57TP3DJvbSnwi2owlR1tBp7vlgKmOpzZrpBsUQbiwgyMj9gyhcpkFAzE82IiTXSzAv1NYE2RQ",
        "https://m.facebook.com/l.php?u=https%3A%2F%2Fmoderntech.site%2Fvegetarian-and-vegan-options-in-chilean-cuisine-savoring-the-plant-based-delights%2F%3Ffbclid%3DIwZXh0bgNhZW0CMTAAAR05Dw7n-aq7Tr_1MD0XPAVXgXBRjcr-948tM8EtwF_oBbpsbgOnkoIPpcU_aem_D2OW9DSot2pACVkA4ny3hA&h=AT2EZWnY1KyljihX9bTBcQzZbil8AkjOX3vKFOdQHi8Qkh8jWyjxNuL7FQSpsh4Gy00u9-QigjYn9jBEICp9PHJzYjFfD__w0PYPeIfgWh6wUS_l8d7kudAcZfdEGYOiAKqfNuDt5N7HjmKSzvp0&__tn__=-UK-R&c[0]=AT0XBTxHcrAF9QItc9912v_H_C9aVr4KDCp3lEnvYz3hjC3W9gHcduLDexXn4ppdCWZpS1RookBx7qBAgFaHBuc2B-sjHsvjMkzRKGcYKJYRZ57TP3DJvbSnwi2owlR1tBp7vlgKmOpzZrpBsUQbiwgyMj9gyhcpkFAzE82IiTXSzAv1NYE2RQ",
        "https://m.facebook.com/l.php?u=https%3A%2F%2Fmoderntech.site%2Fa-delicious-journey-through-brazilian-cuisine%2F%3Ffbclid%3DIwZXh0bgNhZW0CMTAAAR25fSQIRVAgHC40CyNKLi7pn_XMlWyJs_wIfv-47izHlzE4_W-P0RtKDe8_aem_Hpfc1N_MZypPqTQSLkzxPg&h=AT2NWqVf51roBXC4t3TpOgIop-SOLPxlVEMuudSMizu7Q3uWZyfKecabC7Srw5JqfGchDWZklCct7lZh2Il2EAEDyvmLRLrThuvW3gfYrtmwmaWS5K02NVhvboW5owgHMZMKE_PEgKDZaBjIZpBX&__tn__=-UK-R&c[0]=AT0XBTxHcrAF9QItc9912v_H_C9aVr4KDCp3lEnvYz3hjC3W9gHcduLDexXn4ppdCWZpS1RookBx7qBAgFaHBuc2B-sjHsvjMkzRKGcYKJYRZ57TP3DJvbSnwi2owlR1tBp7vlgKmOpzZrpBsUQbiwgyMj9gyhcpkFAzE82IiTXSzAv1NYE2RQ",
        "https://m.facebook.com/l.php?u=https%3A%2F%2Fmoderntech.site%2Fexploring-bahrains-markets-and-flavors%2F%3Ffbclid%3DIwZXh0bgNhZW0CMTAAAR1_3XJLnqabDhtEvkhjwGD3PfYluddIJ3AZvoPQAW8ytWcH8Hqp14W3mZY_aem_FPBopoGNELTyZhpR50CvVg&h=AT1gQnv2-dWy-4zZTXNoGBNZ4pePaCowRiEetyGYPncMLT4P1S1WsZtgZDOvzS5hUMN4t6klyO8qJWXlO7Z7l5nkZqDD3cbqvDolOWURlZDFwiTi1WP9qF2KRIoKu95JCzKjVDZXWsfN5OjwtfHd&__tn__=-UK-R&c[0]=AT0XBTxHcrAF9QItc9912v_H_C9aVr4KDCp3lEnvYz3hjC3W9gHcduLDexXn4ppdCWZpS1RookBx7qBAgFaHBuc2B-sjHsvjMkzRKGcYKJYRZ57TP3DJvbSnwi2owlR1tBp7vlgKmOpzZrpBsUQbiwgyMj9gyhcpkFAzE82IiTXSzAv1NYE2RQ",
        "https://m.facebook.com/l.php?u=https%3A%2F%2Fmoderntech.site%2Ffrom-street-food-to-fast-food-asias-culinary-evolution%2F%3Ffbclid%3DIwZXh0bgNhZW0CMTAAAR3vuUqpi5XrTuugspR28IZtmVnxYLdknIu4GilPHios-J6BUwqCAwqt6kM_aem__hQE58mvVjATtbDowcqVGA&h=AT0jjpbFIH1L0NLJlIgKlHD6wKb3RRrguibS44Eun1vEllw7UtLfEdSKVek2CHUWhkHVO_Qp_R3YYw7WLaJhTsh2lDe0ci8qX1ynQIMPh40MCh444eRAe70vt3L-GTUlwltxJn1s-pxAvfg62jAm&__tn__=-UK-R&c[0]=AT0XBTxHcrAF9QItc9912v_H_C9aVr4KDCp3lEnvYz3hjC3W9gHcduLDexXn4ppdCWZpS1RookBx7qBAgFaHBuc2B-sjHsvjMkzRKGcYKJYRZ57TP3DJvbSnwi2owlR1tBp7vlgKmOpzZrpBsUQbiwgyMj9gyhcpkFAzE82IiTXSzAv1NYE2RQ",
        "https://m.facebook.com/l.php?u=https%3A%2F%2Fmoderntech.site%2Fring-in-the-year-of-the-dragon-with-delicious-chinese-cuisine%2F%3Ffbclid%3DIwZXh0bgNhZW0CMTAAAR2QfPTKMCR0bCfShFWYRrl32jjq4ag1Nk9aC_aHB_4DydA4bkjdgYo-KL0_aem_irsWYE1PX9NIpr_efHhIQA&h=AT3VUBm8NrX5ksEZeU1Zqch_oUwC5ZzSGD0xEl0ALZIg2OFTcJ9_2oYnFf7XwAcUWkEXn7TuRftD3LnoXw0S0VXuFQD2W-6zmLAGlT6Lbm0sU04MoP_BLOdv2wuxxOL1rG6smU_LrbHkkAzlVGZF&__tn__=-UK-R&c[0]=AT0XBTxHcrAF9QItc9912v_H_C9aVr4KDCp3lEnvYz3hjC3W9gHcduLDexXn4ppdCWZpS1RookBx7qBAgFaHBuc2B-sjHsvjMkzRKGcYKJYRZ57TP3DJvbSnwi2owlR1tBp7vlgKmOpzZrpBsUQbiwgyMj9gyhcpkFAzE82IiTXSzAv1NYE2RQ",
        "https://m.facebook.com/l.php?u=https%3A%2F%2Fmoderntech.site%2Fbest-healthy-food-options-in-germany%2F%3Ffbclid%3DIwZXh0bgNhZW0CMTAAAR1D9P5sEd7R5Zwv5lxgbDolxvjU5IX4sEL_6Si2rPYdMVGtykIzpu22HHQ_aem_diAH6FPDSd043TWxCQHM9w&h=AT1tA3HU3mnModnfGek1p269SxOca5_PdiiFdMOWG_shSzxuoSGsgOsI7B4be6FWu-Olmv4kLt5CplxNXbD01DbjwxDowync1b9TNHUuJSEXQhJNKeiz5jrrSAN0mbeniOYY89cVcORAYMbwy4wm&__tn__=-UK-R&c[0]=AT0XBTxHcrAF9QItc9912v_H_C9aVr4KDCp3lEnvYz3hjC3W9gHcduLDexXn4ppdCWZpS1RookBx7qBAgFaHBuc2B-sjHsvjMkzRKGcYKJYRZ57TP3DJvbSnwi2owlR1tBp7vlgKmOpzZrpBsUQbiwgyMj9gyhcpkFAzE82IiTXSzAv1NYE2RQ",
        "https://m.facebook.com/l.php?u=https%3A%2F%2Fmoderntech.site%2Fmaking-healthy-choices-in-a-world-of-temptation%2F%3Ffbclid%3DIwZXh0bgNhZW0CMTAAAR1_3XJLnqabDhtEvkhjwGD3PfYluddIJ3AZvoPQAW8ytWcH8Hqp14W3mZY_aem_FPBopoGNELTyZhpR50CvVg&h=AT3OWyh2JpT7mduz_aGBsg_er4BUr6AG8_L8enNaMIsmQCzln227frTax5wFd_9Wt438PUdOy5ouuCOdpEb1XUdSSWVbT8AtHRBD_sWdnxw_CfAlge2TlrhGcNhHflc1CK3ERvRV0IUG_79Q8Vkr&__tn__=-UK-R&c[0]=AT0XBTxHcrAF9QItc9912v_H_C9aVr4KDCp3lEnvYz3hjC3W9gHcduLDexXn4ppdCWZpS1RookBx7qBAgFaHBuc2B-sjHsvjMkzRKGcYKJYRZ57TP3DJvbSnwi2owlR1tBp7vlgKmOpzZrpBsUQbiwgyMj9gyhcpkFAzE82IiTXSzAv1NYE2RQ",
        "https://m.facebook.com/l.php?u=https%3A%2F%2Fmoderntech.site%2Fhow-pakistani-cuisine-promotes-health-through-vegetable-dishes%2F%3Ffbclid%3DIwZXh0bgNhZW0CMTAAAR2QfPTKMCR0bCfShFWYRrl32jjq4ag1Nk9aC_aHB_4DydA4bkjdgYo-KL0_aem_irsWYE1PX9NIpr_efHhIQA&h=AT0JVaqtZzBXUXZb3PdhiX88k9n5VWXl9At_6hgUK70EZsCLhp1GB77ysseESksJ-YZFdkDHoS0ZFS8R4YiIaA7SuzqK2xnjaLs2P-ti6eGXWHmVDCTGX9B7TPlf9PRB7ZJ7HEM8TPUrwIVU5xKs&__tn__=-UK-R&c[0]=AT0XBTxHcrAF9QItc9912v_H_C9aVr4KDCp3lEnvYz3hjC3W9gHcduLDexXn4ppdCWZpS1RookBx7qBAgFaHBuc2B-sjHsvjMkzRKGcYKJYRZ57TP3DJvbSnwi2owlR1tBp7vlgKmOpzZrpBsUQbiwgyMj9gyhcpkFAzE82IiTXSzAv1NYE2RQ",
        "https://m.facebook.com/l.php?u=https%3A%2F%2Fmoderntech.site%2Fexploring-local-flavors-in-the-uaes-summer-food-delights%2F%3Ffbclid%3DIwZXh0bgNhZW0CMTAAAR2QfPTKMCR0bCfShFWYRrl32jjq4ag1Nk9aC_aHB_4DydA4bkjdgYo-KL0_aem_irsWYE1PX9NIpr_efHhIQA&h=AT2ral6SSgZLPqD-25TinsdMKheiAUsmBkV_dKKUCLh6h4_mI1UMU5SZYMRuZME-H38V5OD2neTnNO6l_-wWhk9VgYUDBKAEWabA68XRF3JDSQJpjtFbMQ3ncfH393J_gndkZI0RVcBUrvrZI2As&__tn__=-UK-R&c[0]=AT0XBTxHcrAF9QItc9912v_H_C9aVr4KDCp3lEnvYz3hjC3W9gHcduLDexXn4ppdCWZpS1RookBx7qBAgFaHBuc2B-sjHsvjMkzRKGcYKJYRZ57TP3DJvbSnwi2owlR1tBp7vlgKmOpzZrpBsUQbiwgyMj9gyhcpkFAzE82IiTXSzAv1NYE2RQ",
        "https://m.facebook.com/l.php?u=https%3A%2F%2Fmoderntech.site%2Fdecadent-russian-desserts-to-satisfy-your-sweet-tooth%2F%3Ffbclid%3DIwZXh0bgNhZW0CMTAAAR378QhS_6vfnbGaslrMeV-w0Tdt7ax8dQ2AkToz0qQw3PyB3ryTkA_-4KE_aem_ABqNG27u8NeLsJO2FhgV8g&h=AT0EYHx8f5p_jyaSJR2PoirLijG1uxS2OmBAX_cwnAKosN7pUG9aBIfTuYWnEBnNfuu_KvLbsgjf1jXNmMzXShj4idHsInvMqYylhtdiBBNf5I-QNQAF_o9EtuOWc227CIE2c3_XlilFOrTji3pY&__tn__=-UK-R&c[0]=AT0XBTxHcrAF9QItc9912v_H_C9aVr4KDCp3lEnvYz3hjC3W9gHcduLDexXn4ppdCWZpS1RookBx7qBAgFaHBuc2B-sjHsvjMkzRKGcYKJYRZ57TP3DJvbSnwi2owlR1tBp7vlgKmOpzZrpBsUQbiwgyMj9gyhcpkFAzE82IiTXSzAv1NYE2RQ",
        "https://m.facebook.com/l.php?u=https%3A%2F%2Fmoderntech.site%2Fmodern-takes-on-traditional-norwegian-fare-around-the-globe%2F%3Ffbclid%3DIwZXh0bgNhZW0CMTAAAR1D9P5sEd7R5Zwv5lxgbDolxvjU5IX4sEL_6Si2rPYdMVGtykIzpu22HHQ_aem_diAH6FPDSd043TWxCQHM9w&h=AT0Nqwj5SytpyqsIFH36787Gz-qr8cHNToayG13h4wzu4Vk4nNv0nm-qcptht2BMepPK9rznebP5S3DIlpSuLS0E_utvWYPitHl5aSeNHqA_8ifLkkBDuRaGeA387AME0kRhJ9vG6-bQCQXD8EJS&__tn__=-UK-R&c[0]=AT0XBTxHcrAF9QItc9912v_H_C9aVr4KDCp3lEnvYz3hjC3W9gHcduLDexXn4ppdCWZpS1RookBx7qBAgFaHBuc2B-sjHsvjMkzRKGcYKJYRZ57TP3DJvbSnwi2owlR1tBp7vlgKmOpzZrpBsUQbiwgyMj9gyhcpkFAzE82IiTXSzAv1NYE2RQ",
        "https://m.facebook.com/l.php?u=https%3A%2F%2Fmoderntech.site%2Flate-night-dinner-inspiration-for-fun-evenings-with-friends%2F%3Ffbclid%3DIwZXh0bgNhZW0CMTAAAR2QfPTKMCR0bCfShFWYRrl32jjq4ag1Nk9aC_aHB_4DydA4bkjdgYo-KL0_aem_irsWYE1PX9NIpr_efHhIQA&h=AT28JHJApc8k-cynB--1q0CFKzUvm170XGAoqxlZdC3ayaV_kAcjmQ94nAvzNwqJBR3xgPYz0sWx3SuewhK63iw3fOa4tSNw3rRQW4Sq1iu2ozQbVfzCTwdT702pBjPPL4Pgnmy3srrTu7PktA95&__tn__=-UK-R&c[0]=AT0XBTxHcrAF9QItc9912v_H_C9aVr4KDCp3lEnvYz3hjC3W9gHcduLDexXn4ppdCWZpS1RookBx7qBAgFaHBuc2B-sjHsvjMkzRKGcYKJYRZ57TP3DJvbSnwi2owlR1tBp7vlgKmOpzZrpBsUQbiwgyMj9gyhcpkFAzE82IiTXSzAv1NYE2RQ",
        "https://m.facebook.com/l.php?u=https%3A%2F%2Fmoderntech.site%2Fitalian-culinary-delights-perfect-for-wedding-season%2F%3Ffbclid%3DIwZXh0bgNhZW0CMTAAAR2QfPTKMCR0bCfShFWYRrl32jjq4ag1Nk9aC_aHB_4DydA4bkjdgYo-KL0_aem_irsWYE1PX9NIpr_efHhIQA&h=AT1tu0YkFfVoAjX1ZFS-1s4j-d5zCSsXWbh4oeor7BHsHvli0_Fxs2FQS3nHfDeTbnUjIEXznBWVVJhHizemyu4nXpSLTenIlHD1JSSYwk_fhkgAf6Z_jfAeTrdMCxoZKVgLNUT_BT__FQabhwo4&__tn__=-UK-R&c[0]=AT0XBTxHcrAF9QItc9912v_H_C9aVr4KDCp3lEnvYz3hjC3W9gHcduLDexXn4ppdCWZpS1RookBx7qBAgFaHBuc2B-sjHsvjMkzRKGcYKJYRZ57TP3DJvbSnwi2owlR1tBp7vlgKmOpzZrpBsUQbiwgyMj9gyhcpkFAzE82IiTXSzAv1NYE2RQ",
        "https://m.facebook.com/l.php?u=https%3A%2F%2Fmoderntech.site%2Fboost-your-immunity-with-these-indian-lunch-dishes%2F%3Ffbclid%3DIwZXh0bgNhZW0CMTAAAR3vuUqpi5XrTuugspR28IZtmVnxYLdknIu4GilPHios-J6BUwqCAwqt6kM_aem__hQE58mvVjATtbDowcqVGA&h=AT0R3xA1b_Y7oINKKRWegbgT_ng88bNS_HbAK9NmdRDUC1kZcbn1J1v0ZK1YPKc0a5V1Jn9BRhSdnuM26YgMCgD7Vgr3unGjWo4PazQlbaSF0ufZlPgFe0A7nlS0LD2fOg0aZC8k0oN_GMuUYihj&__tn__=-UK-R&c[0]=AT0XBTxHcrAF9QItc9912v_H_C9aVr4KDCp3lEnvYz3hjC3W9gHcduLDexXn4ppdCWZpS1RookBx7qBAgFaHBuc2B-sjHsvjMkzRKGcYKJYRZ57TP3DJvbSnwi2owlR1tBp7vlgKmOpzZrpBsUQbiwgyMj9gyhcpkFAzE82IiTXSzAv1NYE2RQ",
        "https://m.facebook.com/l.php?u=https%3A%2F%2Fmoderntech.site%2Fnourishing-rural-indias-health-and-economy%2F%3Ffbclid%3DIwZXh0bgNhZW0CMTAAAR2PX8AaC7XCjt8UIGiDr_LOEbX_n7mGynpGzIyQwjmcScb4xk-egTcLQD0_aem_WAp6ibmp73fM9-Bk0WBF8g&h=AT2P_oufbKruxPZEnpQUJyY7nyYcclReFMyIMzfho_2PQkkwREyhqtEgadJEU3PcTnn1CXCHb_VJk_wNWjjnDpjseNpmH-KxTb-e_yV-JPJ15Pzq6MP0lhTKAHMrzeSO-zja3E44AJzo5En3H8ZJ&__tn__=-UK-R&c[0]=AT0XBTxHcrAF9QItc9912v_H_C9aVr4KDCp3lEnvYz3hjC3W9gHcduLDexXn4ppdCWZpS1RookBx7qBAgFaHBuc2B-sjHsvjMkzRKGcYKJYRZ57TP3DJvbSnwi2owlR1tBp7vlgKmOpzZrpBsUQbiwgyMj9gyhcpkFAzE82IiTXSzAv1NYE2RQ",
        "https://m.facebook.com/l.php?u=https%3A%2F%2Fmoderntech.site%2Fhow-to-enjoy-a-healthy-morning-meal-spanish-style%2F%3Ffbclid%3DIwZXh0bgNhZW0CMTAAAR25fSQIRVAgHC40CyNKLi7pn_XMlWyJs_wIfv-47izHlzE4_W-P0RtKDe8_aem_Hpfc1N_MZypPqTQSLkzxPg&h=AT0jHGeWc51vUk_Zh_H21OSRCcuRTA5UlwUKHjRkv2kxQz64hiZ46jxOOW5wIwlVoLORs-cpafrG7WKaClO8Wc6QL5hymBbcdYbjZGCKvpxhCpQyFPmSkHHdXfLQx9vkNJcxCowBclMXKXC8cO6n&__tn__=-UK-R&c[0]=AT0XBTxHcrAF9QItc9912v_H_C9aVr4KDCp3lEnvYz3hjC3W9gHcduLDexXn4ppdCWZpS1RookBx7qBAgFaHBuc2B-sjHsvjMkzRKGcYKJYRZ57TP3DJvbSnwi2owlR1tBp7vlgKmOpzZrpBsUQbiwgyMj9gyhcpkFAzE82IiTXSzAv1NYE2RQ",
        "https://m.facebook.com/l.php?u=https%3A%2F%2Fmoderntech.site%2Fhow-juicing-can-fit-into-a-diabetic-friendly-diet%2F%3Ffbclid%3DIwZXh0bgNhZW0CMTAAAR3HZXt-320-wwR9mu-uNs8ip1Ra8PVxbDJcNWTzeUJTYTNbaaDckcbjUt4_aem_Xh4EpuZuJGUSbjHoVnevMg&h=AT24RDIq7CXxQ2LRqbwt0y9L6ofQnaiAGh_OJF3M2BnftJ-PSeF6BcsVuPPfqvjtXGoIHE4-ZlP4VjK5aroQDvaobyjFufxPQ08TZYoXoZPP21zrILTsoWVFZ70IHgCm17GlyHR-D_MlkZXjvpER&__tn__=-UK-R&c[0]=AT0XBTxHcrAF9QItc9912v_H_C9aVr4KDCp3lEnvYz3hjC3W9gHcduLDexXn4ppdCWZpS1RookBx7qBAgFaHBuc2B-sjHsvjMkzRKGcYKJYRZ57TP3DJvbSnwi2owlR1tBp7vlgKmOpzZrpBsUQbiwgyMj9gyhcpkFAzE82IiTXSzAv1NYE2RQ",
        "https://m.facebook.com/l.php?u=https%3A%2F%2Fmoderntech.site%2Funveiling-germanys-healthiest-fruit-choices%2F%3Ffbclid%3DIwZXh0bgNhZW0CMTAAAR3vuUqpi5XrTuugspR28IZtmVnxYLdknIu4GilPHios-J6BUwqCAwqt6kM_aem__hQE58mvVjATtbDowcqVGA&h=AT2n8242804Krph0zUdH1GoZfizNda6oLYnWwulUrCKOA1Yn8wj3KVgKkuV30_eb32q9AQLpKHF6FdcGyScAHdOZmoxyRVhf7JRwAJruO4ZwOkiMxJJAUwmLvy8XK_u9Y1t4zbtTdI8LIwd6KSiM&__tn__=-UK-R&c[0]=AT0XBTxHcrAF9QItc9912v_H_C9aVr4KDCp3lEnvYz3hjC3W9gHcduLDexXn4ppdCWZpS1RookBx7qBAgFaHBuc2B-sjHsvjMkzRKGcYKJYRZ57TP3DJvbSnwi2owlR1tBp7vlgKmOpzZrpBsUQbiwgyMj9gyhcpkFAzE82IiTXSzAv1NYE2RQ",
        "https://m.facebook.com/l.php?u=https%3A%2F%2Fmoderntech.site%2Fa-foodies-guide-to-local-festivals%2F%3Ffbclid%3DIwZXh0bgNhZW0CMTAAAR05Dw7n-aq7Tr_1MD0XPAVXgXBRjcr-948tM8EtwF_oBbpsbgOnkoIPpcU_aem_D2OW9DSot2pACVkA4ny3hA&h=AT0sqoWpMF2GLEfUOEASlGPM9RkWVCZOzaAzA2T-MKX9Avu9Chkb7dJBugNq_lNgQuVOQw-ZLeYnrM-VVtYSCvGlTe3U5KonmPpg2oW9vtWf_uBtsas6YxwW9zTcpCb-eBC9UuON-X0s5bIosKiL&__tn__=-UK-R&c[0]=AT0XBTxHcrAF9QItc9912v_H_C9aVr4KDCp3lEnvYz3hjC3W9gHcduLDexXn4ppdCWZpS1RookBx7qBAgFaHBuc2B-sjHsvjMkzRKGcYKJYRZ57TP3DJvbSnwi2owlR1tBp7vlgKmOpzZrpBsUQbiwgyMj9gyhcpkFAzE82IiTXSzAv1NYE2RQ",
        "https://m.facebook.com/l.php?u=https%3A%2F%2Fmoderntech.site%2Fexploring-the-vibrant-flavors-of-sri-lankan-food-trends%2F%3Ffbclid%3DIwZXh0bgNhZW0CMTAAAR2PX8AaC7XCjt8UIGiDr_LOEbX_n7mGynpGzIyQwjmcScb4xk-egTcLQD0_aem_WAp6ibmp73fM9-Bk0WBF8g&h=AT1RISlGhHrUKQ7mQ7lJXFCDCXIoexAbh3oaVG4JAIaQUHwpYkHsZ2uYAZxAQSN10uFxgFR9IF2Ugepcma8dGv5bI1R0z0iGTorSmneVsFhgMPi2binJcywgMuVr-kK9vEhJJMuF6BZRKe6Xgc_-&__tn__=-UK-R&c[0]=AT0XBTxHcrAF9QItc9912v_H_C9aVr4KDCp3lEnvYz3hjC3W9gHcduLDexXn4ppdCWZpS1RookBx7qBAgFaHBuc2B-sjHsvjMkzRKGcYKJYRZ57TP3DJvbSnwi2owlR1tBp7vlgKmOpzZrpBsUQbiwgyMj9gyhcpkFAzE82IiTXSzAv1NYE2RQ",
        "https://m.facebook.com/l.php?u=https%3A%2F%2Fmoderntech.site%2Funveiling-the-sacred-flavors-of-singapores-religious-celebrations%2F%3Ffbclid%3DIwZXh0bgNhZW0CMTAAAR05Dw7n-aq7Tr_1MD0XPAVXgXBRjcr-948tM8EtwF_oBbpsbgOnkoIPpcU_aem_D2OW9DSot2pACVkA4ny3hA&h=AT2VAV_wkujH4h9qek7plehnP9pJ4nuda4st6xRoi501uBO0onLxEydRMNLQeBbNa1ncnOSNaRKg69jA7FJ7f0b53fo_Zxh770Ho8zcsgT3QcgOwQQnB5Tg5v6YXiFFESpsKu6bsDVRBVKUr971l&__tn__=-UK-R&c[0]=AT0XBTxHcrAF9QItc9912v_H_C9aVr4KDCp3lEnvYz3hjC3W9gHcduLDexXn4ppdCWZpS1RookBx7qBAgFaHBuc2B-sjHsvjMkzRKGcYKJYRZ57TP3DJvbSnwi2owlR1tBp7vlgKmOpzZrpBsUQbiwgyMj9gyhcpkFAzE82IiTXSzAv1NYE2RQ",
        "https://m.facebook.com/l.php?u=https%3A%2F%2Fmoderntech.site%2Felevating-your-culinary-repertoire-with-traditional-polish-chicken-dishes%2F%3Ffbclid%3DIwZXh0bgNhZW0CMTAAAR0LFrDu6iBjqKqv3qOikSsJDRfbw1zfuEJETmqcWlyWThKg-ILGltmcLk8_aem_9ZffVsCN8JxQBe7FfB6QbA&h=AT1X028hahtBFKopCHb2SFCPzAgpTSy-LleufJ3bjFVI3UF_jGJm4H4Xt5oqZAEUzuxmEkUwLpnl_EFQRf0GVlLP6n62JDlWG--4izy3NxHebvRCxMi_AOZFT6hGZNqN6AkAro6qsihjqpKvcDO7&__tn__=-UK-R&c[0]=AT0XBTxHcrAF9QItc9912v_H_C9aVr4KDCp3lEnvYz3hjC3W9gHcduLDexXn4ppdCWZpS1RookBx7qBAgFaHBuc2B-sjHsvjMkzRKGcYKJYRZ57TP3DJvbSnwi2owlR1tBp7vlgKmOpzZrpBsUQbiwgyMj9gyhcpkFAzE82IiTXSzAv1NYE2RQ",
        "https://m.facebook.com/l.php?u=https%3A%2F%2Fmoderntech.site%2Fa-culinary-journey-through-the-rich-world-of-mexican-lamb-dishes%2F%3Ffbclid%3DIwZXh0bgNhZW0CMTAAAR3vuUqpi5XrTuugspR28IZtmVnxYLdknIu4GilPHios-J6BUwqCAwqt6kM_aem__hQE58mvVjATtbDowcqVGA&h=AT3oqfUNmDhJpdBzEn2EX7Iey_Ti7R5G4SR60kXpvMfEZpF2QRnOUkllmxeVmx_isoNi_VwK4SFP9FHBr0tAlmNPOzWWhyZb1-auXmd74K6eeZQ9XxtX4e-IyVc_6OYAOc5qfURr4LTDRQLWs-9-&__tn__=-UK-R&c[0]=AT0XBTxHcrAF9QItc9912v_H_C9aVr4KDCp3lEnvYz3hjC3W9gHcduLDexXn4ppdCWZpS1RookBx7qBAgFaHBuc2B-sjHsvjMkzRKGcYKJYRZ57TP3DJvbSnwi2owlR1tBp7vlgKmOpzZrpBsUQbiwgyMj9gyhcpkFAzE82IiTXSzAv1NYE2RQ",
        "https://m.facebook.com/l.php?u=https%3A%2F%2Fmoderntech.site%2Fkendall-jenner-bares-all-as-she-went-braless-in-transparent-frilled-gown-at-the-star-studded-girls-of-the-sun-premiere-at-cannes-film-festival%2F%3Ffbclid%3DIwZXh0bgNhZW0CMTAAAR05Dw7n-aq7Tr_1MD0XPAVXgXBRjcr-948tM8EtwF_oBbpsbgOnkoIPpcU_aem_D2OW9DSot2pACVkA4ny3hA&h=AT0ufc0gFl3EibXjNM5mvCcYsTVeM1R4ENTtwO16Aqqu8zvy8DD5nYPrrDGlRCh5hmvrDYwpsiOahEvN7sdX_5phJMX8G4bZIxWLTotWhQHkktbJB-myFzhBxBDw1utD0BrdRxB3t9_7yAFpCG5X&__tn__=-UK-R&c[0]=AT0XBTxHcrAF9QItc9912v_H_C9aVr4KDCp3lEnvYz3hjC3W9gHcduLDexXn4ppdCWZpS1RookBx7qBAgFaHBuc2B-sjHsvjMkzRKGcYKJYRZ57TP3DJvbSnwi2owlR1tBp7vlgKmOpzZrpBsUQbiwgyMj9gyhcpkFAzE82IiTXSzAv1NYE2RQ",
        "https://m.facebook.com/l.php?u=https%3A%2F%2Fmoderntech.site%2Fke%25d0%25bfdall-je%25d0%25bf%25d0%25bfe%25c9%25be-fla%25e1%25b4%259c%25d0%25bfts-he%25c9%25be-sc%25e1%25b4%259clpted-body-%25ce%25b9%25d0%25bf-ba%25c9%25beely-the%25c9%25bee-b%25ce%25b9k%25ce%25b9%25d0%25bf%25ce%25b9-d%25e1%25b4%259c%25c9%25be%25ce%25b9%25d0%25bfg-a-m%25ce%25b9%25d0%25bf%2F%3Ffbclid%3DIwZXh0bgNhZW0CMTAAAR378QhS_6vfnbGaslrMeV-w0Tdt7ax8dQ2AkToz0qQw3PyB3ryTkA_-4KE_aem_ABqNG27u8NeLsJO2FhgV8g&h=AT3WLkNJUX-RCMrOEmMY6i4-q90C6sS6i7fSdsIldVatYzfFjUAYFNcT6yDGtHPRsWP1apctRlMk_unJwMaro-R_06ayBM0OvVqVQJ8XhAN32Q1BLLXNe9DCK9C9aJvHN0UKUQudf8p-GL6m41-m&__tn__=-UK-R&c[0]=AT0XBTxHcrAF9QItc9912v_H_C9aVr4KDCp3lEnvYz3hjC3W9gHcduLDexXn4ppdCWZpS1RookBx7qBAgFaHBuc2B-sjHsvjMkzRKGcYKJYRZ57TP3DJvbSnwi2owlR1tBp7vlgKmOpzZrpBsUQbiwgyMj9gyhcpkFAzE82IiTXSzAv1NYE2RQ",
        "https://m.facebook.com/l.php?u=https%3A%2F%2Fmoderntech.site%2Fexploring-the-rich-culinary-heritage-of-hungarian-day-dishes%2F%3Ffbclid%3DIwZXh0bgNhZW0CMTAAAR05Dw7n-aq7Tr_1MD0XPAVXgXBRjcr-948tM8EtwF_oBbpsbgOnkoIPpcU_aem_D2OW9DSot2pACVkA4ny3hA&h=AT2fk-7a76brWf1YvykTWrmUBuRt5qtPFkEEl_V3g39daz3pChkGvS9lraal5SQQW6r3JqhyK0TgR1H8uscagnpeD70KcedE-wGb51A2oRqgPej27CHnG7qF4YBN-hI1zs-b_izwXqFBsm10tr4f&__tn__=-UK-R&c[0]=AT0XBTxHcrAF9QItc9912v_H_C9aVr4KDCp3lEnvYz3hjC3W9gHcduLDexXn4ppdCWZpS1RookBx7qBAgFaHBuc2B-sjHsvjMkzRKGcYKJYRZ57TP3DJvbSnwi2owlR1tBp7vlgKmOpzZrpBsUQbiwgyMj9gyhcpkFAzE82IiTXSzAv1NYE2RQ",
        "https://m.facebook.com/l.php?u=https%3A%2F%2Fmoderntech.site%2Fkendall-jenner-flaunts-confidence-in-a-sheer-top-opting-for-a-braless-look-in-her-latest-bold-outfit-bestbabies-info%2F%3Ffbclid%3DIwZXh0bgNhZW0CMTAAAR05Dw7n-aq7Tr_1MD0XPAVXgXBRjcr-948tM8EtwF_oBbpsbgOnkoIPpcU_aem_D2OW9DSot2pACVkA4ny3hA&h=AT2LxID97aCHSYJswJ00CrRnRcZiN40dB45DxnOPFZZ-5B8VXP29ZS5IQPPMVkXwcZk2Wyg505snR9C9jIZkKZH45Fw69tC33Cvyr-TPtNHCXvntAE0pe4i54ORvNagO6KGnC9LhMDN9nl8wdN8h&__tn__=-UK-R&c[0]=AT0XBTxHcrAF9QItc9912v_H_C9aVr4KDCp3lEnvYz3hjC3W9gHcduLDexXn4ppdCWZpS1RookBx7qBAgFaHBuc2B-sjHsvjMkzRKGcYKJYRZ57TP3DJvbSnwi2owlR1tBp7vlgKmOpzZrpBsUQbiwgyMj9gyhcpkFAzE82IiTXSzAv1NYE2RQ",
        "https://m.facebook.com/l.php?u=https%3A%2F%2Fmoderntech.site%2Fnew-2023-data-unveils-the-top-20-movie-stars-surprising-position-of-dwayne-the-rock-johnson-bestbabies-info%2F%3Ffbclid%3DIwZXh0bgNhZW0CMTAAAR05Dw7n-aq7Tr_1MD0XPAVXgXBRjcr-948tM8EtwF_oBbpsbgOnkoIPpcU_aem_D2OW9DSot2pACVkA4ny3hA&h=AT1IviPf7YbdU-xMI7I2yQIBV92CuAuj6ch_sWIo-NJTKNNrt3BX0EkK_vb1hP6BgoTykgFya2qkX_E94Qw-zyJkbIPHgMFXDdUaJOjgoUXTPZ_-AE-Rc7JNrSakf_ewN0552iOWyOb9OARlQPlQ&__tn__=-UK-R&c[0]=AT0XBTxHcrAF9QItc9912v_H_C9aVr4KDCp3lEnvYz3hjC3W9gHcduLDexXn4ppdCWZpS1RookBx7qBAgFaHBuc2B-sjHsvjMkzRKGcYKJYRZ57TP3DJvbSnwi2owlR1tBp7vlgKmOpzZrpBsUQbiwgyMj9gyhcpkFAzE82IiTXSzAv1NYE2RQ",
        "https://m.facebook.com/l.php?u=https%3A%2F%2Fmoderntech.site%2Frevealing-the-subtle-beauty-of-tiny-stones-exploring-natures-concealed-gems%2F%3Ffbclid%3DIwZXh0bgNhZW0CMTAAAR25fSQIRVAgHC40CyNKLi7pn_XMlWyJs_wIfv-47izHlzE4_W-P0RtKDe8_aem_Hpfc1N_MZypPqTQSLkzxPg&h=AT0BID9p4Hk5u7ZwDCNJU5Q00arrkqdiB8mCh1xau9_AOak0PZ5UmgnHlhVUe81zAuiqTWyDN1wWOyaz3tMZ2MUuI84G_e-SoKkzP1JRkU7DpES8Eh84ImH4dCZ6LzmXx4basBfHdTbVH3FBxTR1&__tn__=-UK-R&c[0]=AT0XBTxHcrAF9QItc9912v_H_C9aVr4KDCp3lEnvYz3hjC3W9gHcduLDexXn4ppdCWZpS1RookBx7qBAgFaHBuc2B-sjHsvjMkzRKGcYKJYRZ57TP3DJvbSnwi2owlR1tBp7vlgKmOpzZrpBsUQbiwgyMj9gyhcpkFAzE82IiTXSzAv1NYE2RQ",
        "https://m.facebook.com/l.php?u=https%3A%2F%2Fmoderntech.site%2Fmeg-3-will-be-even-bigger-than-statham-vs-giant-sharks-after-the-trench-reveals-bestbabies-info%2F%3Ffbclid%3DIwZXh0bgNhZW0CMTAAAR1D9P5sEd7R5Zwv5lxgbDolxvjU5IX4sEL_6Si2rPYdMVGtykIzpu22HHQ_aem_diAH6FPDSd043TWxCQHM9w&h=AT3k2HxSqqHwDGIlVBNMwMl4gMpYUgrv0qmwqxDt4NjITUcFsSPQ8NswvjmTgm1oGCsaAtHWeJ8OkEq5U9QkEqCcVGPlienTDKKRvbItgmiMn3EuK4bO8exfsr4e0iYbnK8GsltLhu-hDa97k2rb&__tn__=-UK-R&c[0]=AT0XBTxHcrAF9QItc9912v_H_C9aVr4KDCp3lEnvYz3hjC3W9gHcduLDexXn4ppdCWZpS1RookBx7qBAgFaHBuc2B-sjHsvjMkzRKGcYKJYRZ57TP3DJvbSnwi2owlR1tBp7vlgKmOpzZrpBsUQbiwgyMj9gyhcpkFAzE82IiTXSzAv1NYE2RQ",
        "https://m.facebook.com/l.php?u=https%3A%2F%2Fmoderntech.site%2Flet-natures-majestic-masterpieces-amidst-the-grandeur-of-the-mountains-enchant-you-bestbabies-info%2F%3Ffbclid%3DIwZXh0bgNhZW0CMTAAAR3vuUqpi5XrTuugspR28IZtmVnxYLdknIu4GilPHios-J6BUwqCAwqt6kM_aem__hQE58mvVjATtbDowcqVGA&h=AT3wcZ-MDA6AYARBQuW5Q1piEhNuvMn5l0offvPCruxWif13WUG0u99Z39_P8swR6tMBzy631FvrT9CavMnkh1UsSUnbn6Qe4BJU69O_0WZAzlxjd9v2-JiW72ulpKcT3kZyUqF8O82Hicrl6FCB&__tn__=-UK-R&c[0]=AT0XBTxHcrAF9QItc9912v_H_C9aVr4KDCp3lEnvYz3hjC3W9gHcduLDexXn4ppdCWZpS1RookBx7qBAgFaHBuc2B-sjHsvjMkzRKGcYKJYRZ57TP3DJvbSnwi2owlR1tBp7vlgKmOpzZrpBsUQbiwgyMj9gyhcpkFAzE82IiTXSzAv1NYE2RQ",
        "https://m.facebook.com/l.php?u=https%3A%2F%2Fmoderntech.site%2Fnature-forms-tree-with-phallic-resemblance-evoking-discomfort-in-observers-bestbabies-info%2F%3Ffbclid%3DIwZXh0bgNhZW0CMTAAAR25fSQIRVAgHC40CyNKLi7pn_XMlWyJs_wIfv-47izHlzE4_W-P0RtKDe8_aem_Hpfc1N_MZypPqTQSLkzxPg&h=AT1TEYFV4oRhZMTFHPuTKbxJSMVkdWPj9LBuIK25ZIhTrayl6UCqxcSDUMpKwyPS4ccG7aAe_xx3Z-bzkr2ctQextZXFH4Bv6A1jfKNgu7KmC1yY3icscbMQX1YejJDDsGVUcjAiVmPxjOFZbUdR&__tn__=-UK-R&c[0]=AT0XBTxHcrAF9QItc9912v_H_C9aVr4KDCp3lEnvYz3hjC3W9gHcduLDexXn4ppdCWZpS1RookBx7qBAgFaHBuc2B-sjHsvjMkzRKGcYKJYRZ57TP3DJvbSnwi2owlR1tBp7vlgKmOpzZrpBsUQbiwgyMj9gyhcpkFAzE82IiTXSzAv1NYE2RQ",
        "https://m.facebook.com/l.php?u=https%3A%2F%2Fmoderntech.site%2Fendgame-stars-recreate-photo-from-7-years-ago-highlighting-their-remarkable-transformations-bestbabies-info%2F%3Ffbclid%3DIwZXh0bgNhZW0CMTAAAR3vuUqpi5XrTuugspR28IZtmVnxYLdknIu4GilPHios-J6BUwqCAwqt6kM_aem__hQE58mvVjATtbDowcqVGA&h=AT2uuvEx1YWCTXhn3sPKdZE46JDWhSObxeqX3kpZMI1kbra7a8Oe4FZampxf--TD8yq_-AJiLw3dC7wyZp5Pxrz_1qLKn8iQt3LCyG_BJYd4_2rWn1EaUbjjMCCdn4LvL-GQyeWR4dDlm_dHaC3-&__tn__=-UK-R&c[0]=AT0XBTxHcrAF9QItc9912v_H_C9aVr4KDCp3lEnvYz3hjC3W9gHcduLDexXn4ppdCWZpS1RookBx7qBAgFaHBuc2B-sjHsvjMkzRKGcYKJYRZ57TP3DJvbSnwi2owlR1tBp7vlgKmOpzZrpBsUQbiwgyMj9gyhcpkFAzE82IiTXSzAv1NYE2RQ",
        "https://m.facebook.com/l.php?u=https%3A%2F%2Fmoderntech.site%2Fkeanu-reeves-claims-that-he-had-to-film-a-sexual-scene-while-he-was-watching-the-wife-of-director-eli-roth-clack-clack-bestbabies-info%2F%3Ffbclid%3DIwZXh0bgNhZW0CMTAAAR2PX8AaC7XCjt8UIGiDr_LOEbX_n7mGynpGzIyQwjmcScb4xk-egTcLQD0_aem_WAp6ibmp73fM9-Bk0WBF8g&h=AT0LwVUYLGsMcR5QfjX6_S4f-QTA7lfcFKhA654pp9cJLpqQLzm2ZcPz0dUG0UBbdslXEG3i1fKmVQ4Qrb2fhmthbtYp8s8GUBR7hCStYl9uCQ6uNaUBM0GqE9LhZEwyqbC4NxBV81EMgFiu726I&__tn__=-UK-R&c[0]=AT0XBTxHcrAF9QItc9912v_H_C9aVr4KDCp3lEnvYz3hjC3W9gHcduLDexXn4ppdCWZpS1RookBx7qBAgFaHBuc2B-sjHsvjMkzRKGcYKJYRZ57TP3DJvbSnwi2owlR1tBp7vlgKmOpzZrpBsUQbiwgyMj9gyhcpkFAzE82IiTXSzAv1NYE2RQ",
        "https://m.facebook.com/l.php?u=https%3A%2F%2Fmoderntech.site%2Fhe%25d0%25bfry-cavills-i%25d0%25bftimidati%25d0%25bfg-doctor-doom-desig%25d0%25bf-imagi%25d0%25bfes-what-his-recast-co%25cf%2585ld-look-like-i%25d0%25bf-mcu-art-bestbabies-info%2F%3Ffbclid%3DIwZXh0bgNhZW0CMTAAAR2QfPTKMCR0bCfShFWYRrl32jjq4ag1Nk9aC_aHB_4DydA4bkjdgYo-KL0_aem_irsWYE1PX9NIpr_efHhIQA&h=AT2Pl-h9XMX8eH-htJ7OXGvJCQPliTminL5gifPcgZxN2VNg8DO7EaHB4BPfgvaZHAsRJeBbkGePb82JyyJJ2gjgyQDSrA505dLraC-wnN2VJHMDvoYJTRTQniWFEGlk2U2DRtZxiZ6qsKjzPddQ&__tn__=-UK-R&c[0]=AT0XBTxHcrAF9QItc9912v_H_C9aVr4KDCp3lEnvYz3hjC3W9gHcduLDexXn4ppdCWZpS1RookBx7qBAgFaHBuc2B-sjHsvjMkzRKGcYKJYRZ57TP3DJvbSnwi2owlR1tBp7vlgKmOpzZrpBsUQbiwgyMj9gyhcpkFAzE82IiTXSzAv1NYE2RQ",
        "https://m.facebook.com/l.php?u=https%3A%2F%2Fmoderntech.site%2Fkeanu-reeves-plays-with-golden-retriever-puppies-on-the-tonight-show-and-takes-part-in-a-pup-quiz-bestbabies-info%2F%3Ffbclid%3DIwZXh0bgNhZW0CMTAAAR1D9P5sEd7R5Zwv5lxgbDolxvjU5IX4sEL_6Si2rPYdMVGtykIzpu22HHQ_aem_diAH6FPDSd043TWxCQHM9w&h=AT2RSN6paPKZQjCODAZzKJyYfeDVETp85dNgfJ2IVevDCgR4gTlOaL7YLweI5BbUW28ekQOXeI1wB8hsSbLtnteG0VC-EkJ55ZTt4j_MmZQQpMtKnJZuAZbqZpe5f8-VW3W3tj1YnLLbJpQF7j6D&__tn__=-UK-R&c[0]=AT0XBTxHcrAF9QItc9912v_H_C9aVr4KDCp3lEnvYz3hjC3W9gHcduLDexXn4ppdCWZpS1RookBx7qBAgFaHBuc2B-sjHsvjMkzRKGcYKJYRZ57TP3DJvbSnwi2owlR1tBp7vlgKmOpzZrpBsUQbiwgyMj9gyhcpkFAzE82IiTXSzAv1NYE2RQ",
        "https://m.facebook.com/l.php?u=https%3A%2F%2Fmoderntech.site%2Fp%25cf%2585blic-o%25cf%2585trage-e%25d0%25bfs%25cf%2585es-followi%25d0%25bfg-ke%25d0%25bfdall-je%25d0%25bf%25d0%25bfers-co%25d0%25bftroversial-a%25d0%25bfd-bold-o%25cf%2585tfit-choice-bestbabies-info%2F%3Ffbclid%3DIwZXh0bgNhZW0CMTAAAR3HZXt-320-wwR9mu-uNs8ip1Ra8PVxbDJcNWTzeUJTYTNbaaDckcbjUt4_aem_Xh4EpuZuJGUSbjHoVnevMg&h=AT0AEigtmBOctc-ETyCavO53BzdwToGkdhRTnD39_WxIEJLDHLIWIO-IiuczcUxrXXuEr4B-K4BTDpGLbGT2trvhSF007kNY7uvPx-HsrWU4k2WEIqwKI_ewbiAeL-RrB6HhiYNfMzfoN-dHWR4E&__tn__=-UK-R&c[0]=AT0XBTxHcrAF9QItc9912v_H_C9aVr4KDCp3lEnvYz3hjC3W9gHcduLDexXn4ppdCWZpS1RookBx7qBAgFaHBuc2B-sjHsvjMkzRKGcYKJYRZ57TP3DJvbSnwi2owlR1tBp7vlgKmOpzZrpBsUQbiwgyMj9gyhcpkFAzE82IiTXSzAv1NYE2RQ",
        "https://m.facebook.com/l.php?u=https%3A%2F%2Fmoderntech.site%2Fstylish-light-brow%25d0%25bf-fa%25cf%2585x-f%25cf%2585r-coat-a%25d0%25bfd-black-k%25d0%25bfee-high-boots-bestbabies-info%2F%3Ffbclid%3DIwZXh0bgNhZW0CMTAAAR3vuUqpi5XrTuugspR28IZtmVnxYLdknIu4GilPHios-J6BUwqCAwqt6kM_aem__hQE58mvVjATtbDowcqVGA&h=AT1JwA1NyXqsPYzA0veawuRispXqEM1d11LmbXGttZnOpxyNW0MKeNto92pt54IOuGuOQlol0ymXiz7Wn3aB9k_svZuxbUGHjsO4-Y0noKf5c0LNUvrON48Mp1YE-yEAMr9qS_vRl_cpmodLskmf&__tn__=-UK-R&c[0]=AT0XBTxHcrAF9QItc9912v_H_C9aVr4KDCp3lEnvYz3hjC3W9gHcduLDexXn4ppdCWZpS1RookBx7qBAgFaHBuc2B-sjHsvjMkzRKGcYKJYRZ57TP3DJvbSnwi2owlR1tBp7vlgKmOpzZrpBsUQbiwgyMj9gyhcpkFAzE82IiTXSzAv1NYE2RQ"
    ]
}
