{
    "browser_testing":{
        "test_api":"https://jsonplaceholder.typicode.com/todos/1",
        "keyword_contain":"userId"
    },
    "random_range":"9:14",
    "work_urls":[
    "https://m.facebook.com/l.php?u=https%3A%2F%2Fthree.campuselite.site%2Fi-went-to-my-fathers-grave-and-found-a-tombstone-with-my-name-and-photo-nearby-the-shocking-truth-left-me-speechless-viral-in-zoom-3%2F%3Ffbclid%3DIwZXh0bgNhZW0CMTAAAR2p16H_ug9zo3WU5YNyplySioxcwwfKOH9As_wYGvtANzw273Yr1_G82D4_aem_gwyJqSLxRZYqa1uTKKa0iQ&h=AT165TgqfHmZn28u9GHbLlg7Pw5_-cLKKhhXG573HCgqnxHAdU5Z4Z0yok-2LseSRp27V1NYocOULEveyU7i-6UptaOc4JrXXqxWNWxEJ-JFDh20JSAPOM7hqNXW7KAnPKET7z0vr1GV-QZlzq9P&__tn__=-UK-R&c[0]=AT1mpStFPVUpcawuS--oyfS8FOk6ZmvmZZAOoVBkiPCK74duUZamjxqmW-HXu707LMGu-lOY8F36Zi2NVXDwr8LkfKyw28NmdgSCljbRx19ltGDKRK5_pBlZWwCSSrLrwj7Wy9_g9BYZLZ1HJzuA64nDXyDWOL_gA1SNI2WLovELMLeQyJ-vvg",
"https://m.facebook.com/l.php?u=https%3A%2F%2Fthree.campuselite.site%2Fmy-father-left-me-his-mansion-while-his-new-wife-and-daughter-got-only-10000-each-viral-in-zoom%2F%3Ffbclid%3DIwZXh0bgNhZW0CMTAAAR0GYNp4c8BYaIhch-SCR11ZJ8hataw3GHy_FYyNRyfJ-3q5yUh4c5DMuLc_aem_rrmx_ytJ2asJd_td9WLDLw&h=AT09am5z3J9Gk7iw5JvbCkPyEYM3g-xyv-nT2AzBlPTWCfv2W-B-0txWU4klyX1g4XDiQ4HVwFIVY8NSaYhgMAQplK8xjxSnb-jS7DpzIbwN1LQ1dWRlfxr19U6vbKtsoRVPgX4umdo6AktZpFpr&__tn__=-UK-R&c[0]=AT1mpStFPVUpcawuS--oyfS8FOk6ZmvmZZAOoVBkiPCK74duUZamjxqmW-HXu707LMGu-lOY8F36Zi2NVXDwr8LkfKyw28NmdgSCljbRx19ltGDKRK5_pBlZWwCSSrLrwj7Wy9_g9BYZLZ1HJzuA64nDXyDWOL_gA1SNI2WLovELMLeQyJ-vvg",
"https://m.facebook.com/l.php?u=https%3A%2F%2Fthree.campuselite.site%2Fi-brought-my-husband-a-surprise-dinner-at-work-and-found-out-he-had-been-dismissed-three-months-earlier-viral-in-zoom%2F%3Ffbclid%3DIwZXh0bgNhZW0CMTAAAR3oxjlxT0XFmxO3Hpc9loOCUFybLzADyc6DOD6b2chkwHgR_YbDyCZ4r7s_aem_q-_c8o-AeCiwXJ_L0Buj_w&h=AT0ZbUs-vTOTVwry5NKbMUUhjhSZKxkIV_PInY7v2qA5hR2b8n4lfv7Llk8TWXYgnYFdFzGnh-gWZPyAFFdHGuGEJ2tVZXLlhSEnsgmjtlO7iB6865T311ZjEoXP-zol-l-yFFghmVu54rU61YWG&__tn__=-UK-R&c[0]=AT1mpStFPVUpcawuS--oyfS8FOk6ZmvmZZAOoVBkiPCK74duUZamjxqmW-HXu707LMGu-lOY8F36Zi2NVXDwr8LkfKyw28NmdgSCljbRx19ltGDKRK5_pBlZWwCSSrLrwj7Wy9_g9BYZLZ1HJzuA64nDXyDWOL_gA1SNI2WLovELMLeQyJ-vvg",
"https://m.facebook.com/l.php?u=https%3A%2F%2Fthree.campuselite.site%2Fteen-boy-puts-his-newborn-son-up-for-adoption-years-later-he-accidentally-meets-him-viral-in-zoom%2F%3Ffbclid%3DIwZXh0bgNhZW0CMTAAAR0rhQVCuGs-m_2uS5XrnDmzfjKNXBAYMK9ih6QKC426HhfQ2slX8vTZ8X8_aem_YH-SsDdPLeCSjxO8fMPRYw&h=AT3uVjeGgp5qo9gbx4Vo-bX0gc4xr8SGMrDetteICO77IQ14u5mkZ8C8e5AJ34zDj4zbqGGaPktHR8zjItb2rT9doP9S8KNgoBl8WOSpss3GLlYKhRAayWpbeLypmE1ADqOhDRjUx9BUNKRBC-sG&__tn__=-UK-R&c[0]=AT1mpStFPVUpcawuS--oyfS8FOk6ZmvmZZAOoVBkiPCK74duUZamjxqmW-HXu707LMGu-lOY8F36Zi2NVXDwr8LkfKyw28NmdgSCljbRx19ltGDKRK5_pBlZWwCSSrLrwj7Wy9_g9BYZLZ1HJzuA64nDXyDWOL_gA1SNI2WLovELMLeQyJ-vvg",
"https://m.facebook.com/l.php?u=https%3A%2F%2Fthree.campuselite.site%2Fwhere-are-britains-youngest-parents-now-viral-in-zoom%2F%3Ffbclid%3DIwZXh0bgNhZW0CMTAAAR0rhQVCuGs-m_2uS5XrnDmzfjKNXBAYMK9ih6QKC426HhfQ2slX8vTZ8X8_aem_YH-SsDdPLeCSjxO8fMPRYw&h=AT3seK86GPGTTPNFnwbHNH5KydquKkJXbTOZRk7mYGc6sejraDHO6tb5FFodRvzugxKq6mGsKaERgxJ68D6LdjXfpq9WhcEUQ1sjGu7B46ICSZ2Mwu-fFJlsNfgFq3sN9a-puuYOr2ekgrAfJTyG&__tn__=-UK-R&c[0]=AT1mpStFPVUpcawuS--oyfS8FOk6ZmvmZZAOoVBkiPCK74duUZamjxqmW-HXu707LMGu-lOY8F36Zi2NVXDwr8LkfKyw28NmdgSCljbRx19ltGDKRK5_pBlZWwCSSrLrwj7Wy9_g9BYZLZ1HJzuA64nDXyDWOL_gA1SNI2WLovELMLeQyJ-vvg",
"https://m.facebook.com/l.php?u=https%3A%2F%2Fthree.campuselite.site%2Fdemanding-parents-expect-nanny-to-pay-1000-for-vacation-flights-their-harsh-reality-check-viral-in-zoom-4%2F%3Ffbclid%3DIwZXh0bgNhZW0CMTAAAR0R3eaMVm9EjOrAFMe6wJQeOwecL3SICVhz317I5VHDQgg8OjLM2BEOEEc_aem_f3vPZlQHjyQ0cxbQMgHf-g&h=AT29ZwUZTUo1020qkhcTVXNrMrpzG6odR9qzGYUAjVHX3U5hPb3-woveaL0LzCuyNWsune1qUeRUmfKzNNFQ7Y-VS8ua81tR0KaOp3YZk746Hp2-aLh3YT9pErEvUe0k7GtyqeyPf6jJ8uvKhPQz&__tn__=-UK-R&c[0]=AT1mpStFPVUpcawuS--oyfS8FOk6ZmvmZZAOoVBkiPCK74duUZamjxqmW-HXu707LMGu-lOY8F36Zi2NVXDwr8LkfKyw28NmdgSCljbRx19ltGDKRK5_pBlZWwCSSrLrwj7Wy9_g9BYZLZ1HJzuA64nDXyDWOL_gA1SNI2WLovELMLeQyJ-vvg",
"https://m.facebook.com/l.php?u=https%3A%2F%2Fthree.campuselite.site%2Fa-nine-word-text-on-my-granddaughters-phone-completely-changed-my-will-viral-in-zoom%2F%3Ffbclid%3DIwZXh0bgNhZW0CMTAAAR3p4vl5NG1yY0Opz9EAlLyplIpsf2JHFnpGiBI7-KYs7cO-VcTN0qmUgLk_aem_aCoWBViBhCIvwN9Mehyyfg&h=AT2kdyEnzuhcdxZlL0NGJIEsWOJZmAz-uXebOJWAFATfiUt0srAQ6tc_jN5X3gLbzqJY87KFDRtYdtv-47nAvZwlALHHgsRoND-8zqD6LjLDDitUr2qdPNMn8hGuy3xpr7iLwwkCxDauTAi9-GdT&__tn__=-UK-R&c[0]=AT1mpStFPVUpcawuS--oyfS8FOk6ZmvmZZAOoVBkiPCK74duUZamjxqmW-HXu707LMGu-lOY8F36Zi2NVXDwr8LkfKyw28NmdgSCljbRx19ltGDKRK5_pBlZWwCSSrLrwj7Wy9_g9BYZLZ1HJzuA64nDXyDWOL_gA1SNI2WLovELMLeQyJ-vvg",
"https://m.facebook.com/l.php?u=https%3A%2F%2Fthree.campuselite.site%2Fmy-landlord-secretly-held-a-key-and-entered-my-apartment-during-work-hours-karma-caught-up-with-him-viral-in-zoom%2F%3Ffbclid%3DIwZXh0bgNhZW0CMTAAAR0GYNp4c8BYaIhch-SCR11ZJ8hataw3GHy_FYyNRyfJ-3q5yUh4c5DMuLc_aem_rrmx_ytJ2asJd_td9WLDLw&h=AT3zTNKCaR6cotincdIrhoC9yxqeb2MKck2CTPragrL495wXd8K9tp295KJzv5skG0jQCbGaQIIJuEI1OBO7I6p-CCwhoCrEUn5tHkNtBnDiLJGWodLM3Vhzyt_WhZAIaqRamgEy2EsBw9WTxSCT&__tn__=-UK-R&c[0]=AT1mpStFPVUpcawuS--oyfS8FOk6ZmvmZZAOoVBkiPCK74duUZamjxqmW-HXu707LMGu-lOY8F36Zi2NVXDwr8LkfKyw28NmdgSCljbRx19ltGDKRK5_pBlZWwCSSrLrwj7Wy9_g9BYZLZ1HJzuA64nDXyDWOL_gA1SNI2WLovELMLeQyJ-vvg",
"https://m.facebook.com/l.php?u=https%3A%2F%2Fthree.campuselite.site%2Fmy-husband-brought-me-to-an-upscale-restaurant-for-our-anniversary-but-restricted-me-to-ordering-just-a-basic-salad-viral-in-zoom%2F%3Ffbclid%3DIwZXh0bgNhZW0CMTAAAR0R3eaMVm9EjOrAFMe6wJQeOwecL3SICVhz317I5VHDQgg8OjLM2BEOEEc_aem_f3vPZlQHjyQ0cxbQMgHf-g&h=AT30lbbA29S7VpOxeTKDySYevGN425-hGAZ8xuJMim2LpwYkfi3_a8pAfgYPUknlCAHAV6L4-IPkvsBIVj_muRED5JLlMYZvMBY3gQUMndlMggmizN7O93g5xChDB4Mz6NsiH-aN671VPBZK9LWC&__tn__=-UK-R&c[0]=AT1mpStFPVUpcawuS--oyfS8FOk6ZmvmZZAOoVBkiPCK74duUZamjxqmW-HXu707LMGu-lOY8F36Zi2NVXDwr8LkfKyw28NmdgSCljbRx19ltGDKRK5_pBlZWwCSSrLrwj7Wy9_g9BYZLZ1HJzuA64nDXyDWOL_gA1SNI2WLovELMLeQyJ-vvg",
"https://m.facebook.com/l.php?u=https%3A%2F%2Fthree.campuselite.site%2Fi-believed-my-sister-was-in-distress-until-i-found-out-she-was-the-culprit-viral-in-zoom%2F%3Ffbclid%3DIwZXh0bgNhZW0CMTAAAR0rhQVCuGs-m_2uS5XrnDmzfjKNXBAYMK9ih6QKC426HhfQ2slX8vTZ8X8_aem_YH-SsDdPLeCSjxO8fMPRYw&h=AT2xBanYpaQFlVN6-l2KwbE_byctm__zquPL2WQHekjlNKm3Iq4yYsoRX-6AUquQJC4ypvFEmj7VkJ4kVgMA2_g5R59MLXKlS1_EYFy6Pgv8ffHLMS0RH-aOYcfTY4oxoruVHQRDsy87mGNkKJNk&__tn__=-UK-R&c[0]=AT1mpStFPVUpcawuS--oyfS8FOk6ZmvmZZAOoVBkiPCK74duUZamjxqmW-HXu707LMGu-lOY8F36Zi2NVXDwr8LkfKyw28NmdgSCljbRx19ltGDKRK5_pBlZWwCSSrLrwj7Wy9_g9BYZLZ1HJzuA64nDXyDWOL_gA1SNI2WLovELMLeQyJ-vvg",
"https://m.facebook.com/l.php?u=https%3A%2F%2Fthree.campuselite.site%2Fmy-mother-in-law-deliberately-sent-me-wilted-flowers-for-my-birthday-along-with-a-rude-note-viral-in-zoom%2F%3Ffbclid%3DIwZXh0bgNhZW0CMTAAAR0GYNp4c8BYaIhch-SCR11ZJ8hataw3GHy_FYyNRyfJ-3q5yUh4c5DMuLc_aem_rrmx_ytJ2asJd_td9WLDLw&h=AT09XjdXXS9j9Mniq89HpLigEc0u6E9J3GdsUs-8Qw_6w8eKmI3NzCeXmXrTQFk63Aq0ZrzkIbrkuUp8fP1Ng7JDPeWfUWzmsZESuCiOE3RrYUfUrT5awuO5BWXCYBstmwXg7-gc6N8R2XgqrTwM&__tn__=-UK-R&c[0]=AT1mpStFPVUpcawuS--oyfS8FOk6ZmvmZZAOoVBkiPCK74duUZamjxqmW-HXu707LMGu-lOY8F36Zi2NVXDwr8LkfKyw28NmdgSCljbRx19ltGDKRK5_pBlZWwCSSrLrwj7Wy9_g9BYZLZ1HJzuA64nDXyDWOL_gA1SNI2WLovELMLeQyJ-vvg",
"https://m.facebook.com/l.php?u=https%3A%2F%2Fthree.campuselite.site%2Fdemanding-parents-expect-nanny-to-pay-1000-for-vacation-flights-their-harsh-reality-check-viral-in-zoom-2%2F%3Ffbclid%3DIwZXh0bgNhZW0CMTAAAR2yyiVZap6beB0kkFDTA7RPP14fyyRvMfYgPj5j1wRhykQD0KIpqT8m2fQ_aem_pWFtuzvQRA8m1PnEbdrqiw&h=AT3g4fNDFcgC5m3_mw0tpX2ltRvlwQtPQhs_vjZOdn7odqcqU9kXYZsLlE0rdOceBsnJ3AyRyePnTEbb3nRHDj4W0lWNMsu0zwMzt8v59KlD0QJtlB0WzRYNGBMvQR1ULIhkLvaNI0Qs1Y7ZSSEY&__tn__=-UK-R&c[0]=AT1mpStFPVUpcawuS--oyfS8FOk6ZmvmZZAOoVBkiPCK74duUZamjxqmW-HXu707LMGu-lOY8F36Zi2NVXDwr8LkfKyw28NmdgSCljbRx19ltGDKRK5_pBlZWwCSSrLrwj7Wy9_g9BYZLZ1HJzuA64nDXyDWOL_gA1SNI2WLovELMLeQyJ-vvg",
"https://m.facebook.com/l.php?u=https%3A%2F%2Fthree.campuselite.site%2Fmy-parents-prohibited-me-from-leaving-home-upon-uncovering-their-true-motive-i-promptly-contacted-law-enforcement-viral-in-zoom%2F%3Ffbclid%3DIwZXh0bgNhZW0CMTAAAR0R3eaMVm9EjOrAFMe6wJQeOwecL3SICVhz317I5VHDQgg8OjLM2BEOEEc_aem_f3vPZlQHjyQ0cxbQMgHf-g&h=AT2jOPE4ejnzckFrIjyNpwd4j9MdJKv2aNYNtSFCqHbC0yhh1MaLL_eA3BIADgoPgVta3uGhuaJkc_f_Q3gO8xFCvAwElqLxQA2jKGICRXka-DUaLSlZDMBv86MO_tCp1kNA5TjMZg-6ooMEPBwN&__tn__=-UK-R&c[0]=AT1mpStFPVUpcawuS--oyfS8FOk6ZmvmZZAOoVBkiPCK74duUZamjxqmW-HXu707LMGu-lOY8F36Zi2NVXDwr8LkfKyw28NmdgSCljbRx19ltGDKRK5_pBlZWwCSSrLrwj7Wy9_g9BYZLZ1HJzuA64nDXyDWOL_gA1SNI2WLovELMLeQyJ-vvg",
"https://m.facebook.com/l.php?u=https%3A%2F%2Fthree.campuselite.site%2Fmy-former-partners-new-love-reached-out-to-ask-a-single-pivotal-question-the-message-absolutely-floored-me-viral-in-zoom%2F%3Ffbclid%3DIwZXh0bgNhZW0CMTAAAR2p16H_ug9zo3WU5YNyplySioxcwwfKOH9As_wYGvtANzw273Yr1_G82D4_aem_gwyJqSLxRZYqa1uTKKa0iQ&h=AT0UJSMiSru6wFXTlshr-g0GNS1nY3HT3khmq_6q4Z_NkGHLoz-H5u_i9DR5B8iRsOaWzBQ0KKZsumo69qGgiUAjF0QfFxqTrao-yKv_kE1DHzZSzbLdEgxbYLyr2cfnJaEFhRSUDzPdGg_0qGw2&__tn__=-UK-R&c[0]=AT1mpStFPVUpcawuS--oyfS8FOk6ZmvmZZAOoVBkiPCK74duUZamjxqmW-HXu707LMGu-lOY8F36Zi2NVXDwr8LkfKyw28NmdgSCljbRx19ltGDKRK5_pBlZWwCSSrLrwj7Wy9_g9BYZLZ1HJzuA64nDXyDWOL_gA1SNI2WLovELMLeQyJ-vvg",
"https://m.facebook.com/l.php?u=https%3A%2F%2Fthree.campuselite.site%2Fentitled-neighbor-damaged-my-ill-grandfathers-car-i-showed-her-the-importance-of-minding-her-own-business-viral-in-zoom%2F%3Ffbclid%3DIwZXh0bgNhZW0CMTAAAR0rhQVCuGs-m_2uS5XrnDmzfjKNXBAYMK9ih6QKC426HhfQ2slX8vTZ8X8_aem_YH-SsDdPLeCSjxO8fMPRYw&h=AT2Bk1HuLe1fSYjYnWZH16uhPNwnU2J8AXfFddRKHG3S4msCOu_NDyuxeDlpxVpn4J1XVEOTkA4TdZj-xDKX_Cb4OuFDtqhsrHUMZfQzzChH-7pblxzd_tZ16zCvbZHDRf-hXCT5UXNqlJ9DxLJF&__tn__=-UK-R&c[0]=AT1mpStFPVUpcawuS--oyfS8FOk6ZmvmZZAOoVBkiPCK74duUZamjxqmW-HXu707LMGu-lOY8F36Zi2NVXDwr8LkfKyw28NmdgSCljbRx19ltGDKRK5_pBlZWwCSSrLrwj7Wy9_g9BYZLZ1HJzuA64nDXyDWOL_gA1SNI2WLovELMLeQyJ-vvg",
"https://m.facebook.com/l.php?u=https%3A%2F%2Fthree.campuselite.site%2Fnewlyweds-attempted-to-ruin-my-flight-as-retaliation-i-quickly-put-them-in-their-place-viral-in-zoom%2F%3Ffbclid%3DIwZXh0bgNhZW0CMTAAAR0rhQVCuGs-m_2uS5XrnDmzfjKNXBAYMK9ih6QKC426HhfQ2slX8vTZ8X8_aem_YH-SsDdPLeCSjxO8fMPRYw&h=AT2vdUTgyk6twRPugi87X9F3hKaxU8NVZnLVHiA1PAU-4Pe-o_WY7ea66mPVPsl0Z-w2EWLT0ImDtHmFghmAz2GvAKT50mxogQdO-5rf8cOjwYVuB3WBtjeTeAXeG0VGgDqb7c2ZOPZToiqwbLvb&__tn__=-UK-R&c[0]=AT1mpStFPVUpcawuS--oyfS8FOk6ZmvmZZAOoVBkiPCK74duUZamjxqmW-HXu707LMGu-lOY8F36Zi2NVXDwr8LkfKyw28NmdgSCljbRx19ltGDKRK5_pBlZWwCSSrLrwj7Wy9_g9BYZLZ1HJzuA64nDXyDWOL_gA1SNI2WLovELMLeQyJ-vvg",
"https://m.facebook.com/l.php?u=https%3A%2F%2Fthree.campuselite.site%2Fdemanding-parents-expect-nanny-to-pay-1000-for-vacation-flights-their-harsh-reality-check-viral-in-zoom-3%2F%3Ffbclid%3DIwZXh0bgNhZW0CMTAAAR3oxjlxT0XFmxO3Hpc9loOCUFybLzADyc6DOD6b2chkwHgR_YbDyCZ4r7s_aem_q-_c8o-AeCiwXJ_L0Buj_w&h=AT3FTzF2obVTjEUzjeSm8huzYfpAr3SgRAWxP3ldOyoJjoAPAjs4vLJFP4heRBLM9DBqzPi9nSGaEo1bd-BhxAI4j3zRAx9XN2L4mVYgA0V-r2PRxcOU0kGrqcxvqs82ivDL8ejE2i__ACbGBryy&__tn__=-UK-R&c[0]=AT1mpStFPVUpcawuS--oyfS8FOk6ZmvmZZAOoVBkiPCK74duUZamjxqmW-HXu707LMGu-lOY8F36Zi2NVXDwr8LkfKyw28NmdgSCljbRx19ltGDKRK5_pBlZWwCSSrLrwj7Wy9_g9BYZLZ1HJzuA64nDXyDWOL_gA1SNI2WLovELMLeQyJ-vvg",
"https://m.facebook.com/l.php?u=https%3A%2F%2Fthree.campuselite.site%2Fdesperate-mother-denied-boarding-on-flight-to-visit-her-son-cries-out-i-need-to-see-my-baby-viral-in-zoom-2%2F%3Ffbclid%3DIwZXh0bgNhZW0CMTAAAR0GYNp4c8BYaIhch-SCR11ZJ8hataw3GHy_FYyNRyfJ-3q5yUh4c5DMuLc_aem_rrmx_ytJ2asJd_td9WLDLw&h=AT2taUsfF_VJkXSpypEavz1CKAUQ_BwQNvsIS_9mbt4NqpWY9E09E-rEiYzqbLeYNkrlmqqKyWI3lLOfKHJ1qFUOiYpDqgEYK-HLYzeiRYGacO95u2038FtdgJFa30RaAmMda3XWMeEERGoTVoWs&__tn__=-UK-R&c[0]=AT1mpStFPVUpcawuS--oyfS8FOk6ZmvmZZAOoVBkiPCK74duUZamjxqmW-HXu707LMGu-lOY8F36Zi2NVXDwr8LkfKyw28NmdgSCljbRx19ltGDKRK5_pBlZWwCSSrLrwj7Wy9_g9BYZLZ1HJzuA64nDXyDWOL_gA1SNI2WLovELMLeQyJ-vvg",
"https://m.facebook.com/l.php?u=https%3A%2F%2Fthree.campuselite.site%2Fi-discovered-a-hidden-phone-in-my-husbands-closet-it-contained-just-a-single-contact-viral-in-zoom%2F%3Ffbclid%3DIwZXh0bgNhZW0CMTAAAR33dgTWUgvyX2cTveDYI0OEe-ufc8QBckJe1knfLmGLx5cDvKzHZligpf4_aem_ag3M1lzblhoL3ssPxBgd5g&h=AT2DGC5OLo3MdzVi8dM3FdG8DqD_KaNK9iYgacdj_TD3iCSVjcaDr8PPuPm4Z5ZszS2Zq7DQQ-OkZ_FTuc61nhQ1UYBdOT1BYro9wJyEvVY2G6osk1FW8seVPNlJ20ttUOzQVWUgQMpZnf_yTyjo&__tn__=-UK-R&c[0]=AT1mpStFPVUpcawuS--oyfS8FOk6ZmvmZZAOoVBkiPCK74duUZamjxqmW-HXu707LMGu-lOY8F36Zi2NVXDwr8LkfKyw28NmdgSCljbRx19ltGDKRK5_pBlZWwCSSrLrwj7Wy9_g9BYZLZ1HJzuA64nDXyDWOL_gA1SNI2WLovELMLeQyJ-vvg",
"https://m.facebook.com/l.php?u=https%3A%2F%2Fthree.campuselite.site%2Fi-discovered-a-hidden-phone-in-my-husbands-closet-it-contained-just-a-single-contact-viral-in-zoom%2F%3Ffbclid%3DIwZXh0bgNhZW0CMTAAAR33dgTWUgvyX2cTveDYI0OEe-ufc8QBckJe1knfLmGLx5cDvKzHZligpf4_aem_ag3M1lzblhoL3ssPxBgd5g&h=AT2DGC5OLo3MdzVi8dM3FdG8DqD_KaNK9iYgacdj_TD3iCSVjcaDr8PPuPm4Z5ZszS2Zq7DQQ-OkZ_FTuc61nhQ1UYBdOT1BYro9wJyEvVY2G6osk1FW8seVPNlJ20ttUOzQVWUgQMpZnf_yTyjo&__tn__=-UK-R&c[0]=AT1mpStFPVUpcawuS--oyfS8FOk6ZmvmZZAOoVBkiPCK74duUZamjxqmW-HXu707LMGu-lOY8F36Zi2NVXDwr8LkfKyw28NmdgSCljbRx19ltGDKRK5_pBlZWwCSSrLrwj7Wy9_g9BYZLZ1HJzuA64nDXyDWOL_gA1SNI2WLovELMLeQyJ-vvg",
"https://m.facebook.com/l.php?u=https%3A%2F%2Fthree.campuselite.site%2Fdesperate-mother-denied-boarding-on-flight-to-visit-her-son-cries-out-i-need-to-see-my-baby-viral-in-zoom%2F%3Ffbclid%3DIwZXh0bgNhZW0CMTAAAR2p16H_ug9zo3WU5YNyplySioxcwwfKOH9As_wYGvtANzw273Yr1_G82D4_aem_gwyJqSLxRZYqa1uTKKa0iQ&h=AT39rsKN2LYn52bgECqfS2lAehBmjmjpttAyyamv16-d-SRpwbdSYuIqo-EEQRm2gK6eoYJw0U2QA5niuiZTAnBFc-swqg2wlLczMPb_poPGBJzfnBsleyOSJ1_SgEDvnLKhGwK5kEEUnEzzyz4X&__tn__=-UK-R&c[0]=AT1mpStFPVUpcawuS--oyfS8FOk6ZmvmZZAOoVBkiPCK74duUZamjxqmW-HXu707LMGu-lOY8F36Zi2NVXDwr8LkfKyw28NmdgSCljbRx19ltGDKRK5_pBlZWwCSSrLrwj7Wy9_g9BYZLZ1HJzuA64nDXyDWOL_gA1SNI2WLovELMLeQyJ-vvg",
"https://m.facebook.com/l.php?u=https%3A%2F%2Fthree.campuselite.site%2Fdemanding-parents-expect-nanny-to-pay-1000-for-vacation-flights-their-harsh-reality-check-viral-in-zoom%2F%3Ffbclid%3DIwZXh0bgNhZW0CMTAAAR3C2ml-kDTnlo_hPSeOQ0KPwNV4knPn1OqV901K_1Ki88Oyj6CSXLmup1Y_aem_Q_Sx-WDv2n6RuSwgSEeQ4A&h=AT0LcadGnam7Bac9QnWiUgXtGayNPqEKqrOrT3PiAgxx4QfwojiTF3p1bm2gM3Vp5iXEjAbtE0snB_E92YpLHZ0xXkdHXxs8gQNm6Gw4Aheik1Wb0bzeRhTURniZn1sgbMKUiYhrraKjECw0IyuF&__tn__=-UK-R&c[0]=AT1mpStFPVUpcawuS--oyfS8FOk6ZmvmZZAOoVBkiPCK74duUZamjxqmW-HXu707LMGu-lOY8F36Zi2NVXDwr8LkfKyw28NmdgSCljbRx19ltGDKRK5_pBlZWwCSSrLrwj7Wy9_g9BYZLZ1HJzuA64nDXyDWOL_gA1SNI2WLovELMLeQyJ-vvg",
"https://m.facebook.com/l.php?u=https%3A%2F%2Fthree.campuselite.site%2Fentitled-mom-took-my-seat-at-the-cafe-she-blushed-with-embarrassment-after-i-gave-her-a-lesson-viral-in-zoom%2F%3Ffbclid%3DIwZXh0bgNhZW0CMTAAAR33dgTWUgvyX2cTveDYI0OEe-ufc8QBckJe1knfLmGLx5cDvKzHZligpf4_aem_ag3M1lzblhoL3ssPxBgd5g&h=AT2nlO0O5cUE5jFRz3xvcWDPiaRI3TkNfDo7XlBYUO51qt1UvL0HN21-__jQNFPzOqL0iId0ud_MF_1sdwBh_3aH5IqPnWxa9HL6GmvXHktIc9pg-fPX1opNOYeXPNjrnccBmoD-jIXf32hXsWMc&__tn__=-UK-R&c[0]=AT1mpStFPVUpcawuS--oyfS8FOk6ZmvmZZAOoVBkiPCK74duUZamjxqmW-HXu707LMGu-lOY8F36Zi2NVXDwr8LkfKyw28NmdgSCljbRx19ltGDKRK5_pBlZWwCSSrLrwj7Wy9_g9BYZLZ1HJzuA64nDXyDWOL_gA1SNI2WLovELMLeQyJ-vvg",
"https://m.facebook.com/l.php?u=https%3A%2F%2Fthree.campuselite.site%2Fmy-grandma-was-unaware-her-boyfriend-was-after-her-money-so-i-revealed-his-true-intentions-in-the-most-effective-way-viral-in-zoom-2%2F%3Ffbclid%3DIwZXh0bgNhZW0CMTAAAR2p16H_ug9zo3WU5YNyplySioxcwwfKOH9As_wYGvtANzw273Yr1_G82D4_aem_gwyJqSLxRZYqa1uTKKa0iQ&h=AT2LxORspE7seP1WZxq1-orVoASVwKdINe-1_pZQBfmpQcbnQSunjVIriaSNnmrnCjWAe0h0nnH99nvLqb6UKc0lOcPGhxCR1BTn_d5tOd75dkhmYAal6KJ2hTqIsXYIusDVOYE3CTOU1t-RWKTU&__tn__=-UK-R&c[0]=AT1mpStFPVUpcawuS--oyfS8FOk6ZmvmZZAOoVBkiPCK74duUZamjxqmW-HXu707LMGu-lOY8F36Zi2NVXDwr8LkfKyw28NmdgSCljbRx19ltGDKRK5_pBlZWwCSSrLrwj7Wy9_g9BYZLZ1HJzuA64nDXyDWOL_gA1SNI2WLovELMLeQyJ-vvg",
"https://m.facebook.com/l.php?u=https%3A%2F%2Fthree.campuselite.site%2Fat-74-jay-leno-planning-for-death-leaves-chunk-of-cash-to-cars-no-one-lives-forever-viral-in-zoom-2%2F%3Ffbclid%3DIwZXh0bgNhZW0CMTAAAR2yyiVZap6beB0kkFDTA7RPP14fyyRvMfYgPj5j1wRhykQD0KIpqT8m2fQ_aem_pWFtuzvQRA8m1PnEbdrqiw&h=AT34XWymQsBSVPrhop2IPRcPv7Zkc6sdKhafvjr2NhhiQk4v1PNTR1a2wwLHSlGITpmjVDvWI-B59jduWALUKtK3aX46TivVZaRybxJPlwIS5By95jPubNO3GPcUBOtnjQH6vjr9jJRESGFemEGu&__tn__=-UK-R&c[0]=AT1mpStFPVUpcawuS--oyfS8FOk6ZmvmZZAOoVBkiPCK74duUZamjxqmW-HXu707LMGu-lOY8F36Zi2NVXDwr8LkfKyw28NmdgSCljbRx19ltGDKRK5_pBlZWwCSSrLrwj7Wy9_g9BYZLZ1HJzuA64nDXyDWOL_gA1SNI2WLovELMLeQyJ-vvg",
"https://m.facebook.com/l.php?u=https%3A%2F%2Fthree.campuselite.site%2Fmy-brother-in-law-attempted-to-steal-from-us-while-my-husband-was-on-army-duty-he-faced-immediate-karma-viral-in-zoom-2%2F%3Ffbclid%3DIwZXh0bgNhZW0CMTAAAR0R3eaMVm9EjOrAFMe6wJQeOwecL3SICVhz317I5VHDQgg8OjLM2BEOEEc_aem_f3vPZlQHjyQ0cxbQMgHf-g&h=AT3JtPZCEh28YE1ee9fLECYEmSBFqJgFJTcjxLfpgPVTIZU0pwyxjgUJugMeMPkp2GuvO-Hlb-OUjfZ2ZtoQiWAoQz4EJFhMxLBSK4skjDl3Mv6Hq6UGO29RJEUC-vjsT9bRVmSJfn6dzzpEnsxj&__tn__=-UK-R&c[0]=AT1mpStFPVUpcawuS--oyfS8FOk6ZmvmZZAOoVBkiPCK74duUZamjxqmW-HXu707LMGu-lOY8F36Zi2NVXDwr8LkfKyw28NmdgSCljbRx19ltGDKRK5_pBlZWwCSSrLrwj7Wy9_g9BYZLZ1HJzuA64nDXyDWOL_gA1SNI2WLovELMLeQyJ-vvg",
"https://m.facebook.com/l.php?u=https%3A%2F%2Fthree.campuselite.site%2Fmy-husband-left-me-and-our-baby-at-the-airport-and-took-a-solo-vacation-he-deeply-regrets-it-now-viral-in-zoom-2%2F%3Ffbclid%3DIwZXh0bgNhZW0CMTAAAR2yyiVZap6beB0kkFDTA7RPP14fyyRvMfYgPj5j1wRhykQD0KIpqT8m2fQ_aem_pWFtuzvQRA8m1PnEbdrqiw&h=AT059tHKgu6Slsa2oTGo34yH5RWpBzHNkIdb9-lcvSmPb4QwysJXOi117EkbMluHeYKSj22yaPWTDafuDLmEyskQq-fxcbxqtxztjtx9uu3pGx-6cqdBf0Wsg0i5ocIjIdLgYLEPk7R5_Fq2CHtf&__tn__=-UK-R&c[0]=AT1mpStFPVUpcawuS--oyfS8FOk6ZmvmZZAOoVBkiPCK74duUZamjxqmW-HXu707LMGu-lOY8F36Zi2NVXDwr8LkfKyw28NmdgSCljbRx19ltGDKRK5_pBlZWwCSSrLrwj7Wy9_g9BYZLZ1HJzuA64nDXyDWOL_gA1SNI2WLovELMLeQyJ-vvg",
"https://m.facebook.com/l.php?u=https%3A%2F%2Fthree.campuselite.site%2Fi-went-to-my-fathers-grave-and-found-a-tombstone-with-my-name-and-photo-nearby-the-shocking-truth-left-me-speechless-viral-in-zoom%2F%3Ffbclid%3DIwZXh0bgNhZW0CMTAAAR33dgTWUgvyX2cTveDYI0OEe-ufc8QBckJe1knfLmGLx5cDvKzHZligpf4_aem_ag3M1lzblhoL3ssPxBgd5g&h=AT1bcDK1JTVoGQYmEwzGmA3PtT1-yxP3aRznO8sm0_hsnqHzBKWXYgShGkYLW8BZnjeZ9vEukN75ruQJDDaIfd5R0pK5UpLRCLcghVspg4fQubYlANHhJTqUqgY9yx2hUgWj5NE81FkGSZA_syIl&__tn__=-UK-R&c[0]=AT1mpStFPVUpcawuS--oyfS8FOk6ZmvmZZAOoVBkiPCK74duUZamjxqmW-HXu707LMGu-lOY8F36Zi2NVXDwr8LkfKyw28NmdgSCljbRx19ltGDKRK5_pBlZWwCSSrLrwj7Wy9_g9BYZLZ1HJzuA64nDXyDWOL_gA1SNI2WLovELMLeQyJ-vvg",
"https://m.facebook.com/l.php?u=https%3A%2F%2Fthree.campuselite.site%2Fi-went-to-my-fathers-grave-and-found-a-tombstone-with-my-name-and-photo-nearby-the-shocking-truth-left-me-speechless-viral-in-zoom-2%2F%3Ffbclid%3DIwZXh0bgNhZW0CMTAAAR0GYNp4c8BYaIhch-SCR11ZJ8hataw3GHy_FYyNRyfJ-3q5yUh4c5DMuLc_aem_rrmx_ytJ2asJd_td9WLDLw&h=AT1y839UP4FSNOF6jugI0MsxnEP3crnLVk0mEl2fMFsKtbxUN7w15xEmzFd-TgMI8XR5FHXrbBz6UmAJKQocexhkkpcqyqEgAgeshw3GGahlc0p5F_uYippFjCocwZUFM6hh5-vys-QmEW4Iz1S4&__tn__=-UK-R&c[0]=AT1mpStFPVUpcawuS--oyfS8FOk6ZmvmZZAOoVBkiPCK74duUZamjxqmW-HXu707LMGu-lOY8F36Zi2NVXDwr8LkfKyw28NmdgSCljbRx19ltGDKRK5_pBlZWwCSSrLrwj7Wy9_g9BYZLZ1HJzuA64nDXyDWOL_gA1SNI2WLovELMLeQyJ-vvg",
"https://m.facebook.com/l.php?u=https%3A%2F%2Fthree.campuselite.site%2Fmy-dad-reclaimed-the-motorcycle-he-gave-me-once-i-repaired-it-so-i-got-even-viral-in-zoom%2F%3Ffbclid%3DIwZXh0bgNhZW0CMTAAAR2yyiVZap6beB0kkFDTA7RPP14fyyRvMfYgPj5j1wRhykQD0KIpqT8m2fQ_aem_pWFtuzvQRA8m1PnEbdrqiw&h=AT3_LcFc6S4In_EUy1QWg0qB1hMY4yxrdM7jMZ36yHKhfi01iTycHz0Ky5MZ00mv4K6GOIdvNxiaqzxc2Bux38DLmN5eqlybh6zPd0ISqTWa4FAC9PpXdrP0w_fNWUeQozu0gwkIR5ENv-uGNN3b&__tn__=-UK-R&c[0]=AT1mpStFPVUpcawuS--oyfS8FOk6ZmvmZZAOoVBkiPCK74duUZamjxqmW-HXu707LMGu-lOY8F36Zi2NVXDwr8LkfKyw28NmdgSCljbRx19ltGDKRK5_pBlZWwCSSrLrwj7Wy9_g9BYZLZ1HJzuA64nDXyDWOL_gA1SNI2WLovELMLeQyJ-vvg",
"https://m.facebook.com/l.php?u=https%3A%2F%2Fthree.campuselite.site%2Ffather-conducts-dna-analysis-on-son-due-to-lack-of-resemblance-wife-convenes-family-for-results-reveal-viral-in-zoom%2F%3Ffbclid%3DIwZXh0bgNhZW0CMTAAAR2yyiVZap6beB0kkFDTA7RPP14fyyRvMfYgPj5j1wRhykQD0KIpqT8m2fQ_aem_pWFtuzvQRA8m1PnEbdrqiw&h=AT3NInftL0lG5T9MjdFMkQld6FVizCS-UFWHyxe4t0z6tGVw5hEQXATg3fmo5K2A8-3MfkptS936gm8Wtj5dtnBipg5dXN4D4PACxefYHiNNz1clBUH44cIRK1QPm9lu_EWdkAPjoynE2a-0_wWD&__tn__=-UK-R&c[0]=AT1mpStFPVUpcawuS--oyfS8FOk6ZmvmZZAOoVBkiPCK74duUZamjxqmW-HXu707LMGu-lOY8F36Zi2NVXDwr8LkfKyw28NmdgSCljbRx19ltGDKRK5_pBlZWwCSSrLrwj7Wy9_g9BYZLZ1HJzuA64nDXyDWOL_gA1SNI2WLovELMLeQyJ-vvg",
"https://m.facebook.com/l.php?u=https%3A%2F%2Fthree.campuselite.site%2Fhave-a-closer-look-at-this-original-historic-photo-which-has-never-been-edited-viral-in-zoom-2%2F%3Ffbclid%3DIwZXh0bgNhZW0CMTAAAR0R3eaMVm9EjOrAFMe6wJQeOwecL3SICVhz317I5VHDQgg8OjLM2BEOEEc_aem_f3vPZlQHjyQ0cxbQMgHf-g&h=AT0HdYEs7wGkG5KM3APvblSGVUTor9_pnSvxXMf1udpVgw1_ZU0FH-a2gR6TKDAgu8fGPSK1bEO1hYFPBP5H0-G_rj0EsSPGZgvbM-oN34KEJYs3GPG6yFoWVpacSO8VvvH9LNtWK_7_TSh0JXLH&__tn__=-UK-R&c[0]=AT1mpStFPVUpcawuS--oyfS8FOk6ZmvmZZAOoVBkiPCK74duUZamjxqmW-HXu707LMGu-lOY8F36Zi2NVXDwr8LkfKyw28NmdgSCljbRx19ltGDKRK5_pBlZWwCSSrLrwj7Wy9_g9BYZLZ1HJzuA64nDXyDWOL_gA1SNI2WLovELMLeQyJ-vvg",
"https://m.facebook.com/l.php?u=https%3A%2F%2Fthree.campuselite.site%2Fman-came-to-our-hotel-with-a-new-mistress-each-week-when-he-showed-up-with-his-wife-we-gave-him-a-memorable-lesson-viral-in-zoom%2F%3Ffbclid%3DIwZXh0bgNhZW0CMTAAAR3C2ml-kDTnlo_hPSeOQ0KPwNV4knPn1OqV901K_1Ki88Oyj6CSXLmup1Y_aem_Q_Sx-WDv2n6RuSwgSEeQ4A&h=AT0WbItGLAz--XGSTHmI_6xO1ftO-_tOnoR8m4SmBgWTAxBP9cGV6hukwvEt1os_6lc12rAVhRkT1rZxLR0qoXMXrtAt1X7h5flZyS16DGgTN8h9eGVqWmIOkBtGCB3r8vbzP3YpxMqdCFLr0AL0&__tn__=-UK-R&c[0]=AT1mpStFPVUpcawuS--oyfS8FOk6ZmvmZZAOoVBkiPCK74duUZamjxqmW-HXu707LMGu-lOY8F36Zi2NVXDwr8LkfKyw28NmdgSCljbRx19ltGDKRK5_pBlZWwCSSrLrwj7Wy9_g9BYZLZ1HJzuA64nDXyDWOL_gA1SNI2WLovELMLeQyJ-vvg",
"https://m.facebook.com/l.php?u=https%3A%2F%2Fthree.campuselite.site%2Fmy-husband-mocked-my-weight-for-years-until-my-secret-skill-silenced-him-viral-in-zoom%2F%3Ffbclid%3DIwZXh0bgNhZW0CMTAAAR3oxjlxT0XFmxO3Hpc9loOCUFybLzADyc6DOD6b2chkwHgR_YbDyCZ4r7s_aem_q-_c8o-AeCiwXJ_L0Buj_w&h=AT1eb7AAYwpVmyAzFrJGOiiVchbSdiesc_XAEKpjXhVUMDQDn4FFb1gtp0IH_E0Y06TQc_lrOs5Ti-JQRvTbt3FzjtxyKuR48CtpfGeXjMIypB8pGWkaJXyrilc4Q1CuFlIx0xitlCxLDIu9csek&__tn__=-UK-R&c[0]=AT1mpStFPVUpcawuS--oyfS8FOk6ZmvmZZAOoVBkiPCK74duUZamjxqmW-HXu707LMGu-lOY8F36Zi2NVXDwr8LkfKyw28NmdgSCljbRx19ltGDKRK5_pBlZWwCSSrLrwj7Wy9_g9BYZLZ1HJzuA64nDXyDWOL_gA1SNI2WLovELMLeQyJ-vvg",
"https://m.facebook.com/l.php?u=https%3A%2F%2Fthree.campuselite.site%2Fmy-husband-left-me-and-our-baby-at-the-airport-and-took-a-solo-vacation-he-deeply-regrets-it-now-viral-in-zoom%2F%3Ffbclid%3DIwZXh0bgNhZW0CMTAAAR2yyiVZap6beB0kkFDTA7RPP14fyyRvMfYgPj5j1wRhykQD0KIpqT8m2fQ_aem_pWFtuzvQRA8m1PnEbdrqiw&h=AT0Ga_v8P1m-pkvRRzsd7Hki9BOUHIc4NacuizazrqcLL8zskUy9QA1oZHfyHPFqyonM-q3p7_Bi_qcSRXrhvgHu8fp37N7w5OdGnlWo5HpCz0fcLDAvefhcEGOHLvak6lUF16fuhKB4p8Z2TQGg&__tn__=-UK-R&c[0]=AT1mpStFPVUpcawuS--oyfS8FOk6ZmvmZZAOoVBkiPCK74duUZamjxqmW-HXu707LMGu-lOY8F36Zi2NVXDwr8LkfKyw28NmdgSCljbRx19ltGDKRK5_pBlZWwCSSrLrwj7Wy9_g9BYZLZ1HJzuA64nDXyDWOL_gA1SNI2WLovELMLeQyJ-vvg",
"https://m.facebook.com/l.php?u=https%3A%2F%2Fthree.campuselite.site%2Fmy-brother-in-law-attempted-to-steal-from-us-while-my-husband-was-on-army-duty-he-faced-immediate-karma-viral-in-zoom%2F%3Ffbclid%3DIwZXh0bgNhZW0CMTAAAR3ZbwIUI9pdWyPlVQyqgQurVrE57dQGaho8R7KzG_MuU4MbHzORTEri-Uw_aem_cjvhYQ9uaFHNZHquZtBoUQ&h=AT2FFqV8M_as4BFEGsDIq06mf40Xl4jGmJVv3MJk_nzCN9t0Pe2mbAsN-_4v-BIGEVTYXN4vs3Ts5Mu2KZnIOxjYlkaSxYws3fUeKSTufSTzJl2FhxTHeLlWuv8pV_jO3h50KGN9NaERpcjRm9Hg&__tn__=-UK-R&c[0]=AT1mpStFPVUpcawuS--oyfS8FOk6ZmvmZZAOoVBkiPCK74duUZamjxqmW-HXu707LMGu-lOY8F36Zi2NVXDwr8LkfKyw28NmdgSCljbRx19ltGDKRK5_pBlZWwCSSrLrwj7Wy9_g9BYZLZ1HJzuA64nDXyDWOL_gA1SNI2WLovELMLeQyJ-vvg",
"https://m.facebook.com/l.php?u=https%3A%2F%2Fthree.campuselite.site%2Fmy-grandma-was-unaware-her-boyfriend-was-after-her-money-so-i-revealed-his-true-intentions-in-the-most-effective-way-viral-in-zoom%2F%3Ffbclid%3DIwZXh0bgNhZW0CMTAAAR3ZbwIUI9pdWyPlVQyqgQurVrE57dQGaho8R7KzG_MuU4MbHzORTEri-Uw_aem_cjvhYQ9uaFHNZHquZtBoUQ&h=AT2U0B5WknAmTERqLHzJCfPZaqbWH00FCZpTlrrsjcR8BeISC68AbIycqotn7tnFwE-5OU4OQ_Y4KbZHgZT532WAuR6phMFWFktMircj153sTYso10eRXbNH34-lEgAUWhPCgSeb58awxlejQTNw&__tn__=-UK-R&c[0]=AT1mpStFPVUpcawuS--oyfS8FOk6ZmvmZZAOoVBkiPCK74duUZamjxqmW-HXu707LMGu-lOY8F36Zi2NVXDwr8LkfKyw28NmdgSCljbRx19ltGDKRK5_pBlZWwCSSrLrwj7Wy9_g9BYZLZ1HJzuA64nDXyDWOL_gA1SNI2WLovELMLeQyJ-vvg",
"https://m.facebook.com/l.php?u=https%3A%2F%2Fthree.campuselite.site%2Fat-74-jay-leno-planning-for-death-leaves-chunk-of-cash-to-cars-no-one-lives-forever-viral-in-zoom%2F%3Ffbclid%3DIwZXh0bgNhZW0CMTAAAR0GYNp4c8BYaIhch-SCR11ZJ8hataw3GHy_FYyNRyfJ-3q5yUh4c5DMuLc_aem_rrmx_ytJ2asJd_td9WLDLw&h=AT3jg1jc2pEhXfNBRhZBJO2dyHswHkK9EQu5BmM-PpDyBIRlUHgYokUE2fLWRY_sFFW2mcBDHHP917R_DfrHqXw066fUq9anII7a_U-QlH2Zpx-o361R7ynJYJqcU9vfR4vcTW8n8BIcKDHcMoyG&__tn__=-UK-R&c[0]=AT1mpStFPVUpcawuS--oyfS8FOk6ZmvmZZAOoVBkiPCK74duUZamjxqmW-HXu707LMGu-lOY8F36Zi2NVXDwr8LkfKyw28NmdgSCljbRx19ltGDKRK5_pBlZWwCSSrLrwj7Wy9_g9BYZLZ1HJzuA64nDXyDWOL_gA1SNI2WLovELMLeQyJ-vvg",
"https://m.facebook.com/l.php?u=https%3A%2F%2Fthree.campuselite.site%2Fthe-parents-who-abandoned-me-at-a-fire-station-as-an-infant-were-actually-well-known-actors-viral-in-zoom-2%2F%3Ffbclid%3DIwZXh0bgNhZW0CMTAAAR3oxjlxT0XFmxO3Hpc9loOCUFybLzADyc6DOD6b2chkwHgR_YbDyCZ4r7s_aem_q-_c8o-AeCiwXJ_L0Buj_w&h=AT1Qf2wSxD7jDRBg5ki-FXMnLoVH3BTJQPJVMAco_7BXk-R32jB79R4uyNaThp8Z79siize5iF5K56E9p-fE8J8Ke49zsnNO7My_qSpVolHDOxzFS2mNlnitce3a92VGUC6ppFbEH8cbNmz-Jyml&__tn__=-UK-R&c[0]=AT1mpStFPVUpcawuS--oyfS8FOk6ZmvmZZAOoVBkiPCK74duUZamjxqmW-HXu707LMGu-lOY8F36Zi2NVXDwr8LkfKyw28NmdgSCljbRx19ltGDKRK5_pBlZWwCSSrLrwj7Wy9_g9BYZLZ1HJzuA64nDXyDWOL_gA1SNI2WLovELMLeQyJ-vvg",
"https://m.facebook.com/l.php?u=https%3A%2F%2Fthree.campuselite.site%2Fmy-husbands-friend-showed-up-with-a-dna-test-at-our-gender-reveal-party-soon-after-she-deeply-regretted-it-viral-in-zoom-2%2F%3Ffbclid%3DIwZXh0bgNhZW0CMTAAAR3C2ml-kDTnlo_hPSeOQ0KPwNV4knPn1OqV901K_1Ki88Oyj6CSXLmup1Y_aem_Q_Sx-WDv2n6RuSwgSEeQ4A&h=AT0LN7OYUP19iANg2QENBlpPrF404o6OrspoLEDTjJ5XcJWhUr5BkVsaYUpleSqARjbO7_toQEip7UF5I1cUtCYhLHwOZkPzfAMAD0TjkKHiQha5YJcsb2dLa_d0oa3ok9btloEPniPWwwjNapqe&__tn__=-UK-R&c[0]=AT1mpStFPVUpcawuS--oyfS8FOk6ZmvmZZAOoVBkiPCK74duUZamjxqmW-HXu707LMGu-lOY8F36Zi2NVXDwr8LkfKyw28NmdgSCljbRx19ltGDKRK5_pBlZWwCSSrLrwj7Wy9_g9BYZLZ1HJzuA64nDXyDWOL_gA1SNI2WLovELMLeQyJ-vvg",
"https://m.facebook.com/l.php?u=https%3A%2F%2Finsureedu.site%2Fi-brought-my-husband-a-surprise-dinner-at-work-and-found-out-he-had-been-dismissed-three-months-earlier-viral-in-zoom%2F%3Ffbclid%3DIwZXh0bgNhZW0CMTAAAR3p4vl5NG1yY0Opz9EAlLyplIpsf2JHFnpGiBI7-KYs7cO-VcTN0qmUgLk_aem_aCoWBViBhCIvwN9Mehyyfg&h=AT3A0b4vycnKkt27bqcgXmv3Lm3QHIBA6PfaV0kueQqwjbKrZvwg82D-SIqrYUmE5VBz0ubBiSYcU0VfzmThBfqQWuEFKe5gYA5ZyULok-Am1D0uAGYbUtr_OUDvIaMLlpNRoVBdJuvV3xRpFzm0&__tn__=-UK-R&c[0]=AT2YgJfzYL8Jak54qUDRVEYfHAx4IYQbpow6aJG7lXR8Qo9yAh1YCgKpjRxmBOGNqGswobJISrHi3Tt4MXjSIUBQXMNNBO69v2TzI44Ieu17wrGBtoRjclqYz2RGxKjAQEA-1OwGc6CGnW9ZpuPj0EiwJODgqwSrtk-kHH7EzQQ-RW7pV5448g",
"https://m.facebook.com/l.php?u=https%3A%2F%2Finsureedu.site%2Fteen-boy-puts-his-newborn-son-up-for-adoption-years-later-he-accidentally-meets-him-viral-in-zoom%2F%3Ffbclid%3DIwZXh0bgNhZW0CMTAAAR0R3eaMVm9EjOrAFMe6wJQeOwecL3SICVhz317I5VHDQgg8OjLM2BEOEEc_aem_f3vPZlQHjyQ0cxbQMgHf-g&h=AT0gv13jrMA6lE7FicxptYQ9P6A11mxABm4qUEfLU9S4nep72g1Wak_qWJwswS9TFdF5Ac0h7DbnYRbznp7_SRHKVATHQWm2knw31sM2Hw2azBuivVxwM0eF7CDV97EEUo4d-Qcg3vTqa8J3RKR8&__tn__=-UK-R&c[0]=AT2YgJfzYL8Jak54qUDRVEYfHAx4IYQbpow6aJG7lXR8Qo9yAh1YCgKpjRxmBOGNqGswobJISrHi3Tt4MXjSIUBQXMNNBO69v2TzI44Ieu17wrGBtoRjclqYz2RGxKjAQEA-1OwGc6CGnW9ZpuPj0EiwJODgqwSrtk-kHH7EzQQ-RW7pV5448g",
"https://m.facebook.com/l.php?u=https%3A%2F%2Finsureedu.site%2Fwhere-are-britains-youngest-parents-now-viral-in-zoom%2F%3Ffbclid%3DIwZXh0bgNhZW0CMTAAAR3oxjlxT0XFmxO3Hpc9loOCUFybLzADyc6DOD6b2chkwHgR_YbDyCZ4r7s_aem_q-_c8o-AeCiwXJ_L0Buj_w&h=AT3sMYWQx9zihM3pOmtCINsYfIujMpdc_4kh3cZyPl2YOnZ-xSKTK_LzELCvt4iqDFYeHmLlm_tSZCMyu1AVA2oc28y1cwnmsTxxJG7bK1tyvjnxFreCT6yqGHfI4iUeiFptaoY0DzIr3ySeOn3w&__tn__=-UK-R&c[0]=AT2YgJfzYL8Jak54qUDRVEYfHAx4IYQbpow6aJG7lXR8Qo9yAh1YCgKpjRxmBOGNqGswobJISrHi3Tt4MXjSIUBQXMNNBO69v2TzI44Ieu17wrGBtoRjclqYz2RGxKjAQEA-1OwGc6CGnW9ZpuPj0EiwJODgqwSrtk-kHH7EzQQ-RW7pV5448g",
"https://m.facebook.com/l.php?u=https%3A%2F%2Finsureedu.site%2Fdemanding-parents-expect-nanny-to-pay-1000-for-vacation-flights-their-harsh-reality-check-viral-in-zoom-4%2F%3Ffbclid%3DIwZXh0bgNhZW0CMTAAAR0R3eaMVm9EjOrAFMe6wJQeOwecL3SICVhz317I5VHDQgg8OjLM2BEOEEc_aem_f3vPZlQHjyQ0cxbQMgHf-g&h=AT2eWXrEgP9LcvPTAf8sliJJqHM0fUpmDrPLMD4ok0t0qD5KlHzdUY4ZspmQbAXxP5XsMXwoCNFenR4IspJlO_2OMzhcFtFy-KY6fECNbHRbj7aHqFmc3ObWEyLLG7oV3ARv-eafF4jqd-sFnOYU&__tn__=-UK-R&c[0]=AT2YgJfzYL8Jak54qUDRVEYfHAx4IYQbpow6aJG7lXR8Qo9yAh1YCgKpjRxmBOGNqGswobJISrHi3Tt4MXjSIUBQXMNNBO69v2TzI44Ieu17wrGBtoRjclqYz2RGxKjAQEA-1OwGc6CGnW9ZpuPj0EiwJODgqwSrtk-kHH7EzQQ-RW7pV5448g",
"https://m.facebook.com/l.php?u=https%3A%2F%2Finsureedu.site%2Fa-nine-word-text-on-my-granddaughters-phone-completely-changed-my-will-viral-in-zoom%2F%3Ffbclid%3DIwZXh0bgNhZW0CMTAAAR2yyiVZap6beB0kkFDTA7RPP14fyyRvMfYgPj5j1wRhykQD0KIpqT8m2fQ_aem_pWFtuzvQRA8m1PnEbdrqiw&h=AT3j3Nm__bf41pYqL-8DrIQdqE7YSwKLgKpmO4rHZAa69MSycCIY_IRsFKwaPapGcd67Edvd1_2W5vJeuTe_427Ss64E7FYKwQXcN2qvbwff4SMs8zeELHiNyKpS2_ptjb82td2PvnRwFbl8P42Q&__tn__=-UK-R&c[0]=AT2YgJfzYL8Jak54qUDRVEYfHAx4IYQbpow6aJG7lXR8Qo9yAh1YCgKpjRxmBOGNqGswobJISrHi3Tt4MXjSIUBQXMNNBO69v2TzI44Ieu17wrGBtoRjclqYz2RGxKjAQEA-1OwGc6CGnW9ZpuPj0EiwJODgqwSrtk-kHH7EzQQ-RW7pV5448g",
"https://m.facebook.com/l.php?u=https%3A%2F%2Finsureedu.site%2Fmy-landlord-secretly-held-a-key-and-entered-my-apartment-during-work-hours-karma-caught-up-with-him-viral-in-zoom%2F%3Ffbclid%3DIwZXh0bgNhZW0CMTAAAR33dgTWUgvyX2cTveDYI0OEe-ufc8QBckJe1knfLmGLx5cDvKzHZligpf4_aem_ag3M1lzblhoL3ssPxBgd5g&h=AT3ydnSJbgiheKfoC2PWA2tefjsMYIg6cF5T-ZkIgHNxhgIwgyYv71GegTzLzqfgLhYFlPpykijUpIUFTP0bbJnelj1sFuDSuUjXtl_2eXnFQ8qBdxsFP8_yTB48ln_SRYe5Q0JZm6vwArdoqtwX&__tn__=-UK-R&c[0]=AT2YgJfzYL8Jak54qUDRVEYfHAx4IYQbpow6aJG7lXR8Qo9yAh1YCgKpjRxmBOGNqGswobJISrHi3Tt4MXjSIUBQXMNNBO69v2TzI44Ieu17wrGBtoRjclqYz2RGxKjAQEA-1OwGc6CGnW9ZpuPj0EiwJODgqwSrtk-kHH7EzQQ-RW7pV5448g",
"https://m.facebook.com/l.php?u=https%3A%2F%2Finsureedu.site%2Fmy-husband-brought-me-to-an-upscale-restaurant-for-our-anniversary-but-restricted-me-to-ordering-just-a-basic-salad-viral-in-zoom%2F%3Ffbclid%3DIwZXh0bgNhZW0CMTAAAR2yyiVZap6beB0kkFDTA7RPP14fyyRvMfYgPj5j1wRhykQD0KIpqT8m2fQ_aem_pWFtuzvQRA8m1PnEbdrqiw&h=AT3iaZn45kreNjqRMB6lSu3B4DlgjcuZytgZN9DOgtZT07LMApg0koGVja27hUPVHsOqw3UfotigdWp9UFyL1OPAlnvK9tNfFxqjUynb1YQP30IqA8jd3mxnbd48ZWjPqUrZhr6-dECRovS2ODP8&__tn__=-UK-R&c[0]=AT2YgJfzYL8Jak54qUDRVEYfHAx4IYQbpow6aJG7lXR8Qo9yAh1YCgKpjRxmBOGNqGswobJISrHi3Tt4MXjSIUBQXMNNBO69v2TzI44Ieu17wrGBtoRjclqYz2RGxKjAQEA-1OwGc6CGnW9ZpuPj0EiwJODgqwSrtk-kHH7EzQQ-RW7pV5448g",
"https://m.facebook.com/l.php?u=https%3A%2F%2Finsureedu.site%2Fi-believed-my-sister-was-in-distress-until-i-found-out-she-was-the-culprit-viral-in-zoom%2F%3Ffbclid%3DIwZXh0bgNhZW0CMTAAAR2p16H_ug9zo3WU5YNyplySioxcwwfKOH9As_wYGvtANzw273Yr1_G82D4_aem_gwyJqSLxRZYqa1uTKKa0iQ&h=AT3NvthSCCQ8_HIQBy3e_LebxIfcnzN0G9expf7JTMCKzt_nVAPm4lQgQb7vBcEDZ2WiSuAn0dE7z4NtgueVymwrJXCGpd00_-DufI1hPPyWdvc6rWP4x8bnFEMYyK4aOGHGPHlcRLsFgb2-ibOs&__tn__=-UK-R&c[0]=AT2YgJfzYL8Jak54qUDRVEYfHAx4IYQbpow6aJG7lXR8Qo9yAh1YCgKpjRxmBOGNqGswobJISrHi3Tt4MXjSIUBQXMNNBO69v2TzI44Ieu17wrGBtoRjclqYz2RGxKjAQEA-1OwGc6CGnW9ZpuPj0EiwJODgqwSrtk-kHH7EzQQ-RW7pV5448g",
"https://m.facebook.com/l.php?u=https%3A%2F%2Finsureedu.site%2Fmy-mother-in-law-deliberately-sent-me-wilted-flowers-for-my-birthday-along-with-a-rude-note-viral-in-zoom%2F%3Ffbclid%3DIwZXh0bgNhZW0CMTAAAR3C2ml-kDTnlo_hPSeOQ0KPwNV4knPn1OqV901K_1Ki88Oyj6CSXLmup1Y_aem_Q_Sx-WDv2n6RuSwgSEeQ4A&h=AT2pj1UynUz1zOIg4JVLtk4ApVdvR4EOWUxf5LU9Zer7vfJZJ4vgMvOXZrDP8DvgCsLQQl-dq1xVTKfjTCrm78L28CgYUyaUbePA0kV0FCi_vcnInUfeD2EKZVWw0D80hYTjlSOmDUAGGuyqEpyx&__tn__=-UK-R&c[0]=AT2YgJfzYL8Jak54qUDRVEYfHAx4IYQbpow6aJG7lXR8Qo9yAh1YCgKpjRxmBOGNqGswobJISrHi3Tt4MXjSIUBQXMNNBO69v2TzI44Ieu17wrGBtoRjclqYz2RGxKjAQEA-1OwGc6CGnW9ZpuPj0EiwJODgqwSrtk-kHH7EzQQ-RW7pV5448g",
"https://m.facebook.com/l.php?u=https%3A%2F%2Finsureedu.site%2Fdemanding-parents-expect-nanny-to-pay-1000-for-vacation-flights-their-harsh-reality-check-viral-in-zoom%2F%3Ffbclid%3DIwZXh0bgNhZW0CMTAAAR3p4vl5NG1yY0Opz9EAlLyplIpsf2JHFnpGiBI7-KYs7cO-VcTN0qmUgLk_aem_aCoWBViBhCIvwN9Mehyyfg&h=AT0L34dgVknTCi9d_Gvp5Nru8aRWjyhTXxZ2R1fWeHZmq9KFL0GvccNvvlU6Z4OUvDI0h97uezDQwxD2lae-c4p3DpJ2PSRJF-rv7WE9Kt6pKQdOwctwr82zrwj6V0NrVb135wGQ0USYM5JpHqG1&__tn__=-UK-R&c[0]=AT2YgJfzYL8Jak54qUDRVEYfHAx4IYQbpow6aJG7lXR8Qo9yAh1YCgKpjRxmBOGNqGswobJISrHi3Tt4MXjSIUBQXMNNBO69v2TzI44Ieu17wrGBtoRjclqYz2RGxKjAQEA-1OwGc6CGnW9ZpuPj0EiwJODgqwSrtk-kHH7EzQQ-RW7pV5448g"
    ]
}
