{
  "browser": "Bit Browser",
  "pc_name": 1,
  "total_concurrency": 7,
  "total_sessions": 50000,
  "delay_check_for_close": 5,
  "launch_delay": 5,
  "proxy_configuration": {
    "bit_coding_proxy": {
      "providers": [
            "vn5socks"
        ],
      "total_proxy_count": 1,
      "api_url": "http://31.220.92.158"
    },
    "all_socks5_proxy": {
      "credentials": [

      ],
      "params": {
        "sock_count": "",
        "sock_country": "US",
        "sock_state": "",
        "sock_city": "",
        "sock_zipcode": "",
        "sock_back_list": "0",
        "txtNumber": "4",
        "sock_symbol": "",
        "sock_hostname": "",
        "level": "",
        "type_ip": "",
        "is_live": "true"
      }
    },
    "luna_proxy": [
      {
        "host": "na.l4mxbslj.lunaproxy.net",
        "port": "12233",
        "proxyUserName": "user-chirag-region-us-sessid-us{PROXY_NAME}-sesstime-90",
        "proxyPassword": "Ruxmi@123"
      },
       {
        "host": "na.l4mxbslj.lunaproxy.net",
        "port": "12233",
        "proxyUserName": "user-chirag-region-us-sessid-us{PROXY_NAME}-sesstime-90",
        "proxyPassword": "Ruxmi@123"
      }
    ]
  },
  "browser_configuration": {
    "browser_params": {
      "name": "test",
      "remark": "",
      "proxyMethod": 2,
      "proxyType": "socks5",
      "host": "",
      "port": "",
      "proxyUserName": "",
      "proxyPassword": "",
      "cookie": [],
      "randomFingerprint": true,
      "syncAuthorization": true,
      "abortImage": true,
      "abortImageMaxSize": 50,
      "browserFingerPrint": {}
    },
    "os_params": {
    "android": {
      "coreVersion": "124|122",
      "ostype": "Android",
      "os": "Linux armv7l",
      "osVersion": "13|12|11|10|9",
      "webRTC": "0",
      "position": "1",
      "resolutionType": "2",
      "doNotTrack": "0",
      "hardwareConcurrency": "2|4|6|8|12|16|20|24",
      "deviceMemory": "2|4"
    },
    "ios": {
      "coreVersion": "124|122",
      "ostype": "IOS",
      "os": "iPhone",
      "osVersion": "17.0|16.6|16.5|16.4|16.3|16.2|16.1|16.0|15.7|15.6|15.5",
      "webRTC": "0",
      "position": "1",
      "resolutionType": "2",
      "doNotTrack": "0",
      "hardwareConcurrency": "2|4|6|8|12|16|20|24",
      "deviceMemory": "2|4"
    },
    "desktop": {
      "coreVersion": "124|122",
      "ostype": "PC",
      "os": "Win32 | Linux i686 | Linux armv7l | MacIntel",
      "osVersion": "11|10|8|7",
      "webRTC": "0",
      "position": "1",
      "resolutionType": "2",
      "doNotTrack": "0",
      "hardwareConcurrency": "2|4|6|8|12|16|20|24",
      "deviceMemory": "2|4"
    }
  }
  },
 "recipes": [
    {
      "proxy_settings": {
        "proxy_name": "bit_coding_proxy"
      },
      "browser_settings": {
        "android":{
          "ratio": 5,
          "cookie": []
        },
        "ios":{
          "ratio": 6,
          "cookie": []
        },
        "desktop":{
          "ratio": 1,
          "cookie": []
        }
      },
      "bot_config": {
        "bot_type": "without_automa_with_clicker",
        "work_urls_link": "https://gitlab.com/theantiqa/bit_config/-/raw/main/links/links_celebritygossiptalk.json",
        "facebook_redirect_config": {
           "mobile":{
            "im_facebook_ratio": 1,
            "m_facebook_ratio": 1
          },
          "desktop": {
            "i_facebook_ratio": 1,
            "facebook_ratio": 0
          }
        },
        "owner_site_automation_configuration": {
          "scrolling_up_down_range": "-10:420",
          "scrolling_up_down_delay_range": "0.5:0.7",
          "scrolling_time_duration_range": "18:25"
        },

        "ads_clicker_config": {
          "type": "adskeeper_mgid",
          "search_ads_ratio": 1,
          "non_search_ads_ratio": 1
        },
        "client_site_automation_configuration": {
          "ignore_redirect_url_keywords": [
            "javascript",
            "about",
            "privacy",
            "contact"
          ],
          "scrolling_up_down_range": "-50:200",
          "scrolling_up_down_delay_range": "0.5:1",
          "scrolling_time_duration_range": "20:25",
          "after_click_wait_duration_range": "10:20"
        },
        "automation_timeout": 600,
        "page_load_timeout": 50
      },
      "repeat": 1,
      "timeout": 1000
    },
    {
      "proxy_settings": {
        "proxy_name": "bit_coding_proxy"
      },
      "browser_settings": {
        "android":{
          "ratio": 1,
          "cookie": []
        },
        "ios":{
          "ratio": 1,
          "cookie": []
        },
        "desktop":{
          "ratio": 1,
          "cookie": []
        }
      },
      "bot_config": {
        "bot_type": "without_automa_with_clicker",
        "work_urls_link": "https://gitlab.com/theantiqa/bit_config/-/raw/main/links/links_factfunda.json",
        "owner_site_automation_configuration": {
          "scrolling_up_down_range": "-50:200",
          "scrolling_up_down_delay_range": "1:2",
          "scrolling_time_duration_range": "30:40"
        },
        "page_load_timeout": 50
      },
      "repeat": 1,
      "timeout": 1000
    },
    {
      "proxy_settings": {
        "proxy_name": "bit_coding_proxy"
      },
      "browser_settings": {
        "android":{
          "ratio": 1,
          "cookie": []
        },
        "ios":{
          "ratio": 1,
          "cookie": []
        },
        "desktop":{
          "ratio": 1,
          "cookie": []
        }
      },
      "bot_config": {
        "bot_type": "without_automa_with_clicker",
        "work_urls_link": "https://gitlab.com/theantiqa/bit_config/-/raw/main/links/first24news_links05-07-2024.json",
        "ads_clicker_config": {
          "type": "adskeeper_mgid",
          "search_ads_ratio": 1,
          "non_search_ads_ratio": 1
        },
        "facebook_redirect_config": {
           "mobile":{
            "im_facebook_ratio": 1,
            "m_facebook_ratio": 1
          },
          "desktop": {
            "i_facebook_ratio": 1,
            "facebook_ratio": 0
          }
        },
        "owner_site_automation_configuration": {
          "scrolling_up_down_range": "-50:400",
          "scrolling_up_down_delay_range": "1:5",
          "scrolling_time_duration_range": "20:30"
        },
        "client_site_automation_configuration": {
          "ignore_redirect_url_keywords": [
            "javascript",
            "about",
            "privacy",
            "contact",
            "support"
          ],
          "scrolling_up_down_range": "-50:200",
          "scrolling_up_down_delay_range": "1:5",
          "scrolling_time_duration_range": "30:40",
          "after_click_wait_duration_range": "5:10"
        },
        "page_load_timeout": 50
      },
      "repeat": 1,
      "timeout": 1000
    },
    {
      "proxy_settings": {
        "proxy_name": "bit_coding_proxy"
      },
      "browser_settings": {
        "android":{
          "ratio": 1,
          "cookie": []
        },
        "ios":{
          "ratio": 1,
          "cookie": []
        },
        "desktop":{
          "ratio": 1,
          "cookie": []
        }
      },
      "bot_config": {
        "bot_type": "without_automa_with_clicker",
        "work_urls_link": "https://gitlab.com/theantiqa/bit_config/-/raw/main/links/first247_links_23_07.json",
        "owner_site_automation_configuration": {
          "scrolling_up_down_range": "-50:200",
          "scrolling_up_down_delay_range": "1:2",
          "scrolling_time_duration_range": "30:40"
        },
        "page_load_timeout": 50
      },
      "repeat": 1,
      "timeout": 1000
    },
    {
      "proxy_settings": {
        "proxy_name": "bit_coding_proxy"
      },
      "browser_settings": {
        "android":{
          "ratio": 1,
          "cookie": []
        },
        "ios":{
          "ratio": 1,
          "cookie": []
        },
        "desktop":{
          "ratio": 1,
          "cookie": []
        }
      },
      "bot_config": {
        "bot_type": "without_automa_with_clicker",
        "work_urls_link": "https://gitlab.com/theantiqa/bit_config/-/raw/main/links/newsinfo_links_23_07.json",
        "owner_site_automation_configuration": {
          "scrolling_up_down_range": "-50:200",
          "scrolling_up_down_delay_range": "1:2",
          "scrolling_time_duration_range": "30:40"
        },
        "page_load_timeout": 50
      },
      "repeat": 1,
      "timeout": 1000
    }

  ]

}