{
  "browser": "Bit Browser",
  "pc_name": 1,
  "total_concurrency": 2,
  "total_sessions": 2500,
  "delay_check_for_close": 60,
  "launch_delay": 5,
  "proxy_configuration":  
  {
      "bit_coding_proxy": {
      "providers": [ ],
      "total_proxy_count": 1,
      "api_url": "https://filmymatters.com/v1"
    },
    "all_socks5_proxy": {
      "credentials": [
        {
          "proxy_name": "shopsocks5",
          "username": "vaibhavbalar",
          "password": "Bholo@yindia1"
        },
        {
          "proxy_name": "shopsocks5",
          "username": "vaibhavbalar1",
          "password": "Bholo@yindia1"
        },
        {
          "proxy_name": "vn5socks",
          "username": "vaibhavbalar4",
          "password": "Bholo@yindia1"
        },
        {
          "proxy_name": "vn5socks",
          "username": "vaibhavbalar1",
          "password": "Bholo@yindia1"
        },
        {
          "proxy_name": "vn5socks",
          "username": "vaibhavbalar",
          "password": "Bholo@yindia1"
        },
        {
          "proxy_name": "vn5socks",
          "username": "vaibhavbalar2",
          "password": "Bholo@yindia1"
        },
        {
          "proxy_name": "vn5socks",
          "username": "vaibhavbalar3",
          "password": "Bholo@yindia1"
        },
        {
          "proxy_name": "vn5socks",
          "username": "chirag",
          "password": "Bholo@yindia1"
        }
      ],
      "params": {
        "sock_count": "",
        "sock_country": "US",
        "sock_state": "",
        "sock_city": "",
        "sock_zipcode": "",
        "sock_back_list": "",
        "txtNumber": "7",
        "sock_symbol": "",
        "sock_hostname": "",
        "level": "",
        "type_ip": "",
        "is_live": "true"
      }
    },
    "luna_proxy": [
      {
        "host": "na.l4mxbslj.lunaproxy.net",
        "port": "12233",
        "proxyUserName": "user-chirag-region-us-sessid-us{PROXY_NAME}-sesstime-90",
        "proxyPassword": "Ruxmi@123"
      },
      {
        "host": "na.l4mxbslj.lunaproxy.net",
        "port": "12233",
        "proxyUserName": "user-chirag-region-us-sessid-us{PROXY_NAME}-sesstime-90",
        "proxyPassword": "Ruxmi@123"
      }
    ],
    "get_assigned_proxy_urls": [
      "https://api64.ipify.org/?format=json",
      "https://ipv4.icanhazip.com/",
      "https://ipinfo.io/ip",
      "https://api.ipify.org/",
      "https://v4.ident.me",
      "https://myip.dnsomatic.com/",
      "https://ipv4.wtfismyip.com/text",
      "https://api.ipify.org/?format=text",
      "http://checkip.amazonaws.com/",
      "https://whatismyip.akamai.com/",
      "https://api-ipv4.ip.sb/ip"
    ],
    "proxy_checker_url": "https://m.facebook.com/l.php?u=https%3A%2F%2Fcelebritygossiptalk.com%2Fmy-husband-falsely-claimed-his-employer-denied-him-paternity-leave-i-was-shocked-when-i-learned-the-reality%2F%3Ffbclid%3DIwZXh0bgNhZW0CMTAAAR1b-HSaJzYApx536eQHW026Wc1-VNu2hwTxADH5F2sWjfW02lTW-mhRKws_aem_W0UHvDlgTSQuOMV1dfso6w&h=AT1nWX44XD3DkXzwugcWC5SkIfxQvsuBbiAzhckYCb4LvV74XQONuOvihEaZcYz3lRX1RP52b2_Sqpj1aD8GYFndUe2ag_DUHOII6WDVy-4C35PFuXjd5bqIds9AjhWJiBdaFXGN2Z6vg-TlZO6l&__tn__=-UK-R&c[0]=AT3A3pTwmnF8y27ygg8HMXsWzL6Dh9QrMhuVxCfNhMuw1jLw0wtmfQBI-wb9-goyvQdbwSOYTa1A-_8DLuluHKoorCw-j_En3AaHopnuftTu-ie0cZ-IwZw1VJtRzRRrF-LRLBDjHZB6IVaJaQQ5NOGhb9n3WBJIm4dGyPXsIsbip_ndXdLNOc7Rumf59Y8Kg3Ykdl6Dawxpd09LRcQU9NQnbVhfIZfM5X9i"
  },
  "browser_configuration": {
    "browser_params": {
      "name": "test",
      "remark": "",
      "proxyMethod": 2,
      "proxyType": "socks5",
      "host": "",
      "port": "",
      "proxyUserName": "",
      "proxyPassword": "",
      "cookie": [],
      "randomFingerprint": true,
      "syncAuthorization": true,
      "abortImage": true,
      "abortImageMaxSize": 50,
      "browserFingerPrint": {}
    },
    "os_params": {
      "android": {
        "coreVersion": "124|122",
        "ostype": "Android",
        "os": "Linux armv7l",
        "osVersion": "13|12|11|10|9",
        "webRTC": "0",
        "position": "1",
        "resolutionType": "2",
        "doNotTrack": "0",
        "hardwareConcurrency": "2|4|6|8|12|16|20|24",
        "deviceMemory": "2|4"
      },
      "ios": {
        "coreVersion": "124|122",
        "ostype": "IOS",
        "os": "iPhone",
        "osVersion": "17.0|16.6|16.5|16.4|16.3|16.2|16.1|16.0|15.7|15.6|15.5",
        "webRTC": "0",
        "position": "1",
        "resolutionType": "2",
        "doNotTrack": "0",
        "hardwareConcurrency": "2|4|6|8|12|16|20|24",
        "deviceMemory": "2|4"
      },
      "desktop": {
        "coreVersion": "124|122",
        "ostype": "PC",
        "os": "Win32 | Linux i686 | Linux armv7l | MacIntel",
        "osVersion": "11|10|8|7",
        "webRTC": "0",
        "position": "1",
        "resolutionType": "2",
        "doNotTrack": "0",
        "hardwareConcurrency": "2|4|6|8|12|16|20|24",
        "deviceMemory": "2|4"
      }
    }
  },
  "auto_delete_browser_configuration1": {
    "time_zone": "Asia/Shanghai",
    "browser_expiry_minutes": 30,
    "cron_interval_seconds": 1800
  },
  "recipes": [
    {
      "proxy_settings": {
        "proxy_name": "bit_coding_proxy"
      },
      "browser_settings": {
        "android": {
          "ratio": 4,
          "cookie": []
        },
        "ios": {
          "ratio": 6,
          "cookie": []
        },
        "desktop": {
          "ratio": 1,
          "cookie": []
        }
      },
      "bot_config": {
        "bot_type": "clicker",
        "work_urls_link": "https://gitlab.com/theantiqa/bit_config/-/raw/main/links/16_domains16_09_2024.json",
        "facebook_redirect_config": {
          "mobile": {
            "im_facebook_ratio": 1,
            "m_facebook_ratio": 3
          },
          "desktop": {
            "i_facebook_ratio": 1,
            "facebook_ratio": 0
          }
        },
        "owner_site_automation_configuration": {
          "scrolling_up_down_range": "-10:420",
          "scrolling_up_down_delay_range": "0.5:0.7",
          "scrolling_time_duration_range": "20:30"
        },
        "ads_clicker_config": {
          "type": "adskeeper_mgid",
          "search_ads_ratio": 2,
          "non_search_ads_ratio": 1
        },
        "client_site_automation_configuration": {
          "ignore_redirect_url_keywords": [
            "javascript",
            "about",
            "privacy",
            "support",
            "contact",
            "mail",
            "terms"
          ],
          "scrolling_up_down_range": "-50:300",
          "scrolling_up_down_delay_range": "0.5:1",
          "scrolling_time_duration_range": "20:35",
          "after_click_wait_duration_range": "5:15"
        },
        "automation_timeout": 600,
        "page_load_timeout": 50
      },
      "repeat": 1,
      "timeout": 1000
    },
    {
      "proxy_settings": {
        "proxy_name": "bit_coding_proxy"
      },
      "browser_settings": {
        "android": {
          "ratio": 3,
          "cookie": []
        },
        "ios": {
          "ratio": 7,
          "cookie": []
        },
        "desktop": {
          "ratio": 1,
          "cookie": []
        }
      },
      "bot_config": {
        "bot_type": "clicker",
        "work_urls_link": "https://gitlab.com/theantiqa/bit_config/-/raw/main/links/16_domains16_09_2024.json",
        "facebook_redirect_config": {
          "mobile": {
            "im_facebook_ratio": 1,
            "m_facebook_ratio": 3
          },
          "desktop": {
            "i_facebook_ratio": 1,
            "facebook_ratio": 0
          }
        },
        "owner_site_automation_configuration": {
          "scrolling_up_down_range": "-10:420",
          "scrolling_up_down_delay_range": "0.5:0.7",
          "scrolling_time_duration_range": "20:30"
        },
        "ads_clicker_config": {
          "type": "adskeeper_mgid",
          "search_ads_ratio": 1,
          "non_search_ads_ratio": 1
        },
        "client_site_automation_configuration": {
          "ignore_redirect_url_keywords": [
            "javascript",
            "about",
            "privacy",
            "support",
            "contact",
            "mail",
            "terms"
          ],
          "scrolling_up_down_range": "-50:300",
          "scrolling_up_down_delay_range": "0.5:1",
          "scrolling_time_duration_range": "20:30",
          "after_click_wait_duration_range": "5:15"
        },
        "automation_timeout": 600,
        "page_load_timeout": 50
      },
      "repeat": 1,
      "timeout": 1000
    },
    {
      "proxy_settings": {
        "proxy_name": "bit_coding_proxy"
      },
      "browser_settings": {
        "android": {
          "ratio": 3,
          "cookie": []
        },
        "ios": {
          "ratio": 7,
          "cookie": []
        },
        "desktop": {
          "ratio": 0,
          "cookie": []
        }
      },
      "bot_config": {
        "bot_type": "clicker",
        "work_urls_link": "https://gitlab.com/theantiqa/bit_config/-/raw/main/links/16_domains16_09_2024.json",
        "facebook_redirect_config": {
          "mobile": {
            "im_facebook_ratio": 1,
            "m_facebook_ratio": 3
          },
          "desktop": {
            "i_facebook_ratio": 1,
            "facebook_ratio": 0
          }
        },
        "owner_site_automation_configuration": {
          "scrolling_up_down_range": "-10:420",
          "scrolling_up_down_delay_range": "0.5:0.7",
          "scrolling_time_duration_range": "20:30"
        },
        "ads_clicker_config": {
          "type": "adskeeper_mgid",
          "search_ads_ratio": 1,
          "non_search_ads_ratio": 1
        },
        "client_site_automation_configuration": {
          "ignore_redirect_url_keywords": [
            "javascript",
            "about",
            "privacy",
            "support",
            "contact",
            "mail",
            "terms"
          ],
          "scrolling_up_down_range": "-50:200",
          "scrolling_up_down_delay_range": "0.5:1",
          "scrolling_time_duration_range": "15:20",
          "after_click_wait_duration_range": "5:15"
        },
        "automation_timeout": 600,
        "page_load_timeout": 50
      },
      "repeat": 1,
      "timeout": 1000
    },
    {
      "proxy_settings": {
        "proxy_name": "bit_coding_proxy"
      },
      "browser_settings": {
        "android": {
          "ratio": 3,
          "cookie": []
        },
        "ios": {
          "ratio": 7,
          "cookie": []
        },
        "desktop": {
          "ratio": 1,
          "cookie": []
        }
      },
      "bot_config": {
        "bot_type": "clicker",
        "work_urls_link": "https://gitlab.com/theantiqa/bit_config/-/raw/main/links/16_domains16_09_2024.json",
        "facebook_redirect_config": {
          "mobile": {
            "im_facebook_ratio": 1,
            "m_facebook_ratio": 3
          },
          "desktop": {
            "i_facebook_ratio": 1,
            "facebook_ratio": 0
          }
        },
        "owner_site_automation_configuration": {
          "scrolling_up_down_range": "-10:420",
          "scrolling_up_down_delay_range": "0.5:0.7",
          "scrolling_time_duration_range": "20:30"
        },
        "ads_clicker_config": {
          "type": "adskeeper_mgid",
          "search_ads_ratio": 1,
          "non_search_ads_ratio": 1
        },
        "client_site_automation_configuration": {
          "ignore_redirect_url_keywords": [
            "javascript",
            "about",
            "privacy",
            "support",
            "contact",
            "mail",
            "terms"
          ],
          "scrolling_up_down_range": "-50:200",
          "scrolling_up_down_delay_range": "0.5:1",
          "scrolling_time_duration_range": "15:20",
          "after_click_wait_duration_range": "5:15"
        },
        "automation_timeout": 600,
        "page_load_timeout": 50
      },
      "repeat": 1,
      "timeout": 1000
    },
    {
      "proxy_settings": {
        "proxy_name": "bit_coding_proxy"
      },
      "browser_settings": {
        "android": {
          "ratio": 2,
          "cookie": []
        },
        "ios": {
          "ratio": 6,
          "cookie": []
        },
        "desktop": {
          "ratio": 0,
          "cookie": []
        }
      },
      "bot_config": {
        "bot_type": "clicker",
        "work_urls_link": "https://gitlab.com/theantiqa/bit_config/-/raw/main/links/16_domains16_09_2024.json",
        "facebook_redirect_config": {
          "mobile": {
            "im_facebook_ratio": 1,
            "m_facebook_ratio": 1
          },
          "desktop": {
            "i_facebook_ratio": 1,
            "facebook_ratio": 0
          }
        },
        "owner_site_automation_configuration": {
          "scrolling_up_down_range": "-10:420",
          "scrolling_up_down_delay_range": "0.5:0.7",
          "scrolling_time_duration_range": "20:30"
        },
        "ads_clicker_config": {
          "type": "adskeeper_mgid",
          "search_ads_ratio": 1,
          "non_search_ads_ratio": 1
        },
        "client_site_automation_configuration": {
          "ignore_redirect_url_keywords": [
            "javascript",
            "about",
            "privacy",
            "support",
            "contact",
            "mail",
            "terms"
          ],
          "scrolling_up_down_range": "-50:200",
          "scrolling_up_down_delay_range": "0.5:1",
          "scrolling_time_duration_range": "15:20",
          "after_click_wait_duration_range": "5:15"
        },
        "automation_timeout": 600,
        "page_load_timeout": 50
      },
      "repeat": 0,
      "timeout": 1000
    }
    

  ]
}